<svg width="235" height="51" viewBox="0 0 235 51" fill="none" xmlns="http://www.w3.org/2000/svg">
<path d="M233.1 17.8C234.2 16.1 234.7 14.2 234.7 12.1C234.7 9.2 233.7 6.7 231.7 4.6C229.7 2.6 227.1 1.5 224 1.5C221 1.5 218.3 2.6 216.3 4.6L216.2 4.7C214.3 6.7 213.3 9.3 213.3 12.1C213.3 13.4 213.5 14.6 213.9 15.7C210.8 13.4 206.7 12.2 201.7 12.2C199 12.2 196.5 12.5 194.2 13.2C191.8 13.9 189.8 14.8 188.1 16C187.2 16.6 186.4 17.3 185.7 18.1C185.5 17.9 185.3 17.7 185.1 17.5C183.4 15.8 181.3 14.5 178.9 13.6C176.6 12.7 174 12.2 171.3 12.2C168.6 12.2 166.1 12.6 163.8 13.5C161.9 14.2 160.1 15.2 158.6 16.5C159.2 15.2 159.5 13.7 159.5 12.1C159.5 9.2 158.4 6.7 156.5 4.6C154.5 2.6 151.9 1.5 148.8 1.5C145.8 1.5 143.1 2.6 141.1 4.6L141 4.7C139.1 6.7 138.1 9.3 138.1 12.1C138.1 12.4 138.1 12.7 138.1 13C137.9 13 137.7 13 137.5 13H121.5C119.4 13 117.5 13.6 115.9 14.9C115.9 14.9 115.9 14.9 115.8 14.8C114.6 13.9 113.2 13.3 111.7 13.1C109.9 12.8 107.7 12.8 105.5 13.1C104.5 13.2 103.7 13.4 103 13.6C102 13.9 101.1 14.4 100.4 15.2C100.3 15.1 100.1 15 100 14.9C98.8 14 97.4 13.4 95.9 13.2C94.1 12.9 91.9 12.9 89.7 13.2C88.7 13.3 87.9 13.5 87.3 13.7C87 13.8 86.7 13.9 86.4 14.1C84.6 12.8 82.3 12.3 79.7 12.3C78.4 12.3 77.1 12.4 75.8 12.6C74.6 12.8 73.3 13 72.2 13.4C71 13.7 69.9 14.2 68.9 14.6C67.8 15.1 66.8 15.6 66 16.3C64.9 15.4 63.6 14.9 62.2 14.9H61.3C60.6 11.7 58.8 10.1 57.5 9.3C55.7 8.1 53.5 7.5 50.8 7.5C49.7 7.5 48.6 7.6 47.6 7.8C46.6 8 46 8.1 45.4 8.3C42.8 9 41 11.3 41 13.9C41 13.9 40.9 13.9 40.9 13.8C39.6 13.2 38.1 12.8 36.5 12.5C35.1 12.2 33.6 12.1 32 12.1C29.8 12.1 27.8 12.4 25.8 12.9C24 13.4 22.3 14.1 20.9 15.1C20.8 14.1 20.6 13.2 20.3 12.4C19.7 10.8 18.7 9.4 17.4 8.4C16.3 7.6 14.9 7 13.5 6.7C11.5 6.4 9.3 6.3 6.9 6.7C6 6.8 5.3 6.9 4.9 7C2 7.5 0 10 0 12.9V39.7C0 41.3 0.2 42.7 0.7 43.9C1.3 45.5 2.3 46.9 3.6 47.9C4.7 48.7 6 49.3 7.5 49.6C9.4 50 11.7 50 13.8 49.7C14.9 49.6 15.7 49.4 16.4 49.2C17.5 48.9 18.4 48.3 19.1 47.6C19.6 48 20.2 48.3 20.7 48.6C20.8 48.6 20.9 48.7 21 48.7C22.4 49.3 23.9 49.8 25.7 50.1C27.2 50.4 28.9 50.5 30.6 50.5C35.7 50.5 39.7 49.4 42.8 47.1C43.3 46.7 43.8 46.3 44.3 45.8C44.7 46.2 45 46.6 45.5 46.9C48.2 49.2 51.8 50.3 56.3 50.3C60.2 50.3 63.1 49.5 65.1 47.8C65.2 47.9 65.3 47.9 65.4 48C66.6 48.9 67.9 49.4 69.5 49.7C71.4 50 73.6 50 75.6 49.7C76.7 49.5 77.5 49.4 78.1 49.2C80.6 48.4 82.4 46.1 82.4 43.5V31C82.5 31 82.6 31 82.7 31C82.8 31 83 31 83.1 31V33.9C83.1 36.6 83.6 39.1 84.6 41.3C85.6 43.5 87.1 45.4 89 46.8C90.7 48.1 92.8 49.1 95.1 49.7C97.1 50.2 99.4 50.5 101.7 50.5C104.1 50.5 106.3 50.2 108.4 49.7C110.7 49.2 112.7 48.4 114.4 47.3C114.6 47.2 114.7 47.1 114.9 47C115.3 47.4 115.7 47.8 116.1 48.2C117.2 49.2 118.6 49.7 120 49.7H136.8C139.1 49.7 140.8 49 142 48.1C143.2 49 144.5 49.5 146.1 49.8C148 50.1 150.2 50.1 152.3 49.8C153.1 49.7 153.7 49.6 154.1 49.5C156.1 49.1 157.6 47.9 158.4 46.2C160 47.5 161.7 48.5 163.7 49.2C166 50.1 168.5 50.5 171.2 50.5C173.9 50.5 176.4 50.1 178.6 49.3C180.9 48.5 183 47.3 184.6 45.7C185.2 46.7 185.9 47.5 186.8 48.1C188 49 189.3 49.6 190.9 49.8C192.8 50.1 195 50.1 197 49.8C198.1 49.6 198.9 49.5 199.5 49.3C200.5 49 201.4 48.5 202.1 47.7C202.2 47.8 202.4 47.9 202.5 48C203.7 48.9 205 49.4 206.6 49.7C208.5 50 210.7 50 212.7 49.7C213.8 49.5 214.6 49.4 215.2 49.2C216 49 216.7 48.6 217.3 48.1C218.4 48.9 219.7 49.5 221.2 49.7C223.1 50 225.3 50 227.4 49.7C228.2 49.6 228.8 49.5 229.2 49.4C232 48.9 234.1 46.4 234.1 43.5V23C234.1 21.3 233.8 19.9 233.3 18.6C233.3 18.3 233.2 18.1 233.1 17.8Z" fill="url(#paint0_linear)"/>
<path d="M233.1 16.8C234.2 15.1 234.7 13.2 234.7 11.1C234.7 8.2 233.7 5.7 231.7 3.6C229.7 1.6 227.1 0.5 224 0.5C221 0.5 218.3 1.6 216.3 3.6L216.2 3.7C214.3 5.7 213.3 8.3 213.3 11.1C213.3 12.4 213.5 13.6 213.9 14.7C210.8 12.4 206.7 11.2 201.7 11.2C199 11.2 196.5 11.5 194.2 12.2C191.8 12.9 189.8 13.8 188.1 15C187.2 15.6 186.4 16.3 185.7 17.1C185.5 16.9 185.3 16.7 185.1 16.5C183.4 14.8 181.3 13.5 178.9 12.6C176.6 11.7 174 11.2 171.3 11.2C168.6 11.2 166.1 11.6 163.8 12.5C161.9 13.2 160.1 14.2 158.6 15.5C159.2 14.2 159.5 12.7 159.5 11.1C159.5 8.2 158.4 5.7 156.5 3.6C154.5 1.6 151.9 0.5 148.8 0.5C145.8 0.5 143.1 1.6 141.1 3.6L141 3.7C139.1 5.7 138.1 8.3 138.1 11.1C138.1 11.4 138.1 11.7 138.1 12C137.9 12 137.7 12 137.5 12H121.5C119.4 12 117.5 12.6 115.9 13.9C115.9 13.9 115.9 13.9 115.8 13.8C114.6 12.9 113.2 12.3 111.7 12.1C109.9 11.8 107.7 11.8 105.5 12.1C104.5 12.2 103.7 12.4 103 12.6C102 12.9 101.1 13.4 100.4 14.2C100.3 14.1 100.1 14 100 13.9C98.8 13 97.4 12.4 95.9 12.2C94.1 11.9 91.9 11.9 89.7 12.2C88.7 12.3 87.9 12.5 87.3 12.7C87 12.8 86.7 12.9 86.4 13.1C84.6 11.8 82.3 11.3 79.7 11.3C78.4 11.3 77.1 11.4 75.8 11.6C74.6 11.8 73.3 12 72.2 12.4C71 12.7 69.9 13.2 68.9 13.6C67.8 14.1 66.8 14.6 66 15.3C64.9 14.4 63.6 13.9 62.2 13.9H61.3C60.6 10.7 58.8 9.1 57.5 8.3C55.7 7.1 53.5 6.5 50.8 6.5C49.7 6.5 48.6 6.6 47.6 6.8C46.6 7 46 7.1 45.4 7.3C42.8 8 41 10.3 41 12.9C41 12.9 40.9 12.9 40.9 12.8C39.6 12.2 38.1 11.8 36.5 11.5C35.1 11.2 33.6 11.1 32 11.1C29.8 11.1 27.8 11.4 25.8 11.9C24 12.4 22.3 13.1 20.9 14.1C20.8 13.1 20.6 12.2 20.3 11.4C19.7 9.8 18.7 8.4 17.4 7.4C16.3 6.6 14.9 6 13.5 5.7C11.5 5.4 9.3 5.3 6.9 5.7C6 5.8 5.3 5.9 4.9 6C2 6.5 0 9 0 11.9V38.7C0 40.3 0.2 41.7 0.7 42.9C1.3 44.5 2.3 45.9 3.6 46.9C4.7 47.7 6 48.3 7.5 48.6C9.4 49 11.7 49 13.8 48.7C14.9 48.6 15.7 48.4 16.4 48.2C17.5 47.9 18.4 47.3 19.1 46.6C19.6 47 20.2 47.3 20.7 47.6C20.8 47.6 20.9 47.7 21 47.7C22.4 48.3 23.9 48.8 25.7 49.1C27.2 49.4 28.9 49.5 30.6 49.5C35.7 49.5 39.7 48.4 42.8 46.1C43.3 45.7 43.8 45.3 44.3 44.8C44.7 45.2 45 45.6 45.5 45.9C48.2 48.2 51.8 49.3 56.3 49.3C60.2 49.3 63.1 48.5 65.1 46.8C65.2 46.9 65.3 46.9 65.4 47C66.6 47.9 67.9 48.4 69.5 48.7C71.4 49 73.6 49 75.6 48.7C76.7 48.5 77.5 48.4 78.1 48.2C80.6 47.4 82.4 45.1 82.4 42.5V30C82.5 30 82.6 30 82.7 30C82.8 30 83 30 83.1 30V32.9C83.1 35.6 83.6 38.1 84.6 40.3C85.6 42.5 87.1 44.4 89 45.8C90.7 47.1 92.8 48.1 95.1 48.7C97.1 49.2 99.4 49.5 101.7 49.5C104.1 49.5 106.3 49.2 108.4 48.7C110.7 48.2 112.7 47.4 114.4 46.3C114.6 46.2 114.7 46.1 114.9 46C115.3 46.4 115.7 46.8 116.1 47.2C117.2 48.2 118.6 48.7 120 48.7H136.8C139.1 48.7 140.8 48 142 47.1C143.2 48 144.5 48.5 146.1 48.8C148 49.1 150.2 49.1 152.3 48.8C153.1 48.7 153.7 48.6 154.1 48.5C156.1 48.1 157.6 46.9 158.4 45.2C160 46.5 161.7 47.5 163.7 48.2C166 49.1 168.5 49.5 171.2 49.5C173.9 49.5 176.4 49.1 178.6 48.3C180.9 47.5 183 46.3 184.6 44.7C185.2 45.7 185.9 46.5 186.8 47.1C188 48 189.3 48.6 190.9 48.8C192.8 49.1 195 49.1 197 48.8C198.1 48.6 198.9 48.5 199.5 48.3C200.5 48 201.4 47.5 202.1 46.7C202.2 46.8 202.4 46.9 202.5 47C203.7 47.9 205 48.4 206.6 48.7C208.5 49 210.7 49 212.7 48.7C213.8 48.5 214.6 48.4 215.2 48.2C216 48 216.7 47.6 217.3 47.1C218.4 47.9 219.7 48.5 221.2 48.7C223.1 49 225.3 49 227.4 48.7C228.2 48.6 228.8 48.5 229.2 48.4C232 47.9 234.1 45.4 234.1 42.5V22C234.1 20.3 233.8 18.9 233.3 17.6C233.3 17.3 233.2 17.1 233.1 16.8Z" fill="white"/>
<path d="M15.0862 41.4281C14.7136 41.5297 14.1208 41.6314 13.3078 41.733C12.5287 41.8346 11.7497 41.8854 10.9706 41.8854C10.1915 41.8854 9.49704 41.8177 8.88731 41.6822C8.31145 41.5805 7.82028 41.3773 7.41379 41.0724C7.00731 40.7676 6.70244 40.3442 6.4992 39.8022C6.29596 39.2602 6.19434 38.5488 6.19434 37.6681V10.84C6.56695 10.7723 7.15974 10.6876 7.97271 10.586C8.78569 10.4505 9.56479 10.3827 10.31 10.3827C11.0891 10.3827 11.7666 10.4505 12.3424 10.586C12.9522 10.6876 13.4603 10.8908 13.8668 11.1957C14.2733 11.5006 14.5781 11.924 14.7814 12.466C14.9846 13.0079 15.0862 13.7193 15.0862 14.6V41.4281Z" fill="url(#paint1_linear)"/>
<path d="M42.3557 34.2638C42.3557 36.8382 41.3903 38.8537 39.4595 40.3103C37.5287 41.7669 34.6833 42.4951 30.9233 42.4951C29.5006 42.4951 28.1795 42.3935 26.9601 42.1903C25.7406 41.987 24.6905 41.6822 23.8098 41.2757C22.963 40.8353 22.2855 40.2933 21.7774 39.6497C21.3031 39.0061 21.066 38.244 21.066 37.3633C21.066 36.5503 21.2354 35.8728 21.5741 35.3308C21.9129 34.755 22.3194 34.2807 22.7936 33.9081C23.7759 34.4501 24.8938 34.9413 26.1471 35.3816C27.4343 35.7881 28.9078 35.9914 30.5676 35.9914C31.6177 35.9914 32.4138 35.8389 32.9557 35.5341C33.5316 35.2292 33.8195 34.8227 33.8195 34.3146C33.8195 33.8404 33.6163 33.4678 33.2098 33.1968C32.8033 32.9258 32.1258 32.7056 31.1774 32.5362L29.653 32.2314C26.706 31.6555 24.5042 30.7579 23.0476 29.5384C21.6249 28.2851 20.9136 26.5067 20.9136 24.2033C20.9136 22.9499 21.1846 21.8151 21.7266 20.7989C22.2685 19.7827 23.0307 18.9359 24.0131 18.2584C24.9954 17.5809 26.164 17.0559 27.519 16.6833C28.9078 16.3106 30.4321 16.1243 32.092 16.1243C33.3453 16.1243 34.5139 16.226 35.5979 16.4292C36.7157 16.5986 37.6812 16.8696 38.4941 17.2422C39.3071 17.6148 39.9507 18.106 40.4249 18.7157C40.8992 19.2915 41.1363 19.986 41.1363 20.7989C41.1363 21.578 40.9839 22.2555 40.679 22.8314C40.408 23.3733 40.0523 23.8306 39.612 24.2033C39.341 24.0339 38.9345 23.8645 38.3925 23.6951C37.8505 23.4919 37.2577 23.3225 36.6141 23.187C35.9705 23.0177 35.31 22.8822 34.6325 22.7806C33.9889 22.6789 33.3961 22.6281 32.8541 22.6281C31.7363 22.6281 30.8725 22.7636 30.2628 23.0346C29.653 23.2717 29.3482 23.6613 29.3482 24.2033C29.3482 24.5759 29.5176 24.8807 29.8563 25.1179C30.195 25.355 30.8386 25.5751 31.7871 25.7784L33.3622 26.1341C36.6141 26.8793 38.9176 27.9124 40.2725 29.2335C41.6613 30.5207 42.3557 32.1975 42.3557 34.2638Z" fill="url(#paint2_linear)"/>
<path d="M55.6777 33.146C55.6777 34.0267 55.9487 34.6533 56.4907 35.026C57.0665 35.3986 57.8626 35.5849 58.8788 35.5849C59.3869 35.5849 59.9119 35.551 60.4539 35.4833C60.9959 35.3816 61.4701 35.2631 61.8766 35.1276C62.1815 35.5002 62.4355 35.9236 62.6388 36.3979C62.8759 36.8382 62.9945 37.3802 62.9945 38.0238C62.9945 39.311 62.5033 40.3611 61.5209 41.1741C60.5725 41.987 58.8788 42.3935 56.4399 42.3935C53.459 42.3935 51.1555 41.716 49.5296 40.3611C47.9375 39.0061 47.1415 36.8043 47.1415 33.7557V12.0087C47.5141 11.907 48.0391 11.8054 48.7166 11.7038C49.428 11.5683 50.1732 11.5006 50.9523 11.5006C52.4427 11.5006 53.5945 11.7715 54.4074 12.3135C55.2543 12.8216 55.6777 13.9225 55.6777 15.6162V18.8681H62.3339C62.5372 19.2407 62.7235 19.715 62.8928 20.2908C63.0961 20.8328 63.1977 21.4425 63.1977 22.12C63.1977 23.3056 62.9267 24.1694 62.3847 24.7114C61.8766 25.2195 61.1822 25.4735 60.3015 25.4735H55.6777V33.146Z" fill="url(#paint3_linear)"/>
<path d="M76.53 41.5806C76.1912 41.6822 75.6493 41.7838 74.904 41.8854C74.1927 41.987 73.4475 42.0378 72.6684 42.0378C71.9231 42.0378 71.2457 41.987 70.6359 41.8854C70.0601 41.7838 69.5689 41.5806 69.1624 41.2757C68.7559 40.9708 68.4341 40.5643 68.197 40.0562C67.9938 39.5142 67.8921 38.8198 67.8921 37.973V22.7297C67.8921 21.9506 68.0276 21.2901 68.2986 20.7481C68.6035 20.1723 69.0269 19.6642 69.5689 19.2238C70.1109 18.7834 70.7714 18.3939 71.5505 18.0552C72.3635 17.6825 73.2273 17.3607 74.1419 17.0897C75.0565 16.8188 76.0049 16.6155 76.9873 16.48C77.9696 16.3106 78.952 16.226 79.9343 16.226C81.5602 16.226 82.8475 16.5478 83.7959 17.1914C84.7444 17.8011 85.2186 18.8173 85.2186 20.24C85.2186 20.7142 85.1509 21.1885 85.0154 21.6627C84.8799 22.1031 84.7105 22.5096 84.5073 22.8822C83.7959 22.8822 83.0676 22.9161 82.3224 22.9838C81.5772 23.0515 80.8489 23.1532 80.1375 23.2887C79.4262 23.4242 78.7487 23.5766 78.1051 23.746C77.4954 23.8815 76.9703 24.0508 76.53 24.2541V41.5806Z" fill="url(#paint4_linear)"/>
<path d="M89.2902 17.293C89.629 17.1914 90.154 17.0897 90.8654 16.9881C91.6106 16.8865 92.3728 16.8357 93.1519 16.8357C93.8971 16.8357 94.5576 16.8865 95.1335 16.9881C95.7432 17.0897 96.2513 17.293 96.6578 17.5979C97.0643 17.9027 97.3692 18.3261 97.5724 18.8681C97.8095 19.3762 97.9281 20.0537 97.9281 20.9006V31.8249C97.9281 33.2137 98.2668 34.213 98.9443 34.8227C99.6218 35.3986 100.604 35.6865 101.891 35.6865C102.67 35.6865 103.297 35.6188 103.771 35.4833C104.279 35.3478 104.669 35.2123 104.94 35.0768V17.293C105.279 17.1914 105.804 17.0897 106.515 16.9881C107.26 16.8865 108.022 16.8357 108.802 16.8357C109.547 16.8357 110.207 16.8865 110.783 16.9881C111.393 17.0897 111.901 17.293 112.308 17.5979C112.714 17.9027 113.019 18.3261 113.222 18.8681C113.459 19.3762 113.578 20.0537 113.578 20.9006V36.347C113.578 38.0407 112.866 39.311 111.444 40.1578C110.258 40.9031 108.835 41.462 107.176 41.8346C105.55 42.2411 103.771 42.4443 101.84 42.4443C100.011 42.4443 98.3176 42.2411 96.7594 41.8346C95.2351 41.4281 93.914 40.8015 92.7962 39.9546C91.6783 39.1078 90.8146 38.0238 90.2048 36.7027C89.5951 35.3478 89.2902 33.7218 89.2902 31.8249V17.293Z" fill="url(#paint5_linear)"/>
<path d="M120.236 41.6314C119.694 41.1571 119.253 40.5982 118.915 39.9546C118.61 39.311 118.457 38.5827 118.457 37.7697C118.457 37.0923 118.61 36.4317 118.915 35.7881C119.253 35.1106 119.66 34.484 120.134 33.9081L128.873 23.6443H119.524C119.321 23.2717 119.118 22.7975 118.915 22.2216C118.745 21.6458 118.66 21.0191 118.66 20.3416C118.66 19.1561 118.915 18.3092 119.423 17.8011C119.965 17.2591 120.676 16.9881 121.557 16.9881H137.562C138.104 17.4624 138.527 18.0213 138.832 18.6649C139.171 19.3085 139.34 20.0368 139.34 20.8497C139.34 21.5272 139.171 22.2047 138.832 22.8822C138.527 23.5258 138.138 24.1355 137.664 24.7114L129.127 34.9751H139.086C139.29 35.3478 139.476 35.822 139.645 36.3979C139.849 36.9737 139.95 37.6004 139.95 38.2779C139.95 39.4634 139.679 40.3272 139.137 40.8692C138.629 41.3773 137.935 41.6314 137.054 41.6314H120.236Z" fill="url(#paint6_linear)"/>
<path d="M144.139 10.0779C144.139 8.79065 144.563 7.70668 145.41 6.82596C146.29 5.94524 147.442 5.50488 148.865 5.50488C150.287 5.50488 151.422 5.94524 152.269 6.82596C153.15 7.70668 153.59 8.79065 153.59 10.0779C153.59 11.3651 153.15 12.449 152.269 13.3297C151.422 14.2105 150.287 14.6508 148.865 14.6508C147.442 14.6508 146.29 14.2105 145.41 13.3297C144.563 12.449 144.139 11.3651 144.139 10.0779ZM153.184 41.5806C152.811 41.6483 152.252 41.733 151.507 41.8346C150.796 41.9701 150.067 42.0378 149.322 42.0378C148.577 42.0378 147.899 41.987 147.29 41.8854C146.714 41.7838 146.223 41.5806 145.816 41.2757C145.41 40.9708 145.088 40.5643 144.851 40.0562C144.647 39.5142 144.546 38.8198 144.546 37.973V17.293C144.918 17.2252 145.46 17.1406 146.172 17.0389C146.917 16.9034 147.662 16.8357 148.407 16.8357C149.153 16.8357 149.813 16.8865 150.389 16.9881C150.999 17.0897 151.507 17.293 151.913 17.5979C152.32 17.9027 152.625 18.3261 152.828 18.8681C153.065 19.3762 153.184 20.0537 153.184 20.9006V41.5806Z" fill="url(#paint7_linear)"/>
<path d="M184.749 29.2843C184.749 31.3845 184.427 33.2645 183.783 34.9243C183.14 36.5503 182.225 37.9222 181.039 39.04C179.888 40.1579 178.499 41.0047 176.873 41.5806C175.247 42.1564 173.435 42.4443 171.436 42.4443C169.438 42.4443 167.625 42.1395 165.999 41.5297C164.374 40.92 162.968 40.0562 161.782 38.9384C160.63 37.7867 159.733 36.3978 159.089 34.7719C158.446 33.146 158.124 31.3168 158.124 29.2843C158.124 27.2858 158.446 25.4735 159.089 23.8476C159.733 22.2216 160.63 20.8497 161.782 19.7319C162.968 18.5802 164.374 17.6995 165.999 17.0897C167.625 16.48 169.438 16.1751 171.436 16.1751C173.435 16.1751 175.247 16.497 176.873 17.1406C178.499 17.7503 179.888 18.631 181.039 19.7827C182.225 20.9006 183.14 22.2724 183.783 23.8984C184.427 25.5243 184.749 27.3197 184.749 29.2843ZM166.965 29.2843C166.965 31.3506 167.354 32.9427 168.133 34.0606C168.946 35.1445 170.064 35.6865 171.487 35.6865C172.91 35.6865 173.994 35.1276 174.739 34.0097C175.518 32.8919 175.908 31.3168 175.908 29.2843C175.908 27.2519 175.518 25.6937 174.739 24.6097C173.96 23.4919 172.859 22.933 171.436 22.933C170.014 22.933 168.913 23.4919 168.133 24.6097C167.354 25.6937 166.965 27.2519 166.965 29.2843Z" fill="url(#paint8_linear)"/>
<path d="M205.121 25.9816C205.121 24.9315 204.816 24.1694 204.206 23.6951C203.63 23.187 202.834 22.933 201.818 22.933C201.14 22.933 200.463 23.0177 199.785 23.187C199.142 23.3564 198.583 23.6105 198.109 23.9492V41.5806C197.77 41.6822 197.228 41.7838 196.483 41.8854C195.771 41.987 195.026 42.0378 194.247 42.0378C193.502 42.0378 192.824 41.987 192.215 41.8854C191.639 41.7838 191.148 41.5806 190.741 41.2757C190.335 40.9708 190.013 40.5643 189.776 40.0562C189.572 39.5142 189.471 38.8198 189.471 37.973V22.7297C189.471 21.8151 189.657 21.0699 190.03 20.4941C190.436 19.9182 190.978 19.3932 191.656 18.9189C192.807 18.106 194.247 17.4454 195.975 16.9373C197.736 16.4292 199.684 16.1751 201.818 16.1751C205.646 16.1751 208.593 17.022 210.659 18.7157C212.725 20.3755 213.758 22.6959 213.758 25.6768V41.5806C213.42 41.6822 212.878 41.7838 212.132 41.8854C211.421 41.987 210.676 42.0378 209.897 42.0378C209.152 42.0378 208.474 41.987 207.864 41.8854C207.289 41.7838 206.797 41.5806 206.391 41.2757C205.984 40.9708 205.663 40.5643 205.425 40.0562C205.222 39.5142 205.121 38.8198 205.121 37.973V25.9816Z" fill="url(#paint9_linear)"/>
<path d="M219.399 10.0779C219.399 8.79065 219.822 7.70668 220.669 6.82596C221.55 5.94524 222.702 5.50488 224.124 5.50488C225.547 5.50488 226.682 5.94524 227.529 6.82596C228.409 7.70668 228.85 8.79065 228.85 10.0779C228.85 11.3651 228.409 12.449 227.529 13.3297C226.682 14.2105 225.547 14.6508 224.124 14.6508C222.702 14.6508 221.55 14.2105 220.669 13.3297C219.822 12.449 219.399 11.3651 219.399 10.0779ZM228.443 41.5806C228.071 41.6483 227.512 41.733 226.766 41.8346C226.055 41.9701 225.327 42.0378 224.582 42.0378C223.836 42.0378 223.159 41.987 222.549 41.8854C221.973 41.7838 221.482 41.5806 221.076 41.2757C220.669 40.9708 220.347 40.5643 220.11 40.0562C219.907 39.5142 219.805 38.8198 219.805 37.973V17.293C220.178 17.2252 220.72 17.1406 221.431 17.0389C222.176 16.9034 222.922 16.8357 223.667 16.8357C224.412 16.8357 225.073 16.8865 225.649 16.9881C226.258 17.0897 226.766 17.293 227.173 17.5979C227.579 17.9027 227.884 18.3261 228.087 18.8681C228.325 19.3762 228.443 20.0537 228.443 20.9006V41.5806Z" fill="url(#paint10_linear)"/>
<path d="M15.0862 42.4281C14.7136 42.5297 14.1208 42.6314 13.3078 42.733C12.5287 42.8346 11.7497 42.8854 10.9706 42.8854C10.1915 42.8854 9.49704 42.8177 8.88731 42.6822C8.31145 42.5805 7.82028 42.3773 7.41379 42.0724C7.00731 41.7676 6.70244 41.3442 6.4992 40.8022C6.29596 40.2602 6.19434 39.5488 6.19434 38.6681V11.84C6.56695 11.7723 7.15974 11.6876 7.97271 11.586C8.78569 11.4505 9.56479 11.3827 10.31 11.3827C11.0891 11.3827 11.7666 11.4505 12.3424 11.586C12.9522 11.6876 13.4603 11.8908 13.8668 12.1957C14.2733 12.5006 14.5781 12.924 14.7814 13.466C14.9846 14.0079 15.0862 14.7193 15.0862 15.6V42.4281Z" fill="url(#paint11_linear)"/>
<path d="M42.3557 35.2638C42.3557 37.8382 41.3903 39.8537 39.4595 41.3103C37.5287 42.7669 34.6833 43.4951 30.9233 43.4951C29.5006 43.4951 28.1795 43.3935 26.9601 43.1903C25.7406 42.987 24.6905 42.6822 23.8098 42.2757C22.963 41.8353 22.2855 41.2933 21.7774 40.6497C21.3031 40.0061 21.066 39.244 21.066 38.3633C21.066 37.5503 21.2354 36.8728 21.5741 36.3308C21.9129 35.755 22.3194 35.2807 22.7936 34.9081C23.7759 35.4501 24.8938 35.9413 26.1471 36.3816C27.4343 36.7881 28.9078 36.9914 30.5676 36.9914C31.6177 36.9914 32.4138 36.8389 32.9557 36.5341C33.5316 36.2292 33.8195 35.8227 33.8195 35.3146C33.8195 34.8404 33.6163 34.4678 33.2098 34.1968C32.8033 33.9258 32.1258 33.7056 31.1774 33.5362L29.653 33.2314C26.706 32.6555 24.5042 31.7579 23.0476 30.5384C21.6249 29.2851 20.9136 27.5067 20.9136 25.2033C20.9136 23.9499 21.1846 22.8151 21.7266 21.7989C22.2685 20.7827 23.0307 19.9359 24.0131 19.2584C24.9954 18.5809 26.164 18.0559 27.519 17.6833C28.9078 17.3106 30.4321 17.1243 32.092 17.1243C33.3453 17.1243 34.5139 17.226 35.5979 17.4292C36.7157 17.5986 37.6812 17.8696 38.4941 18.2422C39.3071 18.6148 39.9507 19.106 40.4249 19.7157C40.8992 20.2915 41.1363 20.986 41.1363 21.7989C41.1363 22.578 40.9839 23.2555 40.679 23.8314C40.408 24.3733 40.0523 24.8306 39.612 25.2033C39.341 25.0339 38.9345 24.8645 38.3925 24.6951C37.8505 24.4919 37.2577 24.3225 36.6141 24.187C35.9705 24.0177 35.31 23.8822 34.6325 23.7806C33.9889 23.6789 33.3961 23.6281 32.8541 23.6281C31.7363 23.6281 30.8725 23.7636 30.2628 24.0346C29.653 24.2717 29.3482 24.6613 29.3482 25.2033C29.3482 25.5759 29.5176 25.8807 29.8563 26.1179C30.195 26.355 30.8386 26.5751 31.7871 26.7784L33.3622 27.1341C36.6141 27.8793 38.9176 28.9124 40.2725 30.2335C41.6613 31.5207 42.3557 33.1975 42.3557 35.2638Z" fill="url(#paint12_linear)"/>
<path d="M55.6777 34.146C55.6777 35.0267 55.9487 35.6533 56.4907 36.026C57.0665 36.3986 57.8626 36.5849 58.8788 36.5849C59.3869 36.5849 59.9119 36.551 60.4539 36.4833C60.9959 36.3816 61.4701 36.2631 61.8766 36.1276C62.1815 36.5002 62.4355 36.9236 62.6388 37.3979C62.8759 37.8382 62.9945 38.3802 62.9945 39.0238C62.9945 40.311 62.5033 41.3611 61.5209 42.1741C60.5725 42.987 58.8788 43.3935 56.4399 43.3935C53.459 43.3935 51.1555 42.716 49.5296 41.3611C47.9375 40.0061 47.1415 37.8043 47.1415 34.7557V13.0087C47.5141 12.907 48.0391 12.8054 48.7166 12.7038C49.428 12.5683 50.1732 12.5006 50.9523 12.5006C52.4427 12.5006 53.5945 12.7715 54.4074 13.3135C55.2543 13.8216 55.6777 14.9225 55.6777 16.6162V19.8681H62.3339C62.5372 20.2407 62.7235 20.715 62.8928 21.2908C63.0961 21.8328 63.1977 22.4425 63.1977 23.12C63.1977 24.3056 62.9267 25.1694 62.3847 25.7114C61.8766 26.2195 61.1822 26.4735 60.3015 26.4735H55.6777V34.146Z" fill="url(#paint13_linear)"/>
<path d="M76.53 42.5806C76.1912 42.6822 75.6493 42.7838 74.904 42.8854C74.1927 42.987 73.4475 43.0378 72.6684 43.0378C71.9231 43.0378 71.2457 42.987 70.6359 42.8854C70.0601 42.7838 69.5689 42.5806 69.1624 42.2757C68.7559 41.9708 68.4341 41.5643 68.197 41.0562C67.9938 40.5142 67.8921 39.8198 67.8921 38.973V23.7297C67.8921 22.9506 68.0276 22.2901 68.2986 21.7481C68.6035 21.1723 69.0269 20.6642 69.5689 20.2238C70.1109 19.7834 70.7714 19.3939 71.5505 19.0552C72.3635 18.6825 73.2273 18.3607 74.1419 18.0897C75.0565 17.8188 76.0049 17.6155 76.9873 17.48C77.9696 17.3106 78.952 17.226 79.9343 17.226C81.5602 17.226 82.8475 17.5478 83.7959 18.1914C84.7444 18.8011 85.2186 19.8173 85.2186 21.24C85.2186 21.7142 85.1509 22.1885 85.0154 22.6627C84.8799 23.1031 84.7105 23.5096 84.5073 23.8822C83.7959 23.8822 83.0676 23.9161 82.3224 23.9838C81.5772 24.0515 80.8489 24.1532 80.1375 24.2887C79.4262 24.4242 78.7487 24.5766 78.1051 24.746C77.4954 24.8815 76.9703 25.0508 76.53 25.2541V42.5806Z" fill="url(#paint14_linear)"/>
<path d="M89.2902 18.293C89.629 18.1914 90.154 18.0897 90.8654 17.9881C91.6106 17.8865 92.3728 17.8357 93.1519 17.8357C93.8971 17.8357 94.5576 17.8865 95.1335 17.9881C95.7432 18.0897 96.2513 18.293 96.6578 18.5979C97.0643 18.9027 97.3692 19.3261 97.5724 19.8681C97.8095 20.3762 97.9281 21.0537 97.9281 21.9006V32.8249C97.9281 34.2137 98.2668 35.213 98.9443 35.8227C99.6218 36.3986 100.604 36.6865 101.891 36.6865C102.67 36.6865 103.297 36.6188 103.771 36.4833C104.279 36.3478 104.669 36.2123 104.94 36.0768V18.293C105.279 18.1914 105.804 18.0897 106.515 17.9881C107.26 17.8865 108.022 17.8357 108.802 17.8357C109.547 17.8357 110.207 17.8865 110.783 17.9881C111.393 18.0897 111.901 18.293 112.308 18.5979C112.714 18.9027 113.019 19.3261 113.222 19.8681C113.459 20.3762 113.578 21.0537 113.578 21.9006V37.347C113.578 39.0407 112.866 40.311 111.444 41.1578C110.258 41.9031 108.835 42.462 107.176 42.8346C105.55 43.2411 103.771 43.4443 101.84 43.4443C100.011 43.4443 98.3176 43.2411 96.7594 42.8346C95.2351 42.4281 93.914 41.8015 92.7962 40.9546C91.6783 40.1078 90.8146 39.0238 90.2048 37.7027C89.5951 36.3478 89.2902 34.7218 89.2902 32.8249V18.293Z" fill="url(#paint15_linear)"/>
<path d="M120.236 42.6314C119.694 42.1571 119.253 41.5982 118.915 40.9546C118.61 40.311 118.457 39.5827 118.457 38.7697C118.457 38.0923 118.61 37.4317 118.915 36.7881C119.253 36.1106 119.66 35.484 120.134 34.9081L128.873 24.6443H119.524C119.321 24.2717 119.118 23.7975 118.915 23.2216C118.745 22.6458 118.66 22.0191 118.66 21.3416C118.66 20.1561 118.915 19.3092 119.423 18.8011C119.965 18.2591 120.676 17.9881 121.557 17.9881H137.562C138.104 18.4624 138.527 19.0213 138.832 19.6649C139.171 20.3085 139.34 21.0368 139.34 21.8497C139.34 22.5272 139.171 23.2047 138.832 23.8822C138.527 24.5258 138.138 25.1355 137.664 25.7114L129.127 35.9751H139.086C139.29 36.3478 139.476 36.822 139.645 37.3979C139.849 37.9737 139.95 38.6004 139.95 39.2779C139.95 40.4634 139.679 41.3272 139.137 41.8692C138.629 42.3773 137.935 42.6314 137.054 42.6314H120.236Z" fill="url(#paint16_linear)"/>
<path d="M144.139 11.0779C144.139 9.79065 144.563 8.70668 145.41 7.82596C146.29 6.94524 147.442 6.50488 148.865 6.50488C150.287 6.50488 151.422 6.94524 152.269 7.82596C153.15 8.70668 153.59 9.79065 153.59 11.0779C153.59 12.3651 153.15 13.449 152.269 14.3297C151.422 15.2105 150.287 15.6508 148.865 15.6508C147.442 15.6508 146.29 15.2105 145.41 14.3297C144.563 13.449 144.139 12.3651 144.139 11.0779ZM153.184 42.5806C152.811 42.6483 152.252 42.733 151.507 42.8346C150.796 42.9701 150.067 43.0378 149.322 43.0378C148.577 43.0378 147.899 42.987 147.29 42.8854C146.714 42.7838 146.223 42.5806 145.816 42.2757C145.41 41.9708 145.088 41.5643 144.851 41.0562C144.647 40.5142 144.546 39.8198 144.546 38.973V18.293C144.918 18.2252 145.46 18.1406 146.172 18.0389C146.917 17.9034 147.662 17.8357 148.407 17.8357C149.153 17.8357 149.813 17.8865 150.389 17.9881C150.999 18.0897 151.507 18.293 151.913 18.5979C152.32 18.9027 152.625 19.3261 152.828 19.8681C153.065 20.3762 153.184 21.0537 153.184 21.9006V42.5806Z" fill="url(#paint17_linear)"/>
<path d="M184.749 30.2843C184.749 32.3845 184.427 34.2645 183.783 35.9243C183.14 37.5503 182.225 38.9222 181.039 40.04C179.888 41.1579 178.499 42.0047 176.873 42.5806C175.247 43.1564 173.435 43.4443 171.436 43.4443C169.438 43.4443 167.625 43.1395 165.999 42.5297C164.374 41.92 162.968 41.0562 161.782 39.9384C160.63 38.7867 159.733 37.3978 159.089 35.7719C158.446 34.146 158.124 32.3168 158.124 30.2843C158.124 28.2858 158.446 26.4735 159.089 24.8476C159.733 23.2216 160.63 21.8497 161.782 20.7319C162.968 19.5802 164.374 18.6995 165.999 18.0897C167.625 17.48 169.438 17.1751 171.436 17.1751C173.435 17.1751 175.247 17.497 176.873 18.1406C178.499 18.7503 179.888 19.631 181.039 20.7827C182.225 21.9006 183.14 23.2724 183.783 24.8984C184.427 26.5243 184.749 28.3197 184.749 30.2843ZM166.965 30.2843C166.965 32.3506 167.354 33.9427 168.133 35.0606C168.946 36.1445 170.064 36.6865 171.487 36.6865C172.91 36.6865 173.994 36.1276 174.739 35.0097C175.518 33.8919 175.908 32.3168 175.908 30.2843C175.908 28.2519 175.518 26.6937 174.739 25.6097C173.96 24.4919 172.859 23.933 171.436 23.933C170.014 23.933 168.913 24.4919 168.133 25.6097C167.354 26.6937 166.965 28.2519 166.965 30.2843Z" fill="url(#paint18_linear)"/>
<path d="M205.121 26.9816C205.121 25.9315 204.816 25.1694 204.206 24.6951C203.63 24.187 202.834 23.933 201.818 23.933C201.14 23.933 200.463 24.0177 199.785 24.187C199.142 24.3564 198.583 24.6105 198.109 24.9492V42.5806C197.77 42.6822 197.228 42.7838 196.483 42.8854C195.771 42.987 195.026 43.0378 194.247 43.0378C193.502 43.0378 192.824 42.987 192.215 42.8854C191.639 42.7838 191.148 42.5806 190.741 42.2757C190.335 41.9708 190.013 41.5643 189.776 41.0562C189.572 40.5142 189.471 39.8198 189.471 38.973V23.7297C189.471 22.8151 189.657 22.0699 190.03 21.4941C190.436 20.9182 190.978 20.3932 191.656 19.9189C192.807 19.106 194.247 18.4454 195.975 17.9373C197.736 17.4292 199.684 17.1751 201.818 17.1751C205.646 17.1751 208.593 18.022 210.659 19.7157C212.725 21.3755 213.758 23.6959 213.758 26.6768V42.5806C213.42 42.6822 212.878 42.7838 212.132 42.8854C211.421 42.987 210.676 43.0378 209.897 43.0378C209.152 43.0378 208.474 42.987 207.864 42.8854C207.289 42.7838 206.797 42.5806 206.391 42.2757C205.984 41.9708 205.663 41.5643 205.425 41.0562C205.222 40.5142 205.121 39.8198 205.121 38.973V26.9816Z" fill="url(#paint19_linear)"/>
<path d="M219.399 11.0779C219.399 9.79065 219.822 8.70668 220.669 7.82596C221.55 6.94524 222.702 6.50488 224.124 6.50488C225.547 6.50488 226.682 6.94524 227.529 7.82596C228.409 8.70668 228.85 9.79065 228.85 11.0779C228.85 12.3651 228.409 13.449 227.529 14.3297C226.682 15.2105 225.547 15.6508 224.124 15.6508C222.702 15.6508 221.55 15.2105 220.669 14.3297C219.822 13.449 219.399 12.3651 219.399 11.0779ZM228.443 42.5806C228.071 42.6483 227.512 42.733 226.766 42.8346C226.055 42.9701 225.327 43.0378 224.582 43.0378C223.836 43.0378 223.159 42.987 222.549 42.8854C221.973 42.7838 221.482 42.5806 221.076 42.2757C220.669 41.9708 220.347 41.5643 220.11 41.0562C219.907 40.5142 219.805 39.8198 219.805 38.973V18.293C220.178 18.2252 220.72 18.1406 221.431 18.0389C222.176 17.9034 222.922 17.8357 223.667 17.8357C224.412 17.8357 225.073 17.8865 225.649 17.9881C226.258 18.0897 226.766 18.293 227.173 18.5979C227.579 18.9027 227.884 19.3261 228.087 19.8681C228.325 20.3762 228.443 21.0537 228.443 21.9006V42.5806Z" fill="url(#paint20_linear)"/>
<defs>
<linearGradient id="paint0_linear" x1="125.038" y1="-1.62497" x2="125.038" y2="50.5" gradientUnits="userSpaceOnUse">
<stop stop-color="#5496AE"/>
<stop offset="1" stop-color="#3D4493" stop-opacity="0.72"/>
</linearGradient>
<linearGradient id="paint1_linear" x1="117.522" y1="4.69107" x2="117.522" y2="42.4952" gradientUnits="userSpaceOnUse">
<stop stop-color="#7EBA32"/>
<stop offset="1" stop-color="#317B0E"/>
</linearGradient>
<linearGradient id="paint2_linear" x1="117.522" y1="4.69107" x2="117.522" y2="42.4952" gradientUnits="userSpaceOnUse">
<stop stop-color="#7EBA32"/>
<stop offset="1" stop-color="#317B0E"/>
</linearGradient>
<linearGradient id="paint3_linear" x1="117.522" y1="4.69107" x2="117.522" y2="42.4952" gradientUnits="userSpaceOnUse">
<stop stop-color="#7EBA32"/>
<stop offset="1" stop-color="#317B0E"/>
</linearGradient>
<linearGradient id="paint4_linear" x1="117.522" y1="4.69107" x2="117.522" y2="42.4952" gradientUnits="userSpaceOnUse">
<stop stop-color="#7EBA32"/>
<stop offset="1" stop-color="#317B0E"/>
</linearGradient>
<linearGradient id="paint5_linear" x1="117.522" y1="4.69107" x2="117.522" y2="42.4952" gradientUnits="userSpaceOnUse">
<stop stop-color="#7EBA32"/>
<stop offset="1" stop-color="#317B0E"/>
</linearGradient>
<linearGradient id="paint6_linear" x1="117.522" y1="4.69107" x2="117.522" y2="42.4952" gradientUnits="userSpaceOnUse">
<stop stop-color="#7EBA32"/>
<stop offset="1" stop-color="#317B0E"/>
</linearGradient>
<linearGradient id="paint7_linear" x1="117.522" y1="4.69107" x2="117.522" y2="42.4952" gradientUnits="userSpaceOnUse">
<stop stop-color="#7EBA32"/>
<stop offset="1" stop-color="#317B0E"/>
</linearGradient>
<linearGradient id="paint8_linear" x1="117.522" y1="4.69107" x2="117.522" y2="42.4952" gradientUnits="userSpaceOnUse">
<stop stop-color="#7EBA32"/>
<stop offset="1" stop-color="#317B0E"/>
</linearGradient>
<linearGradient id="paint9_linear" x1="117.522" y1="4.69107" x2="117.522" y2="42.4952" gradientUnits="userSpaceOnUse">
<stop stop-color="#7EBA32"/>
<stop offset="1" stop-color="#317B0E"/>
</linearGradient>
<linearGradient id="paint10_linear" x1="117.522" y1="4.69107" x2="117.522" y2="42.4952" gradientUnits="userSpaceOnUse">
<stop stop-color="#7EBA32"/>
<stop offset="1" stop-color="#317B0E"/>
</linearGradient>
<linearGradient id="paint11_linear" x1="117.35" y1="48.9576" x2="117.35" y2="-1.90182" gradientUnits="userSpaceOnUse">
<stop stop-color="#9FC92C"/>
<stop offset="1" stop-color="#46BC44"/>
</linearGradient>
<linearGradient id="paint12_linear" x1="117.35" y1="48.9576" x2="117.35" y2="-1.90182" gradientUnits="userSpaceOnUse">
<stop stop-color="#9FC92C"/>
<stop offset="1" stop-color="#46BC44"/>
</linearGradient>
<linearGradient id="paint13_linear" x1="117.35" y1="48.9576" x2="117.35" y2="-1.90182" gradientUnits="userSpaceOnUse">
<stop stop-color="#9FC92C"/>
<stop offset="1" stop-color="#46BC44"/>
</linearGradient>
<linearGradient id="paint14_linear" x1="117.35" y1="48.9576" x2="117.35" y2="-1.90182" gradientUnits="userSpaceOnUse">
<stop stop-color="#9FC92C"/>
<stop offset="1" stop-color="#46BC44"/>
</linearGradient>
<linearGradient id="paint15_linear" x1="117.35" y1="48.9576" x2="117.35" y2="-1.90182" gradientUnits="userSpaceOnUse">
<stop stop-color="#9FC92C"/>
<stop offset="1" stop-color="#46BC44"/>
</linearGradient>
<linearGradient id="paint16_linear" x1="117.35" y1="48.9576" x2="117.35" y2="-1.90182" gradientUnits="userSpaceOnUse">
<stop stop-color="#9FC92C"/>
<stop offset="1" stop-color="#46BC44"/>
</linearGradient>
<linearGradient id="paint17_linear" x1="117.35" y1="48.9576" x2="117.35" y2="-1.90182" gradientUnits="userSpaceOnUse">
<stop stop-color="#9FC92C"/>
<stop offset="1" stop-color="#46BC44"/>
</linearGradient>
<linearGradient id="paint18_linear" x1="117.35" y1="48.9576" x2="117.35" y2="-1.90182" gradientUnits="userSpaceOnUse">
<stop stop-color="#9FC92C"/>
<stop offset="1" stop-color="#46BC44"/>
</linearGradient>
<linearGradient id="paint19_linear" x1="117.35" y1="48.9576" x2="117.35" y2="-1.90182" gradientUnits="userSpaceOnUse">
<stop stop-color="#9FC92C"/>
<stop offset="1" stop-color="#46BC44"/>
</linearGradient>
<linearGradient id="paint20_linear" x1="117.35" y1="48.9576" x2="117.35" y2="-1.90182" gradientUnits="userSpaceOnUse">
<stop stop-color="#9FC92C"/>
<stop offset="1" stop-color="#46BC44"/>
</linearGradient>
</defs>
</svg>
