<svg width="143" height="40" viewBox="0 0 143 40" fill="none" xmlns="http://www.w3.org/2000/svg">
<path d="M0.960938 22.2221C0.960938 12.4037 8.92032 4.44434 18.7387 4.44434H125.183C135.002 4.44434 142.961 12.4037 142.961 22.2221V22.2221C142.961 32.0405 135.002 39.9999 125.183 39.9999H18.7387C8.92032 39.9999 0.960938 32.0405 0.960938 22.2221V22.2221Z" fill="url(#paint0_linear)"/>
<path d="M0.960938 19.4444C0.960938 8.70558 9.66651 0 20.4054 0H123.517C134.255 0 142.961 8.70558 142.961 19.4444V19.4444C142.961 30.1833 134.255 38.8889 123.517 38.8889H20.4054C9.66651 38.8889 0.960938 30.1833 0.960938 19.4444V19.4444Z" fill="white"/>
<path d="M6.78533 28.3513C5.23405 20.5415 10.9746 13.1739 18.9267 12.7688L120.115 7.61367C127.644 7.23008 134.389 12.2367 136.202 19.5547V19.5547C138.665 29.4994 131.126 39.1112 120.881 39.0884L19.562 38.8634C13.343 38.8496 7.99696 34.4511 6.78533 28.3513V28.3513Z" fill="url(#paint1_radial)"/>
<path d="M5.07064 18.2809C5.61443 10.3894 12.1249 4.23691 20.0345 4.1398L122.105 2.88666C130.553 2.78294 137.668 9.17605 138.465 17.5867V17.5867C139.373 27.1674 131.794 35.4301 122.171 35.3509L20.0959 34.5106C11.3476 34.4386 4.46921 27.0088 5.07064 18.2809V18.2809Z" fill="url(#paint2_linear)"/>
<path d="M5.73904 18.7461C6.07858 11.0656 12.3592 4.98835 20.0466 4.90162L122.441 3.74647C130.459 3.65602 137.183 9.77787 137.843 17.7688V17.7688C138.58 26.6997 131.51 34.3455 122.549 34.3073L20.1483 33.8708C11.9217 33.8358 5.37571 26.9647 5.73904 18.7461V18.7461Z" fill="url(#paint3_linear)"/>
<path d="M7.13466 18.6195C7.33689 11.3784 13.2506 5.60521 20.4945 5.57714L122.257 5.18284C128.924 5.157 134.579 10.0753 135.478 16.6819V16.6819C136.558 24.6266 130.411 31.7119 122.393 31.763L20.6319 32.4109C13.0417 32.4592 6.92275 26.2069 7.13466 18.6195V18.6195Z" fill="url(#paint4_radial)"/>
<path d="M25.9694 24.928C25.8374 24.964 25.6274 25 25.3394 25.036C25.0634 25.072 24.7874 25.09 24.5114 25.09C24.2354 25.09 23.9894 25.066 23.7734 25.018C23.5694 24.982 23.3954 24.91 23.2514 24.802C23.1074 24.694 22.9994 24.544 22.9274 24.352C22.8554 24.16 22.8194 23.908 22.8194 23.596V14.092C22.9514 14.068 23.1614 14.038 23.4494 14.002C23.7374 13.954 24.0134 13.93 24.2774 13.93C24.5534 13.93 24.7934 13.954 24.9974 14.002C25.2134 14.038 25.3934 14.11 25.5374 14.218C25.6814 14.326 25.7894 14.476 25.8614 14.668C25.9334 14.86 25.9694 15.112 25.9694 15.424V24.928ZM38.1858 24.622C38.0178 24.79 37.7718 24.916 37.4478 25C37.1358 25.096 36.7578 25.144 36.3138 25.144C35.8698 25.144 35.4498 25.078 35.0538 24.946C34.6578 24.814 34.3338 24.496 34.0818 23.992L32.2998 20.356C32.1198 19.984 31.9578 19.636 31.8138 19.312C31.6698 18.976 31.5138 18.592 31.3458 18.16L31.2378 18.178C31.2858 18.826 31.3098 19.486 31.3098 20.158C31.3218 20.83 31.3278 21.49 31.3278 22.138V24.928C31.1958 24.964 30.9918 25 30.7158 25.036C30.4518 25.072 30.1878 25.09 29.9238 25.09C29.6598 25.09 29.4258 25.072 29.2218 25.036C29.0178 25 28.8498 24.928 28.7178 24.82C28.5858 24.712 28.4838 24.568 28.4118 24.388C28.3398 24.196 28.3038 23.95 28.3038 23.65V14.65C28.4718 14.41 28.7298 14.23 29.0778 14.11C29.4258 13.99 29.7978 13.93 30.1938 13.93C30.6378 13.93 31.0578 14.002 31.4538 14.146C31.8618 14.278 32.1858 14.59 32.4258 15.082L34.2258 18.718C34.4058 19.09 34.5678 19.444 34.7118 19.78C34.8558 20.104 35.0118 20.482 35.1798 20.914L35.2698 20.896C35.2218 20.248 35.1918 19.6 35.1798 18.952C35.1678 18.304 35.1618 17.656 35.1618 17.008V14.092C35.2938 14.056 35.4918 14.02 35.7558 13.984C36.0318 13.948 36.3018 13.93 36.5658 13.93C37.0938 13.93 37.4958 14.026 37.7718 14.218C38.0478 14.398 38.1858 14.782 38.1858 15.37V24.622ZM47.0546 24.64C46.8866 24.784 46.6226 24.91 46.2626 25.018C45.9146 25.126 45.5306 25.18 45.1106 25.18C44.6066 25.18 44.1746 25.108 43.8146 24.964C43.4546 24.808 43.2086 24.598 43.0766 24.334C42.9446 24.058 42.7826 23.704 42.5906 23.272C42.3986 22.828 42.1946 22.336 41.9786 21.796C41.7746 21.256 41.5586 20.686 41.3306 20.086C41.1146 19.474 40.9046 18.856 40.7006 18.232C40.4966 17.608 40.3046 16.996 40.1246 16.396C39.9446 15.796 39.7886 15.232 39.6566 14.704C39.8246 14.536 40.0646 14.386 40.3766 14.254C40.7006 14.11 41.0426 14.038 41.4026 14.038C41.8466 14.038 42.2066 14.134 42.4826 14.326C42.7706 14.506 42.9806 14.848 43.1126 15.352C43.4366 16.528 43.7606 17.656 44.0846 18.736C44.4206 19.804 44.7686 20.92 45.1286 22.084H45.2366C45.5606 20.956 45.8906 19.726 46.2266 18.394C46.5746 17.062 46.9046 15.736 47.2166 14.416C47.4326 14.308 47.6606 14.218 47.9006 14.146C48.1526 14.074 48.4346 14.038 48.7466 14.038C49.1906 14.038 49.5686 14.14 49.8806 14.344C50.1926 14.536 50.3486 14.86 50.3486 15.316C50.3486 15.58 50.2826 15.964 50.1506 16.468C50.0306 16.972 49.8686 17.542 49.6646 18.178C49.4726 18.802 49.2506 19.456 48.9986 20.14C48.7586 20.824 48.5126 21.472 48.2606 22.084C48.0206 22.684 47.7926 23.218 47.5766 23.686C47.3606 24.142 47.1866 24.46 47.0546 24.64ZM55.0788 24.928C54.9468 24.964 54.7368 25 54.4488 25.036C54.1728 25.072 53.8968 25.09 53.6208 25.09C53.3448 25.09 53.0988 25.066 52.8828 25.018C52.6788 24.982 52.5048 24.91 52.3608 24.802C52.2168 24.694 52.1088 24.544 52.0368 24.352C51.9648 24.16 51.9288 23.908 51.9288 23.596V14.092C52.0608 14.068 52.2708 14.038 52.5588 14.002C52.8468 13.954 53.1228 13.93 53.3868 13.93C53.6628 13.93 53.9028 13.954 54.1068 14.002C54.3228 14.038 54.5028 14.11 54.6468 14.218C54.7908 14.326 54.8988 14.476 54.9708 14.668C55.0428 14.86 55.0788 15.112 55.0788 15.424V24.928ZM59.7352 14.416C59.9392 14.296 60.2452 14.182 60.6532 14.074C61.0732 13.966 61.4932 13.912 61.9132 13.912C62.5132 13.912 63.0412 14.002 63.4972 14.182C63.9652 14.35 64.2652 14.62 64.3972 14.992C64.6132 15.616 64.8472 16.342 65.0992 17.17C65.3512 17.998 65.6032 18.856 65.8552 19.744C66.1072 20.62 66.3532 21.49 66.5932 22.354C66.8332 23.206 67.0432 23.962 67.2232 24.622C67.0792 24.79 66.8632 24.922 66.5752 25.018C66.2872 25.126 65.9452 25.18 65.5492 25.18C65.2612 25.18 65.0152 25.156 64.8112 25.108C64.6192 25.06 64.4572 24.988 64.3252 24.892C64.2052 24.796 64.1032 24.67 64.0192 24.514C63.9472 24.358 63.8812 24.178 63.8212 23.974L63.4972 22.732H60.2392C60.1432 23.092 60.0472 23.464 59.9512 23.848C59.8552 24.232 59.7592 24.604 59.6632 24.964C59.4952 25.024 59.3152 25.072 59.1232 25.108C58.9432 25.156 58.7212 25.18 58.4572 25.18C57.8452 25.18 57.3892 25.078 57.0892 24.874C56.8012 24.658 56.6572 24.364 56.6572 23.992C56.6572 23.824 56.6812 23.656 56.7292 23.488C56.7772 23.32 56.8312 23.122 56.8912 22.894C56.9752 22.57 57.0892 22.168 57.2332 21.688C57.3892 21.208 57.5572 20.692 57.7372 20.14C57.9172 19.576 58.1092 19 58.3132 18.412C58.5172 17.824 58.7092 17.272 58.8892 16.756C59.0692 16.228 59.2312 15.76 59.3752 15.352C59.5312 14.944 59.6512 14.632 59.7352 14.416ZM61.8952 16.738C61.7272 17.242 61.5352 17.806 61.3192 18.43C61.1152 19.042 60.9292 19.666 60.7612 20.302H62.9932C62.8252 19.654 62.6512 19.024 62.4712 18.412C62.3032 17.788 62.1472 17.23 62.0032 16.738H61.8952ZM72.3018 15.766C72.3018 15.25 72.4518 14.842 72.7518 14.542C73.0518 14.242 73.4598 14.092 73.9758 14.092H79.9158C79.9998 14.224 80.0718 14.398 80.1318 14.614C80.2038 14.83 80.2398 15.058 80.2398 15.298C80.2398 15.754 80.1378 16.078 79.9338 16.27C79.7418 16.462 79.4838 16.558 79.1598 16.558H75.3618V18.232H79.4118C79.4958 18.364 79.5678 18.538 79.6278 18.754C79.6998 18.958 79.7358 19.18 79.7358 19.42C79.7358 19.876 79.6398 20.2 79.4478 20.392C79.2558 20.584 78.9978 20.68 78.6738 20.68H75.3618V22.57H79.9878C80.0718 22.702 80.1438 22.876 80.2038 23.092C80.2758 23.308 80.3118 23.536 80.3118 23.776C80.3118 24.232 80.2098 24.562 80.0058 24.766C79.8138 24.958 79.5558 25.054 79.2318 25.054H73.9758C73.4598 25.054 73.0518 24.904 72.7518 24.604C72.4518 24.304 72.3018 23.896 72.3018 23.38V15.766ZM89.7755 22.318C89.6195 22.45 89.4155 22.558 89.1635 22.642C88.9235 22.714 88.6415 22.75 88.3175 22.75C87.8855 22.75 87.5255 22.696 87.2375 22.588C86.9615 22.48 86.7815 22.294 86.6975 22.03C86.3615 20.974 86.0855 20.122 85.8695 19.474C85.6535 18.814 85.4855 18.238 85.3655 17.746H85.2755C85.2395 18.454 85.2095 19.102 85.1855 19.69C85.1735 20.266 85.1615 20.83 85.1495 21.382C85.1495 21.934 85.1375 22.492 85.1135 23.056C85.1015 23.62 85.0775 24.244 85.0415 24.928C84.8855 24.988 84.6815 25.036 84.4295 25.072C84.1775 25.12 83.9255 25.144 83.6735 25.144C83.1455 25.144 82.7315 25.06 82.4315 24.892C82.1435 24.724 81.9995 24.418 81.9995 23.974L82.5215 14.794C82.6175 14.638 82.8275 14.47 83.1515 14.29C83.4755 14.11 83.9315 14.02 84.5195 14.02C85.1555 14.02 85.6535 14.122 86.0135 14.326C86.3735 14.518 86.6375 14.836 86.8055 15.28C86.9135 15.568 87.0275 15.898 87.1475 16.27C87.2795 16.642 87.4055 17.026 87.5255 17.422C87.6575 17.818 87.7835 18.214 87.9035 18.61C88.0235 18.994 88.1315 19.342 88.2275 19.654H88.3175C88.6055 18.646 88.8935 17.674 89.1815 16.738C89.4695 15.79 89.7335 14.998 89.9735 14.362C90.1535 14.266 90.3815 14.188 90.6575 14.128C90.9455 14.056 91.2635 14.02 91.6115 14.02C92.1995 14.02 92.6795 14.11 93.0515 14.29C93.4235 14.458 93.6395 14.704 93.6995 15.028C93.7475 15.268 93.7955 15.64 93.8435 16.144C93.9035 16.636 93.9635 17.194 94.0235 17.818C94.0835 18.442 94.1435 19.102 94.2035 19.798C94.2635 20.494 94.3175 21.166 94.3655 21.814C94.4255 22.45 94.4735 23.038 94.5095 23.578C94.5455 24.106 94.5695 24.514 94.5815 24.802C94.3775 24.922 94.1615 25.006 93.9335 25.054C93.7175 25.114 93.4355 25.144 93.0875 25.144C92.6315 25.144 92.2475 25.066 91.9355 24.91C91.6235 24.754 91.4555 24.448 91.4315 23.992C91.3595 22.684 91.3115 21.508 91.2875 20.464C91.2755 19.42 91.2515 18.544 91.2155 17.836H91.1255C91.0055 18.304 90.8315 18.892 90.6035 19.6C90.3755 20.308 90.0995 21.214 89.7755 22.318ZM98.9871 14.416C99.1911 14.296 99.4971 14.182 99.9051 14.074C100.325 13.966 100.745 13.912 101.165 13.912C101.765 13.912 102.293 14.002 102.749 14.182C103.217 14.35 103.517 14.62 103.649 14.992C103.865 15.616 104.099 16.342 104.351 17.17C104.603 17.998 104.855 18.856 105.107 19.744C105.359 20.62 105.605 21.49 105.845 22.354C106.085 23.206 106.295 23.962 106.475 24.622C106.331 24.79 106.115 24.922 105.827 25.018C105.539 25.126 105.197 25.18 104.801 25.18C104.513 25.18 104.267 25.156 104.063 25.108C103.871 25.06 103.709 24.988 103.577 24.892C103.457 24.796 103.355 24.67 103.271 24.514C103.199 24.358 103.133 24.178 103.073 23.974L102.749 22.732H99.4911C99.3951 23.092 99.2991 23.464 99.2031 23.848C99.1071 24.232 99.0111 24.604 98.9151 24.964C98.7471 25.024 98.5671 25.072 98.3751 25.108C98.1951 25.156 97.9731 25.18 97.7091 25.18C97.0971 25.18 96.6411 25.078 96.3411 24.874C96.0531 24.658 95.9091 24.364 95.9091 23.992C95.9091 23.824 95.9331 23.656 95.9811 23.488C96.0291 23.32 96.0831 23.122 96.1431 22.894C96.2271 22.57 96.3411 22.168 96.4851 21.688C96.6411 21.208 96.8091 20.692 96.9891 20.14C97.1691 19.576 97.3611 19 97.5651 18.412C97.7691 17.824 97.9611 17.272 98.1411 16.756C98.3211 16.228 98.4831 15.76 98.6271 15.352C98.7831 14.944 98.9031 14.632 98.9871 14.416ZM101.147 16.738C100.979 17.242 100.787 17.806 100.571 18.43C100.367 19.042 100.181 19.666 100.013 20.302H102.245C102.077 19.654 101.903 19.024 101.723 18.412C101.555 17.788 101.399 17.23 101.255 16.738H101.147ZM111.1 24.928C110.968 24.964 110.758 25 110.47 25.036C110.194 25.072 109.918 25.09 109.642 25.09C109.366 25.09 109.12 25.066 108.904 25.018C108.7 24.982 108.526 24.91 108.382 24.802C108.238 24.694 108.13 24.544 108.058 24.352C107.986 24.16 107.95 23.908 107.95 23.596V14.092C108.082 14.068 108.292 14.038 108.58 14.002C108.868 13.954 109.144 13.93 109.408 13.93C109.684 13.93 109.924 13.954 110.128 14.002C110.344 14.038 110.524 14.11 110.668 14.218C110.812 14.326 110.92 14.476 110.992 14.668C111.064 14.86 111.1 15.112 111.1 15.424V24.928ZM115.109 25.054C114.593 25.054 114.185 24.904 113.885 24.604C113.585 24.304 113.435 23.896 113.435 23.38V14.074C113.567 14.05 113.777 14.02 114.065 13.984C114.353 13.936 114.629 13.912 114.893 13.912C115.169 13.912 115.409 13.936 115.613 13.984C115.829 14.02 116.009 14.092 116.153 14.2C116.297 14.308 116.405 14.458 116.477 14.65C116.549 14.842 116.585 15.094 116.585 15.406V22.516H120.707C120.791 22.648 120.869 22.828 120.941 23.056C121.013 23.272 121.049 23.5 121.049 23.74C121.049 24.22 120.947 24.562 120.743 24.766C120.539 24.958 120.269 25.054 119.933 25.054H115.109Z" fill="white"/>
<defs>
<linearGradient id="paint0_linear" x1="76.6126" y1="2.17679" x2="76.6126" y2="39.9999" gradientUnits="userSpaceOnUse">
<stop stop-color="#A1D7EA"/>
<stop offset="1" stop-color="#858CDA"/>
</linearGradient>
<radialGradient id="paint1_radial" cx="0" cy="0" r="1" gradientUnits="userSpaceOnUse" gradientTransform="translate(72.4116 30.0455) rotate(-180) scale(60.532 17.9696)">
<stop offset="0.110044" stop-color="#A6A7F1"/>
<stop offset="1" stop-color="#EBE5FC" stop-opacity="0.44"/>
</radialGradient>
<linearGradient id="paint2_linear" x1="72.0621" y1="2.70312" x2="72.0621" y2="35.499" gradientUnits="userSpaceOnUse">
<stop stop-color="#8A8A8A"/>
<stop offset="1" stop-color="#474747"/>
</linearGradient>
<linearGradient id="paint3_linear" x1="95.3606" y1="9.83587" x2="91.453" y2="38.9604" gradientUnits="userSpaceOnUse">
<stop offset="0.154696" stop-color="#CACACA"/>
<stop offset="0.657459" stop-color="#616161"/>
</linearGradient>
<radialGradient id="paint4_radial" cx="0" cy="0" r="1" gradientUnits="userSpaceOnUse" gradientTransform="translate(94.8845 11.721) rotate(155.009) scale(46.7924 51.4997)">
<stop stop-color="#B2B2B2"/>
<stop offset="0.674033" stop-color="#757575"/>
</radialGradient>
</defs>
</svg>
