<svg width="65" height="26" viewBox="0 0 65 26" fill="none" xmlns="http://www.w3.org/2000/svg">
<path d="M64.1791 9.1582C63.7791 8.0582 63.0791 7.0582 62.2791 6.2582C61.4791 5.4582 60.4791 4.8582 59.3791 4.4582C57.2791 3.6582 54.5791 3.6582 52.3791 4.4582C51.3791 4.8582 50.4791 5.3582 49.6791 6.0582C49.4791 5.8582 49.2791 5.6582 49.0791 5.5582C48.2791 5.0582 47.3791 4.5582 46.4791 4.3582C44.4791 3.7582 41.9791 3.7582 40.0791 4.3582C38.9791 4.6582 37.9791 5.2582 37.1791 5.9582C37.0791 6.0582 37.0791 6.0582 36.9791 6.1582L36.8791 6.0582C36.0791 5.3582 35.1791 4.8582 34.1791 4.4582C32.2791 3.7582 29.9791 3.7582 27.9791 4.3582C27.0791 4.5582 26.2791 5.0582 25.4791 5.5582C25.2791 5.3582 25.0791 5.1582 24.8791 5.0582C24.2791 4.6582 23.5791 4.3582 22.8791 4.2582C22.0791 4.1582 21.0791 4.0582 20.0791 4.2582C19.5791 4.3582 19.2791 4.3582 18.9791 4.4582L17.7791 4.8582C17.2791 4.5582 16.7791 4.3582 16.1791 4.2582C15.3791 4.1582 14.3791 4.0582 13.3791 4.2582C13.0791 3.4582 12.5791 2.8582 11.9791 2.3582C11.3791 1.9582 10.7791 1.6582 10.0791 1.5582C9.1791 1.3582 8.1791 1.3582 7.0791 1.5582C6.5791 1.4582 6.2791 1.5582 6.0791 1.5582L3.5791 2.0582V11.8582L2.5791 11.6582L1.3791 13.0582C0.979102 13.4582 0.679102 13.9582 0.479102 14.5582L0.379102 14.7582C0.179102 15.2582 0.0791016 15.8582 0.0791016 16.5582C0.0791016 17.4582 0.279102 18.2582 0.679102 18.9582L0.779102 19.0582C1.2791 19.8582 1.9791 20.5582 2.8791 20.9582C3.7791 21.4582 4.8791 21.6582 6.1791 21.6582C8.3791 21.6582 10.1791 21.0582 11.5791 19.8582C11.7791 19.6582 11.9791 19.5582 12.0791 19.3582C12.2791 19.5582 12.4791 19.7582 12.7791 19.9582C13.5791 20.5582 14.5791 21.0582 15.5791 21.2582C16.4791 21.4582 17.4791 21.6582 18.5791 21.6582C19.6791 21.6582 20.6791 21.5582 21.5791 21.3582C22.6791 21.1582 23.5791 20.7582 24.3791 20.2582C24.7791 20.0582 25.0791 19.7582 25.2791 19.5582C26.0791 20.2582 27.0791 20.8582 28.2791 21.2582C29.2791 21.5582 30.4791 21.7582 31.6791 21.7582C32.3791 21.7582 33.0791 21.6582 33.7791 21.5582C34.3791 21.4582 34.8791 21.3582 35.3791 21.1582C35.6791 22.6582 36.6791 23.8582 38.1791 24.5582C39.3791 25.1582 40.8791 25.4582 42.6791 25.4582C43.6791 25.4582 44.6791 25.3582 45.6791 25.0582C46.7791 24.7582 47.6791 24.3582 48.5791 23.6582C49.4791 22.9582 50.1791 22.1582 50.6791 21.1582C50.7791 20.8582 50.8791 20.6582 50.9791 20.3582C51.4791 20.6582 51.9791 20.8582 52.4791 21.0582C53.5791 21.4582 54.6791 21.6582 55.9791 21.6582C57.1791 21.6582 58.3791 21.4582 59.3791 21.0582C60.4791 20.6582 61.4791 20.0582 62.2791 19.2582C63.0791 18.4582 63.7791 17.4582 64.2791 16.3582C64.6791 15.2582 64.8791 14.0582 64.8791 12.7582C64.7791 11.4582 64.5791 10.2582 64.1791 9.1582Z" fill="url(#paint0_linear)"/>
<path d="M64.1791 8.1582C63.7791 7.0582 63.0791 6.0582 62.2791 5.2582C61.4791 4.4582 60.4791 3.8582 59.3791 3.4582C57.2791 2.6582 54.5791 2.6582 52.3791 3.4582C51.3791 3.8582 50.4791 4.3582 49.6791 5.0582C49.4791 4.8582 49.2791 4.6582 49.0791 4.5582C48.2791 4.0582 47.3791 3.5582 46.4791 3.3582C44.4791 2.7582 41.9791 2.7582 40.0791 3.3582C38.9791 3.6582 37.9791 4.2582 37.1791 4.9582C37.0791 5.0582 37.0791 5.0582 36.9791 5.1582L36.8791 5.0582C36.0791 4.3582 35.1791 3.8582 34.1791 3.4582C32.2791 2.7582 29.9791 2.7582 27.9791 3.3582C27.0791 3.5582 26.2791 4.0582 25.4791 4.5582C25.2791 4.3582 25.0791 4.1582 24.8791 4.0582C24.2791 3.6582 23.5791 3.3582 22.8791 3.2582C22.0791 3.1582 21.0791 3.0582 20.0791 3.2582C19.5791 3.3582 19.2791 3.3582 18.9791 3.4582L17.7791 3.8582C17.2791 3.5582 16.7791 3.3582 16.1791 3.2582C15.3791 3.1582 14.3791 3.0582 13.3791 3.2582C13.0791 2.4582 12.5791 1.8582 11.9791 1.3582C11.3791 0.958203 10.7791 0.658203 10.0791 0.558203C9.1791 0.358203 8.1791 0.358203 7.0791 0.558203C6.5791 0.458203 6.2791 0.558203 6.0791 0.558203L3.5791 1.0582V10.8582L2.5791 10.6582L1.3791 12.0582C0.979102 12.4582 0.679102 12.9582 0.479102 13.5582L0.379102 13.7582C0.179102 14.2582 0.0791016 14.8582 0.0791016 15.5582C0.0791016 16.4582 0.279102 17.2582 0.679102 17.9582L0.779102 18.0582C1.2791 18.8582 1.9791 19.5582 2.8791 19.9582C3.7791 20.4582 4.8791 20.6582 6.1791 20.6582C8.3791 20.6582 10.1791 20.0582 11.5791 18.8582C11.7791 18.6582 11.9791 18.5582 12.0791 18.3582C12.2791 18.5582 12.4791 18.7582 12.7791 18.9582C13.5791 19.5582 14.5791 20.0582 15.5791 20.2582C16.4791 20.4582 17.4791 20.6582 18.5791 20.6582C19.6791 20.6582 20.6791 20.5582 21.5791 20.3582C22.6791 20.1582 23.5791 19.7582 24.3791 19.2582C24.7791 19.0582 25.0791 18.7582 25.2791 18.5582C26.0791 19.2582 27.0791 19.8582 28.2791 20.2582C29.2791 20.5582 30.4791 20.7582 31.6791 20.7582C32.3791 20.7582 33.0791 20.6582 33.7791 20.5582C34.3791 20.4582 34.8791 20.3582 35.3791 20.1582C35.6791 21.6582 36.6791 22.8582 38.1791 23.5582C39.3791 24.1582 40.8791 24.4582 42.6791 24.4582C43.6791 24.4582 44.6791 24.3582 45.6791 24.0582C46.7791 23.7582 47.6791 23.3582 48.5791 22.6582C49.4791 21.9582 50.1791 21.1582 50.6791 20.1582C50.7791 19.8582 50.8791 19.6582 50.9791 19.3582C51.4791 19.6582 51.9791 19.8582 52.4791 20.0582C53.5791 20.4582 54.6791 20.6582 55.9791 20.6582C57.1791 20.6582 58.3791 20.4582 59.3791 20.0582C60.4791 19.6582 61.4791 19.0582 62.2791 18.2582C63.0791 17.4582 63.7791 16.4582 64.2791 15.3582C64.6791 14.2582 64.8791 13.0582 64.8791 11.7582C64.7791 10.4582 64.5791 9.2582 64.1791 8.1582Z" fill="url(#paint1_linear)"/>
<path d="M62.9889 9.00859C62.5889 8.10859 62.0889 7.30859 61.3889 6.60859C60.6889 5.90859 59.8889 5.40859 58.9889 5.10859C57.1889 4.40859 54.7889 4.40859 52.9889 5.10859C52.0889 5.40859 51.2889 6.00859 50.5889 6.60859C50.2889 6.90859 49.9889 7.20859 49.7889 7.60859C49.6889 7.40859 49.5889 7.30859 49.5889 7.20859C49.2889 6.80859 48.8889 6.40859 48.4889 6.10859C47.8889 5.70859 47.0889 5.30859 46.2889 5.00859C44.5889 4.50859 42.3889 4.50859 40.6889 5.00859C39.7889 5.30859 38.9889 5.70859 38.2889 6.30859C37.8889 6.70859 37.4889 7.10859 37.1889 7.60859C36.8889 7.10859 36.5889 6.70859 36.1889 6.40859C35.5889 5.80859 34.7889 5.40859 33.9889 5.10859C32.3889 4.50859 30.3889 4.50859 28.6889 5.00859C27.7889 5.30859 26.9889 5.70859 26.2889 6.30859C25.9889 6.60859 25.6889 6.90859 25.3889 7.20859C25.3889 7.00859 25.2889 6.90859 25.1889 6.80859C24.9889 6.30859 24.5889 5.90859 24.1889 5.60859C23.7889 5.30859 23.2889 5.10859 22.7889 5.00859C22.0889 4.90859 21.1889 4.90859 20.3889 5.00859C19.9889 5.10859 19.6889 5.10859 19.4889 5.20859L18.2889 5.60859V6.70859C18.0889 6.30859 17.7889 5.90859 17.3889 5.60859C16.9889 5.30859 16.4889 5.10859 15.9889 5.00859C15.2889 4.90859 14.3889 4.90859 13.5889 5.00859C13.1889 5.10859 12.8889 5.10859 12.6889 5.20859L12.3889 5.30859C12.3889 4.90859 12.2889 4.50859 12.1889 4.10859C11.9889 3.60859 11.6889 3.10859 11.1889 2.80859C10.7889 2.50859 10.2889 2.30859 9.78887 2.20859C9.08887 2.00859 8.08887 2.00859 7.38887 2.20859C6.98887 2.20859 6.68887 2.30859 6.48887 2.30859L5.08887 2.60859V12.9086C4.98887 12.9086 4.78887 12.9086 4.68887 12.9086C4.48887 12.9086 4.38887 12.8086 4.18887 12.8086L3.18887 12.6086L2.48887 13.3086C2.28887 13.6086 1.98887 13.9086 1.78887 14.4086C1.68887 14.8086 1.58887 15.2086 1.58887 15.7086C1.58887 16.3086 1.68887 16.9086 2.08887 17.5086C2.38887 18.1086 2.88887 18.5086 3.58887 18.8086C4.28887 19.2086 5.18887 19.3086 6.18887 19.3086C8.08887 19.3086 9.58887 18.8086 10.5889 17.9086C11.1889 17.3086 11.6889 16.7086 11.9889 15.8086C12.3889 16.6086 12.8889 17.3086 13.5889 17.8086C14.2889 18.3086 14.9889 18.7086 15.8889 18.9086C17.5889 19.3086 19.6889 19.3086 21.1889 18.9086C22.0889 18.7086 22.8889 18.4086 23.5889 18.0086C24.2889 17.6086 24.7889 17.0086 25.0889 16.2086C25.3889 16.6086 25.6889 17.0086 26.0889 17.3086C26.7889 17.9086 27.6889 18.4086 28.6889 18.7086C30.0889 19.2086 31.6889 19.3086 33.5889 19.0086C34.3889 18.9086 35.0889 18.7086 35.6889 18.3086C36.2889 18.0086 36.6889 17.6086 36.9889 17.1086C36.7889 17.6086 36.5889 18.2086 36.5889 18.8086C36.5889 20.3086 37.3889 21.5086 38.6889 22.1086C39.6889 22.6086 40.9889 22.8086 42.5889 22.8086C43.4889 22.8086 44.3889 22.7086 45.1889 22.5086C46.0889 22.3086 46.8889 21.9086 47.5889 21.4086C48.2889 20.9086 48.8889 20.2086 49.2889 19.4086C49.6889 18.6086 49.8889 17.7086 49.8889 16.6086C50.0889 16.8086 50.2889 17.0086 50.4889 17.2086C51.1889 17.8086 51.9889 18.3086 52.8889 18.7086C54.6889 19.4086 56.9889 19.4086 58.7889 18.7086C59.6889 18.4086 60.5889 17.9086 61.1889 17.2086C61.8889 16.5086 62.3889 15.7086 62.7889 14.8086C63.1889 13.9086 63.2889 12.9086 63.2889 11.7086C63.4889 10.9086 63.2889 9.90859 62.9889 9.00859ZM37.1889 17.2086C37.2889 16.9086 37.3889 16.7086 37.4889 16.3086C37.5889 16.4086 37.5889 16.4086 37.6889 16.5086C37.4889 16.7086 37.3889 16.9086 37.1889 17.2086Z" fill="white"/>
<path d="M6.68981 3.84517C6.85171 3.81574 7.10927 3.77894 7.46249 3.73479C7.81571 3.67592 8.15422 3.64648 8.47801 3.64648C8.81651 3.64648 9.11086 3.67592 9.36106 3.73479C9.62598 3.77894 9.84675 3.86725 10.0234 3.99971C10.2 4.13217 10.3324 4.31614 10.4207 4.55162C10.509 4.7871 10.5532 5.09617 10.5532 5.47883V13.6471C10.5532 14.957 10.1779 15.9431 9.42729 16.6054C8.67669 17.2529 7.57287 17.5767 6.11583 17.5767C5.35051 17.5767 4.73237 17.459 4.2614 17.2235C3.9229 17.0616 3.6727 16.8408 3.5108 16.5612C3.36363 16.2816 3.29004 15.9651 3.29004 15.6119C3.29004 15.3176 3.32683 15.06 3.40042 14.8392C3.48873 14.6185 3.59175 14.4419 3.70949 14.3094C3.98913 14.3683 4.22461 14.4124 4.41594 14.4419C4.62199 14.4566 4.84275 14.4639 5.07823 14.4639C5.65222 14.4639 6.06431 14.3241 6.31451 14.0445C6.56471 13.7501 6.68981 13.3233 6.68981 12.7641V3.84517Z" fill="url(#paint2_linear)"/>
<path d="M13.0723 6.64888C13.2195 6.60473 13.4476 6.56058 13.7567 6.51642C14.0805 6.47227 14.4116 6.45019 14.7501 6.45019C15.0739 6.45019 15.3609 6.47227 15.6111 6.51642C15.876 6.56058 16.0968 6.64888 16.2734 6.78134C16.45 6.9138 16.5825 7.09777 16.6708 7.33325C16.7738 7.55402 16.8253 7.84837 16.8253 8.21631V12.9627C16.8253 13.5662 16.9725 14.0003 17.2669 14.2653C17.5612 14.5155 17.988 14.6406 18.5473 14.6406C18.8858 14.6406 19.1581 14.6111 19.3641 14.5523C19.5849 14.4934 19.7541 14.4345 19.8719 14.3756V6.64888C20.019 6.60473 20.2472 6.56058 20.5562 6.51642C20.88 6.47227 21.2112 6.45019 21.5497 6.45019C21.8735 6.45019 22.1605 6.47227 22.4107 6.51642C22.6756 6.56058 22.8963 6.64888 23.073 6.78134C23.2496 6.9138 23.382 7.09777 23.4703 7.33325C23.5734 7.55402 23.6249 7.84837 23.6249 8.21631V14.9276C23.6249 15.6634 23.3158 16.2153 22.6977 16.5833C22.1825 16.9071 21.5644 17.1499 20.8432 17.3118C20.1368 17.4884 19.3641 17.5767 18.5252 17.5767C17.7305 17.5767 16.9946 17.4884 16.3176 17.3118C15.6553 17.1352 15.0813 16.8629 14.5956 16.495C14.1099 16.127 13.7346 15.6561 13.4697 15.0821C13.2048 14.4934 13.0723 13.7869 13.0723 12.9627V6.64888Z" fill="url(#paint3_linear)"/>
<path d="M31.5952 17.5767C30.7268 17.5767 29.9173 17.459 29.1667 17.2235C28.4309 16.9733 27.7833 16.6054 27.224 16.1197C26.6795 15.634 26.2453 15.0232 25.9215 14.2873C25.6124 13.5515 25.4579 12.6905 25.4579 11.7044C25.4579 10.733 25.6124 9.90148 25.9215 9.20975C26.2453 8.5033 26.6648 7.92932 27.1799 7.48779C27.695 7.03154 28.2837 6.70039 28.946 6.49435C29.6083 6.27358 30.2853 6.1632 30.977 6.1632C31.7571 6.1632 32.4635 6.28094 33.0964 6.51642C33.7439 6.75191 34.2958 7.07569 34.7521 7.48779C35.2231 7.89988 35.5836 8.39292 35.8338 8.96691C36.0988 9.5409 36.2312 10.1664 36.2312 10.8434C36.2312 11.3438 36.0914 11.7265 35.8118 11.9914C35.5321 12.2563 35.1421 12.4256 34.6417 12.4991L29.1888 13.316C29.3507 13.8017 29.6819 14.1696 30.1823 14.4198C30.6827 14.6553 31.2567 14.773 31.9042 14.773C32.5077 14.773 33.0743 14.6994 33.6041 14.5523C34.1487 14.3904 34.5902 14.2064 34.9287 14.0003C35.1642 14.1475 35.3629 14.3536 35.5248 14.6185C35.6867 14.8834 35.7676 15.163 35.7676 15.4574C35.7676 16.1197 35.4585 16.6127 34.8404 16.9365C34.3694 17.1867 33.8396 17.356 33.2509 17.4443C32.6622 17.5326 32.1103 17.5767 31.5952 17.5767ZM30.977 8.90068C30.6238 8.90068 30.3147 8.95955 30.0498 9.07729C29.7996 9.19503 29.5936 9.34957 29.4317 9.5409C29.2698 9.71751 29.1447 9.92356 29.0564 10.159C28.9828 10.3798 28.9386 10.6079 28.9239 10.8434L32.699 10.2253C32.6548 9.93092 32.4929 9.63656 32.2133 9.34221C31.9337 9.04786 31.5216 8.90068 30.977 8.90068Z" fill="url(#paint4_linear)"/>
<path d="M43.2698 6.1632C44.1087 6.1632 44.8667 6.27358 45.5437 6.49435C46.2354 6.70039 46.8168 6.97267 47.2877 7.31118C47.5821 7.51722 47.8102 7.74535 47.9721 7.99555C48.1487 8.24575 48.237 8.56953 48.237 8.96691V16.6937C48.237 17.4737 48.0898 18.1434 47.7955 18.7026C47.5011 19.2766 47.0964 19.7476 46.5813 20.1155C46.0809 20.4982 45.4848 20.7778 44.7931 20.9544C44.1161 21.131 43.3876 21.2193 42.6075 21.2193C41.2682 21.2193 40.2159 21.0354 39.4506 20.6674C38.6853 20.3142 38.3026 19.7329 38.3026 18.9234C38.3026 18.5849 38.3688 18.2832 38.5013 18.0183C38.6485 17.7681 38.8104 17.5767 38.987 17.4443C39.4138 17.6798 39.8921 17.8784 40.4219 18.0403C40.9665 18.2022 41.5258 18.2832 42.0998 18.2832C42.8945 18.2832 43.5274 18.1507 43.9983 17.8858C44.4693 17.6209 44.7048 17.1941 44.7048 16.6054V16.2521C44.1014 16.5171 43.3655 16.6495 42.4971 16.6495C41.8348 16.6495 41.202 16.5539 40.5986 16.3625C40.0099 16.1565 39.4874 15.8474 39.0311 15.4353C38.5896 15.0085 38.229 14.4639 37.9494 13.8017C37.6845 13.1394 37.552 12.352 37.552 11.4395C37.552 10.5417 37.6918 9.76166 37.9715 9.09937C38.2658 8.43708 38.6632 7.89252 39.1636 7.46571C39.6787 7.02418 40.2821 6.70039 40.9739 6.49435C41.6803 6.27358 42.4456 6.1632 43.2698 6.1632ZM44.6385 9.36429C44.5355 9.30542 44.381 9.24655 44.1749 9.18767C43.9836 9.1288 43.7408 9.09937 43.4464 9.09937C42.7253 9.09937 42.1807 9.30542 41.8128 9.71751C41.4595 10.1149 41.2829 10.6889 41.2829 11.4395C41.2829 12.2931 41.4595 12.9112 41.8128 13.2939C42.1807 13.6618 42.6443 13.8458 43.2036 13.8458C43.807 13.8458 44.2853 13.706 44.6385 13.4264V9.36429Z" fill="url(#paint5_linear)"/>
<path d="M61.6679 11.8589C61.6679 12.7714 61.5281 13.5882 61.2485 14.3094C60.9689 15.0159 60.5715 15.6119 60.0564 16.0976C59.556 16.5833 58.9525 16.9512 58.2461 17.2014C57.5396 17.4516 56.7523 17.5767 55.8839 17.5767C55.0156 17.5767 54.2282 17.4443 53.5217 17.1794C52.8153 16.9144 52.2045 16.5391 51.6894 16.0535C51.189 15.5531 50.799 14.9496 50.5193 14.2432C50.2397 13.5367 50.0999 12.742 50.0999 11.8589C50.0999 10.9906 50.2397 10.2032 50.5193 9.49675C50.799 8.7903 51.189 8.19423 51.6894 7.70855C52.2045 7.20815 52.8153 6.82549 53.5217 6.56058C54.2282 6.29566 55.0156 6.1632 55.8839 6.1632C56.7523 6.1632 57.5396 6.30302 58.2461 6.58265C58.9525 6.84757 59.556 7.23023 60.0564 7.73063C60.5715 8.21631 60.9689 8.81238 61.2485 9.51882C61.5281 10.2253 61.6679 11.0053 61.6679 11.8589ZM53.9412 11.8589C53.9412 12.7567 54.1104 13.4484 54.4489 13.9341C54.8022 14.4051 55.2879 14.6406 55.906 14.6406C56.5241 14.6406 56.9951 14.3977 57.3189 13.912C57.6574 13.4264 57.8266 12.742 57.8266 11.8589C57.8266 10.9759 57.6574 10.2989 57.3189 9.82789C56.9804 9.34221 56.5021 9.09937 55.8839 9.09937C55.2658 9.09937 54.7875 9.34221 54.4489 9.82789C54.1104 10.2989 53.9412 10.9759 53.9412 11.8589Z" fill="url(#paint6_linear)"/>
<defs>
<linearGradient id="paint0_linear" x1="34.6018" y1="-0.125582" x2="34.6018" y2="25.4582" gradientUnits="userSpaceOnUse">
<stop stop-color="#5496AE"/>
<stop offset="1" stop-color="#3D4493"/>
</linearGradient>
<linearGradient id="paint1_linear" x1="38.6351" y1="0.408203" x2="37.7728" y2="24.6465" gradientUnits="userSpaceOnUse">
<stop offset="0.154696" stop-color="#64E0F1"/>
<stop offset="0.657459" stop-color="#3196D4"/>
</linearGradient>
<linearGradient id="paint2_linear" x1="34.3913" y1="2.52578" x2="34.3913" y2="21.2193" gradientUnits="userSpaceOnUse">
<stop stop-color="#5496AE"/>
<stop offset="1" stop-color="#3D4493"/>
</linearGradient>
<linearGradient id="paint3_linear" x1="34.3913" y1="2.52578" x2="34.3913" y2="21.2193" gradientUnits="userSpaceOnUse">
<stop stop-color="#5496AE"/>
<stop offset="1" stop-color="#3D4493"/>
</linearGradient>
<linearGradient id="paint4_linear" x1="34.3913" y1="2.52578" x2="34.3913" y2="21.2193" gradientUnits="userSpaceOnUse">
<stop stop-color="#5496AE"/>
<stop offset="1" stop-color="#3D4493"/>
</linearGradient>
<linearGradient id="paint5_linear" x1="34.3913" y1="2.52578" x2="34.3913" y2="21.2193" gradientUnits="userSpaceOnUse">
<stop stop-color="#5496AE"/>
<stop offset="1" stop-color="#3D4493"/>
</linearGradient>
<linearGradient id="paint6_linear" x1="34.3913" y1="2.52578" x2="34.3913" y2="21.2193" gradientUnits="userSpaceOnUse">
<stop stop-color="#5496AE"/>
<stop offset="1" stop-color="#3D4493"/>
</linearGradient>
</defs>
</svg>
