<svg width="508" height="49" viewBox="0 0 508 49" fill="none" xmlns="http://www.w3.org/2000/svg">
<g clip-path="url(#clip0)">
<path d="M507.477 0.925293H0.476562V48.9253H507.477V0.925293Z" fill="white" fill-opacity="0.01"/>
<path d="M347.4 20.2C347.4 16.7 346 13.7 343.5 11.5C341.1 9.4 337.9 8.4 333.8 8.4C332.5 8.4 331.2 8.5 330.1 8.7C328.8 8.9 327.6 9.3 326.5 9.8C325.2 10.4 324 11.3 323.2 12.4C322.8 12.9 322.5 13.5 322.3 14.1C322 14 321.7 13.8 321.3 13.7C319.7 13.1 318 12.8 316.1 12.8C314.5 12.8 312.8 13.1 311.3 13.6C309.8 14.1 308.5 14.8 307.2 15.8C306.9 15.5 306.6 15.1 306.2 14.9C305.3 14.2 304.2 13.7 302.9 13.5C302.2 13.4 301.5 13.3 300.7 13.3C299.9 13.3 299.2 13.4 298.4 13.5C297.6 13.6 297 13.7 296.5 13.9L294.5 14.5C293.7 14 292.8 13.7 291.8 13.5C291.1 13.4 290.4 13.3 289.6 13.3C288.8 13.3 288.1 13.4 287.3 13.5C286.5 13.6 285.9 13.7 285.4 13.9L282.7 14.7C281.9 14.3 281 13.9 280.1 13.7C278.5 13.2 276.8 12.9 274.9 12.9C273.1 12.9 271.3 13.2 269.7 13.7C269 13.9 268.3 14.2 267.7 14.5C267.7 14.2 267.8 13.9 267.8 13.6C267.8 11.4 267 9.4 265.4 7.8C263.8 6.2 261.8 5.4 259.4 5.4C257.1 5.4 255 6.2 253.4 7.8C251.9 9.4 251.1 11.3 251.1 13.5C250.5 13.3 250 13.2 249.3 13.1C248.3 12.9 247.1 12.8 246 12.8C244.4 12.8 242.9 13 241.5 13.4C240 13.8 238.6 14.4 237.5 15.2C236.1 16.1 235.1 17.3 234.3 18.8C233.6 20.1 233.2 21.6 233.2 23.2C233 22.2 232.7 21.3 232.3 20.4C231.6 18.8 230.6 17.4 229.3 16.3C228.9 16 228.5 15.6 228.1 15.3C228.7 14.2 229.1 12.9 229.1 11.5C229.1 9.4 228.2 7.4 226.5 6C225 4.6 223 4 220.5 4H218.9L217.6 5L212.7 8.6C211.7 9.3 211 10.2 210.5 11.2C210 12.2 209.8 13.2 209.8 14.3C209.8 14.4 209.8 14.5 209.8 14.7C208.9 14.1 207.9 13.7 206.8 13.5C206.1 13.4 205.4 13.3 204.6 13.3C203.8 13.3 203.1 13.4 202.3 13.5C201.5 13.6 200.9 13.7 200.4 13.9L198.4 14.5C197.6 14 196.7 13.7 195.7 13.5C195 13.4 194.3 13.3 193.5 13.3C192.7 13.3 192 13.4 191.2 13.5C190.4 13.6 189.8 13.7 189.3 13.9L188.8 14C188.4 13.4 188 13 187.6 12.6C186.1 11.2 184.3 10 182.2 9.3C180.3 8.6 178.2 8.2 176 8.2C173.8 8.2 171.7 8.6 169.8 9.3C167.8 10 166 11.2 164.5 12.6C163.6 13.4 162.8 14.4 162.2 15.5C161.1 14.8 159.6 14.2 157.5 14.2C154.4 14.2 152.4 15.6 151.3 16.7C149.8 18.3 149 20.4 149 22.6C149 23.5 149.1 24.3 149.3 25.1C144 28 143 32.6 143 35.5C143 39 144.3 42 146.9 44.2C149.3 46.3 152.6 47.3 156.6 47.3C157.9 47.3 159.1 47.2 160.3 47C161.6 46.8 162.9 46.4 163.9 45.9C165.3 45.3 166.4 44.4 167.2 43.3C168 42.3 168.5 41.1 168.7 39.9C169 40.1 169.4 40.2 169.7 40.4C171.1 40.9 172.6 41.2 174.2 41.4L174.4 41.6C175.9 43 177.5 44.2 179.1 45C181 46 182.9 46.5 184.8 46.5C187.8 46.5 189.7 45.3 190.9 44.3C191.8 43.5 192.8 42.3 193.3 40.4C193.7 40.5 194.1 40.7 194.6 40.8C196.1 41.2 197.8 41.4 199.5 41.4C201.2 41.4 202.9 41.2 204.4 40.8C206.1 40.4 207.6 39.8 208.9 39C209.5 38.7 210 38.2 210.4 37.8C211.8 39 213.4 39.9 215.2 40.5H215.3H215.4C217.1 41 218.9 41.3 220.9 41.3C222 41.3 223.1 41.2 224.3 41C225.8 40.8 227.2 40.3 228.5 39.6C231.1 38.2 232.7 35.7 232.7 32.8C232.7 31.8 232.5 30.7 232.1 29.8C232.8 28.8 233.4 27.4 233.5 25.6C233.7 26.7 234.1 27.7 234.5 28.5L234.4 28.6C233.7 29.8 233.3 31.1 233.3 32.6C233.3 34.3 233.8 35.9 234.8 37.2V37.3L234.9 37.4C235.7 38.4 236.7 39.3 238 39.9V40H238.1C239.1 40.5 240.3 40.8 241.6 41C242.7 41.2 244 41.3 245.2 41.3C248.7 41.3 251.6 40.5 253.8 39C254 39.1 254.1 39.3 254.3 39.4C255.2 40.1 256.3 40.5 257.5 40.8C258.2 40.9 259 41 259.8 41C260.6 41 261.4 40.9 262.1 40.8C262.7 43 264.3 44.8 266.5 45.9C268.4 46.8 270.8 47.3 273.8 47.3C275.5 47.3 277.1 47.1 278.6 46.7C280.3 46.3 281.9 45.5 283.2 44.5C284.7 43.4 285.8 42.1 286.6 40.5C286.8 40.1 287 39.7 287.1 39.3C288.2 40 289.3 40.5 290.6 40.8C292.1 41.2 293.8 41.4 295.5 41.4C297.2 41.4 298.9 41.2 300.4 40.8C302.1 40.4 303.6 39.8 304.9 39C305.5 38.7 306 38.2 306.4 37.8C307.8 39 309.4 39.9 311.2 40.5H311.3H311.4C313.1 41 314.9 41.3 316.9 41.3C318 41.3 319.1 41.2 320.3 41C321.8 40.8 323.2 40.3 324.5 39.6C325.1 39.3 325.7 38.9 326.2 38.4C326.3 38.5 326.4 38.6 326.5 38.7L326.6 38.8L326.7 38.9C327.8 40 329.7 41.3 332.8 41.3C335.9 41.3 337.8 40 338.9 38.8C340.4 37.2 341.2 35.2 341.2 32.9C341.2 32 341.1 31.2 340.9 30.4C346.5 27.6 347.4 23.1 347.4 20.2Z" fill="url(#paint0_linear)"/>
<path d="M347.4 17.2C347.4 13.7 346 10.7 343.5 8.5C341.1 6.4 337.9 5.4 333.8 5.4C332.5 5.4 331.2 5.5 330.1 5.7C328.8 5.9 327.6 6.3 326.5 6.8C325.2 7.4 324 8.3 323.2 9.4C322.8 9.9 322.5 10.5 322.3 11.1C322 11 321.7 10.8 321.3 10.7C319.7 10.1 318 9.8 316.1 9.8C314.5 9.8 312.8 10.1 311.3 10.6C309.8 11.1 308.5 11.8 307.2 12.8C306.9 12.5 306.6 12.1 306.2 11.9C305.3 11.2 304.2 10.7 302.9 10.5C302.2 10.4 301.5 10.3 300.7 10.3C299.9 10.3 299.2 10.4 298.4 10.5C297.6 10.6 297 10.7 296.5 10.9L294.5 11.5C293.7 11 292.8 10.7 291.8 10.5C291.1 10.4 290.4 10.3 289.6 10.3C288.8 10.3 288.1 10.4 287.3 10.5C286.5 10.6 285.9 10.7 285.4 10.9L282.7 11.7C281.9 11.3 281 10.9 280.1 10.7C278.5 10.2 276.8 9.9 274.9 9.9C273.1 9.9 271.3 10.2 269.7 10.7C269 10.9 268.3 11.2 267.7 11.5C267.7 11.2 267.8 10.9 267.8 10.6C267.8 8.4 267 6.4 265.4 4.8C263.8 3.2 261.8 2.4 259.4 2.4C257.1 2.4 255 3.2 253.4 4.8C251.9 6.4 251.1 8.3 251.1 10.5C250.5 10.3 250 10.2 249.3 10.1C248.3 9.9 247.1 9.8 246 9.8C244.4 9.8 242.9 10 241.5 10.4C240 10.8 238.6 11.4 237.5 12.2C236.1 13.1 235.1 14.3 234.3 15.8C233.6 17.1 233.2 18.6 233.2 20.2C233 19.2 232.7 18.3 232.3 17.4C231.6 15.8 230.6 14.4 229.3 13.3C228.9 13 228.5 12.6 228.1 12.3C228.7 11.2 229.1 9.9 229.1 8.5C229.1 6.4 228.2 4.4 226.5 3C225 1.6 223 1 220.5 1H218.9L217.6 2L212.7 5.6C211.7 6.3 211 7.2 210.5 8.2C210 9.2 209.8 10.2 209.8 11.3C209.8 11.4 209.8 11.5 209.8 11.7C208.9 11.1 207.9 10.7 206.8 10.5C206.1 10.4 205.4 10.3 204.6 10.3C203.8 10.3 203.1 10.4 202.3 10.5C201.5 10.6 200.9 10.7 200.4 10.9L198.4 11.5C197.6 11 196.7 10.7 195.7 10.5C195 10.4 194.3 10.3 193.5 10.3C192.7 10.3 192 10.4 191.2 10.5C190.4 10.6 189.8 10.7 189.3 10.9L188.8 11C188.4 10.4 188 10 187.6 9.6C186.1 8.2 184.3 7 182.2 6.3C180.3 5.6 178.2 5.2 176 5.2C173.8 5.2 171.7 5.6 169.8 6.3C167.8 7 166 8.2 164.5 9.6C163.6 10.4 162.8 11.4 162.2 12.5C161.1 11.8 159.6 11.2 157.5 11.2C154.4 11.2 152.4 12.6 151.3 13.7C149.8 15.3 149 17.4 149 19.6C149 20.5 149.1 21.3 149.3 22.1C144 25 143 29.6 143 32.5C143 36 144.3 39 146.9 41.2C149.3 43.3 152.6 44.3 156.6 44.3C157.9 44.3 159.1 44.2 160.3 44C161.6 43.8 162.9 43.4 163.9 42.9C165.3 42.3 166.4 41.4 167.2 40.3C168 39.3 168.5 38.1 168.7 36.9C169 37.1 169.4 37.2 169.7 37.4C171.1 37.9 172.6 38.2 174.2 38.4L174.4 38.6C175.9 40 177.5 41.2 179.1 42C181 43 182.9 43.5 184.8 43.5C187.8 43.5 189.7 42.3 190.9 41.3C191.8 40.5 192.8 39.3 193.3 37.4C193.7 37.5 194.1 37.7 194.6 37.8C196.1 38.2 197.8 38.4 199.5 38.4C201.2 38.4 202.9 38.2 204.4 37.8C206.1 37.4 207.6 36.8 208.9 36C209.5 35.7 210 35.2 210.4 34.8C211.8 36 213.4 36.9 215.2 37.5H215.3H215.4C217.1 38 218.9 38.3 220.9 38.3C222 38.3 223.1 38.2 224.3 38C225.8 37.8 227.2 37.3 228.5 36.6C231.1 35.2 232.7 32.7 232.7 29.8C232.7 28.8 232.5 27.7 232.1 26.8C232.8 25.8 233.4 24.4 233.5 22.6C233.7 23.7 234.1 24.7 234.5 25.5L234.4 25.6C233.7 26.8 233.3 28.1 233.3 29.6C233.3 31.3 233.8 32.9 234.8 34.2V34.3L234.9 34.4C235.7 35.4 236.7 36.3 238 36.9V37H238.1C239.1 37.5 240.3 37.8 241.6 38C242.7 38.2 244 38.3 245.2 38.3C248.7 38.3 251.6 37.5 253.8 36C254 36.1 254.1 36.3 254.3 36.4C255.2 37.1 256.3 37.5 257.5 37.8C258.2 37.9 259 38 259.8 38C260.6 38 261.4 37.9 262.1 37.8C262.7 40 264.3 41.8 266.5 42.9C268.4 43.8 270.8 44.3 273.8 44.3C275.5 44.3 277.1 44.1 278.6 43.7C280.3 43.3 281.9 42.5 283.2 41.5C284.7 40.4 285.8 39.1 286.6 37.5C286.8 37.1 287 36.7 287.1 36.3C288.2 37 289.3 37.5 290.6 37.8C292.1 38.2 293.8 38.4 295.5 38.4C297.2 38.4 298.9 38.2 300.4 37.8C302.1 37.4 303.6 36.8 304.9 36C305.5 35.7 306 35.2 306.4 34.8C307.8 36 309.4 36.9 311.2 37.5H311.3H311.4C313.1 38 314.9 38.3 316.9 38.3C318 38.3 319.1 38.2 320.3 38C321.8 37.8 323.2 37.3 324.5 36.6C325.1 36.3 325.7 35.9 326.2 35.4C326.3 35.5 326.4 35.6 326.5 35.7L326.6 35.8L326.7 35.9C327.8 37 329.7 38.3 332.8 38.3C335.9 38.3 337.8 37 338.9 35.8C340.4 34.2 341.2 32.2 341.2 29.9C341.2 29 341.1 28.2 340.9 27.4C346.5 24.6 347.4 20.1 347.4 17.2Z" fill="white"/>
<path d="M160.943 20.644C160.943 21.628 160.631 22.444 160.007 23.092C159.407 23.716 158.567 24.028 157.487 24.028C156.407 24.028 155.555 23.716 154.931 23.092C154.331 22.444 154.031 21.628 154.031 20.644C154.031 19.66 154.331 18.856 154.931 18.232C155.555 17.584 156.407 17.26 157.487 17.26C158.567 17.26 159.407 17.584 160.007 18.232C160.631 18.856 160.943 19.66 160.943 20.644ZM159.755 25.36C160.163 25.576 160.547 25.972 160.907 26.548C161.267 27.1 161.447 27.76 161.447 28.528C161.447 29.272 161.243 29.836 160.835 30.22C160.451 30.58 159.875 30.856 159.107 31.048L156.299 31.732C155.099 32.044 154.499 32.62 154.499 33.46C154.499 33.916 154.715 34.312 155.147 34.648C155.603 34.984 156.371 35.152 157.451 35.152C158.435 35.152 159.359 35.02 160.223 34.756C161.087 34.516 161.783 34.228 162.311 33.892C162.719 34.204 163.067 34.576 163.355 35.008C163.643 35.464 163.787 36.004 163.787 36.628C163.787 37.252 163.607 37.792 163.247 38.248C162.887 38.728 162.383 39.112 161.735 39.4C161.111 39.712 160.355 39.94 159.467 40.084C158.579 40.228 157.619 40.3 156.587 40.3C153.755 40.3 151.607 39.664 150.143 38.392C148.703 37.144 147.983 35.5 147.983 33.46C147.983 29.62 150.695 27.16 156.119 26.08L159.755 25.36Z" fill="#D64068"/>
<path d="M164.657 22.84C164.657 20.968 164.945 19.312 165.521 17.872C166.121 16.432 166.925 15.232 167.933 14.272C168.965 13.288 170.165 12.544 171.533 12.04C172.925 11.536 174.425 11.284 176.033 11.284C177.641 11.284 179.129 11.536 180.497 12.04C181.889 12.544 183.101 13.288 184.133 14.272C185.165 15.232 185.969 16.432 186.545 17.872C187.145 19.312 187.445 20.968 187.445 22.84C187.445 25.192 187.013 27.196 186.149 28.852C185.285 30.484 184.109 31.768 182.621 32.704C182.981 32.872 183.401 33.052 183.881 33.244C184.385 33.436 184.901 33.628 185.429 33.82C185.981 34.012 186.545 34.192 187.121 34.36C187.697 34.552 188.237 34.72 188.741 34.864C188.765 35.008 188.777 35.128 188.777 35.224C188.777 35.344 188.777 35.452 188.777 35.548C188.777 36.916 188.417 37.912 187.697 38.536C187.001 39.16 186.077 39.472 184.925 39.472C183.821 39.472 182.681 39.16 181.505 38.536C180.329 37.936 179.129 37.06 177.905 35.908L176.321 34.432H176.033C174.401 34.432 172.889 34.18 171.497 33.676C170.105 33.148 168.905 32.392 167.897 31.408C166.889 30.424 166.097 29.212 165.521 27.772C164.945 26.332 164.657 24.688 164.657 22.84ZM171.137 22.84C171.137 25.024 171.581 26.656 172.469 27.736C173.357 28.816 174.545 29.356 176.033 29.356C177.545 29.356 178.745 28.816 179.633 27.736C180.521 26.656 180.965 25.024 180.965 22.84C180.965 20.68 180.521 19.06 179.633 17.98C178.769 16.9 177.581 16.36 176.069 16.36C174.581 16.36 173.381 16.9 172.469 17.98C171.581 19.036 171.137 20.656 171.137 22.84Z" fill="#D64068"/>
<path d="M190.652 16.54C190.892 16.468 191.264 16.396 191.768 16.324C192.296 16.252 192.836 16.216 193.388 16.216C193.916 16.216 194.384 16.252 194.792 16.324C195.224 16.396 195.584 16.54 195.872 16.756C196.16 16.972 196.376 17.272 196.52 17.656C196.688 18.016 196.772 18.496 196.772 19.096V26.836C196.772 27.82 197.012 28.528 197.492 28.96C197.972 29.368 198.668 29.572 199.58 29.572C200.132 29.572 200.576 29.524 200.912 29.428C201.272 29.332 201.548 29.236 201.74 29.14V16.54C201.98 16.468 202.352 16.396 202.856 16.324C203.384 16.252 203.924 16.216 204.476 16.216C205.004 16.216 205.472 16.252 205.88 16.324C206.312 16.396 206.672 16.54 206.96 16.756C207.248 16.972 207.464 17.272 207.608 17.656C207.776 18.016 207.86 18.496 207.86 19.096V30.04C207.86 31.24 207.356 32.14 206.348 32.74C205.508 33.268 204.5 33.664 203.324 33.928C202.172 34.216 200.912 34.36 199.544 34.36C198.248 34.36 197.048 34.216 195.944 33.928C194.864 33.64 193.928 33.196 193.136 32.596C192.344 31.996 191.732 31.228 191.3 30.292C190.868 29.332 190.652 28.18 190.652 26.836V16.54Z" fill="#D64068"/>
<path d="M220.857 34.36C219.441 34.36 218.121 34.168 216.897 33.784C215.697 33.376 214.641 32.776 213.729 31.984C212.841 31.192 212.133 30.196 211.605 28.996C211.101 27.796 210.849 26.392 210.849 24.784C210.849 23.2 211.101 21.844 211.605 20.716C212.133 19.564 212.817 18.628 213.657 17.908C214.497 17.164 215.457 16.624 216.537 16.288C217.617 15.928 218.721 15.748 219.849 15.748C221.121 15.748 222.273 15.94 223.305 16.324C224.361 16.708 225.261 17.236 226.005 17.908C226.773 18.58 227.361 19.384 227.769 20.32C228.201 21.256 228.417 22.276 228.417 23.38C228.417 24.196 228.189 24.82 227.733 25.252C227.277 25.684 226.641 25.96 225.825 26.08L216.933 27.412C217.197 28.204 217.737 28.804 218.553 29.212C219.369 29.596 220.305 29.788 221.361 29.788C222.345 29.788 223.269 29.668 224.133 29.428C225.021 29.164 225.741 28.864 226.293 28.528C226.677 28.768 227.001 29.104 227.265 29.536C227.529 29.968 227.661 30.424 227.661 30.904C227.661 31.984 227.157 32.788 226.149 33.316C225.381 33.724 224.517 34 223.557 34.144C222.597 34.288 221.697 34.36 220.857 34.36ZM219.849 20.212C219.273 20.212 218.769 20.308 218.337 20.5C217.929 20.692 217.593 20.944 217.329 21.256C217.065 21.544 216.861 21.88 216.717 22.264C216.597 22.624 216.525 22.996 216.501 23.38L222.657 22.372C222.585 21.892 222.321 21.412 221.865 20.932C221.409 20.452 220.737 20.212 219.849 20.212ZM220.497 7C221.745 7 222.645 7.24 223.197 7.72C223.773 8.2 224.061 8.776 224.061 9.448C224.061 10.072 223.893 10.6 223.557 11.032C223.221 11.44 222.669 11.848 221.901 12.256L217.257 14.704C216.537 14.632 215.925 14.344 215.421 13.84C214.917 13.336 214.665 12.796 214.665 12.22C214.665 11.932 214.737 11.644 214.881 11.356C215.025 11.068 215.265 10.804 215.601 10.564L220.497 7Z" fill="#D64068"/>
<path d="M253.365 28.564C253.365 30.388 252.681 31.816 251.313 32.848C249.945 33.88 247.929 34.396 245.265 34.396C244.257 34.396 243.321 34.324 242.457 34.18C241.593 34.036 240.849 33.82 240.225 33.532C239.625 33.22 239.145 32.836 238.785 32.38C238.449 31.924 238.281 31.384 238.281 30.76C238.281 30.184 238.401 29.704 238.641 29.32C238.881 28.912 239.169 28.576 239.505 28.312C240.201 28.696 240.993 29.044 241.881 29.356C242.793 29.644 243.837 29.788 245.013 29.788C245.757 29.788 246.321 29.68 246.705 29.464C247.113 29.248 247.317 28.96 247.317 28.6C247.317 28.264 247.173 28 246.885 27.808C246.597 27.616 246.117 27.46 245.445 27.34L244.365 27.124C242.277 26.716 240.717 26.08 239.685 25.216C238.677 24.328 238.173 23.068 238.173 21.436C238.173 20.548 238.365 19.744 238.749 19.024C239.133 18.304 239.673 17.704 240.369 17.224C241.065 16.744 241.893 16.372 242.853 16.108C243.837 15.844 244.917 15.712 246.093 15.712C246.981 15.712 247.809 15.784 248.577 15.928C249.369 16.048 250.053 16.24 250.629 16.504C251.205 16.768 251.661 17.116 251.997 17.548C252.333 17.956 252.501 18.448 252.501 19.024C252.501 19.576 252.393 20.056 252.177 20.464C251.985 20.848 251.733 21.172 251.421 21.436C251.229 21.316 250.941 21.196 250.557 21.076C250.173 20.932 249.753 20.812 249.297 20.716C248.841 20.596 248.373 20.5 247.893 20.428C247.437 20.356 247.017 20.32 246.633 20.32C245.841 20.32 245.229 20.416 244.797 20.608C244.365 20.776 244.149 21.052 244.149 21.436C244.149 21.7 244.269 21.916 244.509 22.084C244.749 22.252 245.205 22.408 245.877 22.552L246.993 22.804C249.297 23.332 250.929 24.064 251.889 25C252.873 25.912 253.365 27.1 253.365 28.564Z" fill="#D64068"/>
<path d="M256.18 11.428C256.18 10.516 256.48 9.748 257.08 9.124C257.704 8.5 258.52 8.188 259.528 8.188C260.536 8.188 261.34 8.5 261.94 9.124C262.564 9.748 262.876 10.516 262.876 11.428C262.876 12.34 262.564 13.108 261.94 13.732C261.34 14.356 260.536 14.668 259.528 14.668C258.52 14.668 257.704 14.356 257.08 13.732C256.48 13.108 256.18 12.34 256.18 11.428ZM262.588 33.748C262.324 33.796 261.928 33.856 261.4 33.928C260.896 34.024 260.38 34.072 259.852 34.072C259.324 34.072 258.844 34.036 258.412 33.964C258.004 33.892 257.656 33.748 257.368 33.532C257.08 33.316 256.852 33.028 256.684 32.668C256.54 32.284 256.468 31.792 256.468 31.192V16.54C256.732 16.492 257.116 16.432 257.62 16.36C258.148 16.264 258.676 16.216 259.204 16.216C259.732 16.216 260.2 16.252 260.608 16.324C261.04 16.396 261.4 16.54 261.688 16.756C261.976 16.972 262.192 17.272 262.336 17.656C262.504 18.016 262.588 18.496 262.588 19.096V33.748Z" fill="#D64068"/>
<path d="M275.016 15.748C276.384 15.748 277.62 15.928 278.724 16.288C279.852 16.624 280.8 17.068 281.568 17.62C282.048 17.956 282.42 18.328 282.684 18.736C282.972 19.144 283.116 19.672 283.116 20.32V32.92C283.116 34.192 282.876 35.284 282.396 36.196C281.916 37.132 281.256 37.9 280.416 38.5C279.6 39.124 278.628 39.58 277.5 39.868C276.396 40.156 275.208 40.3 273.936 40.3C271.752 40.3 270.036 40 268.788 39.4C267.54 38.824 266.916 37.876 266.916 36.556C266.916 36.004 267.024 35.512 267.24 35.08C267.48 34.672 267.744 34.36 268.032 34.144C268.728 34.528 269.508 34.852 270.372 35.116C271.26 35.38 272.172 35.512 273.108 35.512C274.404 35.512 275.436 35.296 276.204 34.864C276.972 34.432 277.356 33.736 277.356 32.776V32.2C276.372 32.632 275.172 32.848 273.756 32.848C272.676 32.848 271.644 32.692 270.66 32.38C269.7 32.044 268.848 31.54 268.104 30.868C267.384 30.172 266.796 29.284 266.34 28.204C265.908 27.124 265.692 25.84 265.692 24.352C265.692 22.888 265.92 21.616 266.376 20.536C266.856 19.456 267.504 18.568 268.32 17.872C269.16 17.152 270.144 16.624 271.272 16.288C272.424 15.928 273.672 15.748 275.016 15.748ZM277.248 20.968C277.08 20.872 276.828 20.776 276.492 20.68C276.18 20.584 275.784 20.536 275.304 20.536C274.128 20.536 273.24 20.872 272.64 21.544C272.064 22.192 271.776 23.128 271.776 24.352C271.776 25.744 272.064 26.752 272.64 27.376C273.24 27.976 273.996 28.276 274.908 28.276C275.892 28.276 276.672 28.048 277.248 27.592V20.968Z" fill="#D64068"/>
<path d="M286.91 16.54C287.15 16.468 287.522 16.396 288.026 16.324C288.554 16.252 289.094 16.216 289.646 16.216C290.174 16.216 290.642 16.252 291.05 16.324C291.482 16.396 291.842 16.54 292.13 16.756C292.418 16.972 292.634 17.272 292.778 17.656C292.946 18.016 293.03 18.496 293.03 19.096V26.836C293.03 27.82 293.27 28.528 293.75 28.96C294.23 29.368 294.926 29.572 295.838 29.572C296.39 29.572 296.834 29.524 297.17 29.428C297.53 29.332 297.806 29.236 297.998 29.14V16.54C298.238 16.468 298.61 16.396 299.114 16.324C299.642 16.252 300.182 16.216 300.734 16.216C301.262 16.216 301.73 16.252 302.138 16.324C302.57 16.396 302.93 16.54 303.218 16.756C303.506 16.972 303.722 17.272 303.866 17.656C304.034 18.016 304.118 18.496 304.118 19.096V30.04C304.118 31.24 303.614 32.14 302.606 32.74C301.766 33.268 300.758 33.664 299.582 33.928C298.43 34.216 297.17 34.36 295.802 34.36C294.506 34.36 293.306 34.216 292.202 33.928C291.122 33.64 290.186 33.196 289.394 32.596C288.602 31.996 287.99 31.228 287.558 30.292C287.126 29.332 286.91 28.18 286.91 26.836V16.54Z" fill="#D64068"/>
<path d="M317.115 34.36C315.699 34.36 314.379 34.168 313.155 33.784C311.955 33.376 310.899 32.776 309.987 31.984C309.099 31.192 308.391 30.196 307.863 28.996C307.359 27.796 307.107 26.392 307.107 24.784C307.107 23.2 307.359 21.844 307.863 20.716C308.391 19.564 309.075 18.628 309.915 17.908C310.755 17.164 311.715 16.624 312.795 16.288C313.875 15.928 314.979 15.748 316.107 15.748C317.379 15.748 318.531 15.94 319.563 16.324C320.619 16.708 321.519 17.236 322.263 17.908C323.031 18.58 323.619 19.384 324.027 20.32C324.459 21.256 324.675 22.276 324.675 23.38C324.675 24.196 324.447 24.82 323.991 25.252C323.535 25.684 322.899 25.96 322.083 26.08L313.191 27.412C313.455 28.204 313.995 28.804 314.811 29.212C315.627 29.596 316.563 29.788 317.619 29.788C318.603 29.788 319.527 29.668 320.391 29.428C321.279 29.164 321.999 28.864 322.551 28.528C322.935 28.768 323.259 29.104 323.523 29.536C323.787 29.968 323.919 30.424 323.919 30.904C323.919 31.984 323.415 32.788 322.407 33.316C321.639 33.724 320.775 34 319.815 34.144C318.855 34.288 317.955 34.36 317.115 34.36ZM316.107 20.212C315.531 20.212 315.027 20.308 314.595 20.5C314.187 20.692 313.851 20.944 313.587 21.256C313.323 21.544 313.119 21.88 312.975 22.264C312.855 22.624 312.783 22.996 312.759 23.38L318.915 22.372C318.843 21.892 318.579 21.412 318.123 20.932C317.667 20.452 316.995 20.212 316.107 20.212Z" fill="#D64068"/>
<path d="M329.457 31.012C329.457 30.028 329.757 29.224 330.357 28.6C330.981 27.952 331.833 27.628 332.913 27.628C333.993 27.628 334.833 27.952 335.433 28.6C336.057 29.224 336.369 30.028 336.369 31.012C336.369 31.996 336.057 32.812 335.433 33.46C334.833 34.084 333.993 34.396 332.913 34.396C331.833 34.396 330.981 34.084 330.357 33.46C329.757 32.812 329.457 31.996 329.457 31.012ZM330.645 26.296C330.237 26.08 329.853 25.696 329.493 25.144C329.133 24.568 328.953 23.896 328.953 23.128C328.953 22.384 329.145 21.832 329.529 21.472C329.937 21.088 330.525 20.8 331.293 20.608L334.101 19.924C335.301 19.612 335.901 19.036 335.901 18.196C335.901 17.74 335.673 17.344 335.217 17.008C334.785 16.672 334.029 16.504 332.949 16.504C331.965 16.504 331.041 16.636 330.177 16.9C329.313 17.14 328.617 17.428 328.089 17.764C327.681 17.452 327.333 17.08 327.045 16.648C326.757 16.192 326.613 15.652 326.613 15.028C326.613 14.404 326.793 13.864 327.153 13.408C327.513 12.928 328.005 12.544 328.629 12.256C329.277 11.944 330.033 11.716 330.897 11.572C331.785 11.428 332.757 11.356 333.813 11.356C336.645 11.356 338.781 11.992 340.221 13.264C341.685 14.512 342.417 16.156 342.417 18.196C342.417 22.036 339.705 24.496 334.281 25.576L330.645 26.296Z" fill="#D64068"/>
<path d="M160.943 19.644C160.943 20.628 160.631 21.444 160.007 22.092C159.407 22.716 158.567 23.028 157.487 23.028C156.407 23.028 155.555 22.716 154.931 22.092C154.331 21.444 154.031 20.628 154.031 19.644C154.031 18.66 154.331 17.856 154.931 17.232C155.555 16.584 156.407 16.26 157.487 16.26C158.567 16.26 159.407 16.584 160.007 17.232C160.631 17.856 160.943 18.66 160.943 19.644ZM159.755 24.36C160.163 24.576 160.547 24.972 160.907 25.548C161.267 26.1 161.447 26.76 161.447 27.528C161.447 28.272 161.243 28.836 160.835 29.22C160.451 29.58 159.875 29.856 159.107 30.048L156.299 30.732C155.099 31.044 154.499 31.62 154.499 32.46C154.499 32.916 154.715 33.312 155.147 33.648C155.603 33.984 156.371 34.152 157.451 34.152C158.435 34.152 159.359 34.02 160.223 33.756C161.087 33.516 161.783 33.228 162.311 32.892C162.719 33.204 163.067 33.576 163.355 34.008C163.643 34.464 163.787 35.004 163.787 35.628C163.787 36.252 163.607 36.792 163.247 37.248C162.887 37.728 162.383 38.112 161.735 38.4C161.111 38.712 160.355 38.94 159.467 39.084C158.579 39.228 157.619 39.3 156.587 39.3C153.755 39.3 151.607 38.664 150.143 37.392C148.703 36.144 147.983 34.5 147.983 32.46C147.983 28.62 150.695 26.16 156.119 25.08L159.755 24.36Z" fill="url(#paint1_radial)"/>
<path d="M164.657 21.84C164.657 19.968 164.945 18.312 165.521 16.872C166.121 15.432 166.925 14.232 167.933 13.272C168.965 12.288 170.165 11.544 171.533 11.04C172.925 10.536 174.425 10.284 176.033 10.284C177.641 10.284 179.129 10.536 180.497 11.04C181.889 11.544 183.101 12.288 184.133 13.272C185.165 14.232 185.969 15.432 186.545 16.872C187.145 18.312 187.445 19.968 187.445 21.84C187.445 24.192 187.013 26.196 186.149 27.852C185.285 29.484 184.109 30.768 182.621 31.704C182.981 31.872 183.401 32.052 183.881 32.244C184.385 32.436 184.901 32.628 185.429 32.82C185.981 33.012 186.545 33.192 187.121 33.36C187.697 33.552 188.237 33.72 188.741 33.864C188.765 34.008 188.777 34.128 188.777 34.224C188.777 34.344 188.777 34.452 188.777 34.548C188.777 35.916 188.417 36.912 187.697 37.536C187.001 38.16 186.077 38.472 184.925 38.472C183.821 38.472 182.681 38.16 181.505 37.536C180.329 36.936 179.129 36.06 177.905 34.908L176.321 33.432H176.033C174.401 33.432 172.889 33.18 171.497 32.676C170.105 32.148 168.905 31.392 167.897 30.408C166.889 29.424 166.097 28.212 165.521 26.772C164.945 25.332 164.657 23.688 164.657 21.84ZM171.137 21.84C171.137 24.024 171.581 25.656 172.469 26.736C173.357 27.816 174.545 28.356 176.033 28.356C177.545 28.356 178.745 27.816 179.633 26.736C180.521 25.656 180.965 24.024 180.965 21.84C180.965 19.68 180.521 18.06 179.633 16.98C178.769 15.9 177.581 15.36 176.069 15.36C174.581 15.36 173.381 15.9 172.469 16.98C171.581 18.036 171.137 19.656 171.137 21.84Z" fill="url(#paint2_radial)"/>
<path d="M190.652 15.54C190.892 15.468 191.264 15.396 191.768 15.324C192.296 15.252 192.836 15.216 193.388 15.216C193.916 15.216 194.384 15.252 194.792 15.324C195.224 15.396 195.584 15.54 195.872 15.756C196.16 15.972 196.376 16.272 196.52 16.656C196.688 17.016 196.772 17.496 196.772 18.096V25.836C196.772 26.82 197.012 27.528 197.492 27.96C197.972 28.368 198.668 28.572 199.58 28.572C200.132 28.572 200.576 28.524 200.912 28.428C201.272 28.332 201.548 28.236 201.74 28.14V15.54C201.98 15.468 202.352 15.396 202.856 15.324C203.384 15.252 203.924 15.216 204.476 15.216C205.004 15.216 205.472 15.252 205.88 15.324C206.312 15.396 206.672 15.54 206.96 15.756C207.248 15.972 207.464 16.272 207.608 16.656C207.776 17.016 207.86 17.496 207.86 18.096V29.04C207.86 30.24 207.356 31.14 206.348 31.74C205.508 32.268 204.5 32.664 203.324 32.928C202.172 33.216 200.912 33.36 199.544 33.36C198.248 33.36 197.048 33.216 195.944 32.928C194.864 32.64 193.928 32.196 193.136 31.596C192.344 30.996 191.732 30.228 191.3 29.292C190.868 28.332 190.652 27.18 190.652 25.836V15.54Z" fill="url(#paint3_radial)"/>
<path d="M220.857 33.36C219.441 33.36 218.121 33.168 216.897 32.784C215.697 32.376 214.641 31.776 213.729 30.984C212.841 30.192 212.133 29.196 211.605 27.996C211.101 26.796 210.849 25.392 210.849 23.784C210.849 22.2 211.101 20.844 211.605 19.716C212.133 18.564 212.817 17.628 213.657 16.908C214.497 16.164 215.457 15.624 216.537 15.288C217.617 14.928 218.721 14.748 219.849 14.748C221.121 14.748 222.273 14.94 223.305 15.324C224.361 15.708 225.261 16.236 226.005 16.908C226.773 17.58 227.361 18.384 227.769 19.32C228.201 20.256 228.417 21.276 228.417 22.38C228.417 23.196 228.189 23.82 227.733 24.252C227.277 24.684 226.641 24.96 225.825 25.08L216.933 26.412C217.197 27.204 217.737 27.804 218.553 28.212C219.369 28.596 220.305 28.788 221.361 28.788C222.345 28.788 223.269 28.668 224.133 28.428C225.021 28.164 225.741 27.864 226.293 27.528C226.677 27.768 227.001 28.104 227.265 28.536C227.529 28.968 227.661 29.424 227.661 29.904C227.661 30.984 227.157 31.788 226.149 32.316C225.381 32.724 224.517 33 223.557 33.144C222.597 33.288 221.697 33.36 220.857 33.36ZM219.849 19.212C219.273 19.212 218.769 19.308 218.337 19.5C217.929 19.692 217.593 19.944 217.329 20.256C217.065 20.544 216.861 20.88 216.717 21.264C216.597 21.624 216.525 21.996 216.501 22.38L222.657 21.372C222.585 20.892 222.321 20.412 221.865 19.932C221.409 19.452 220.737 19.212 219.849 19.212ZM220.497 6C221.745 6 222.645 6.24 223.197 6.72C223.773 7.2 224.061 7.776 224.061 8.448C224.061 9.072 223.893 9.6 223.557 10.032C223.221 10.44 222.669 10.848 221.901 11.256L217.257 13.704C216.537 13.632 215.925 13.344 215.421 12.84C214.917 12.336 214.665 11.796 214.665 11.22C214.665 10.932 214.737 10.644 214.881 10.356C215.025 10.068 215.265 9.804 215.601 9.564L220.497 6Z" fill="url(#paint4_radial)"/>
<path d="M253.365 27.564C253.365 29.388 252.681 30.816 251.313 31.848C249.945 32.88 247.929 33.396 245.265 33.396C244.257 33.396 243.321 33.324 242.457 33.18C241.593 33.036 240.849 32.82 240.225 32.532C239.625 32.22 239.145 31.836 238.785 31.38C238.449 30.924 238.281 30.384 238.281 29.76C238.281 29.184 238.401 28.704 238.641 28.32C238.881 27.912 239.169 27.576 239.505 27.312C240.201 27.696 240.993 28.044 241.881 28.356C242.793 28.644 243.837 28.788 245.013 28.788C245.757 28.788 246.321 28.68 246.705 28.464C247.113 28.248 247.317 27.96 247.317 27.6C247.317 27.264 247.173 27 246.885 26.808C246.597 26.616 246.117 26.46 245.445 26.34L244.365 26.124C242.277 25.716 240.717 25.08 239.685 24.216C238.677 23.328 238.173 22.068 238.173 20.436C238.173 19.548 238.365 18.744 238.749 18.024C239.133 17.304 239.673 16.704 240.369 16.224C241.065 15.744 241.893 15.372 242.853 15.108C243.837 14.844 244.917 14.712 246.093 14.712C246.981 14.712 247.809 14.784 248.577 14.928C249.369 15.048 250.053 15.24 250.629 15.504C251.205 15.768 251.661 16.116 251.997 16.548C252.333 16.956 252.501 17.448 252.501 18.024C252.501 18.576 252.393 19.056 252.177 19.464C251.985 19.848 251.733 20.172 251.421 20.436C251.229 20.316 250.941 20.196 250.557 20.076C250.173 19.932 249.753 19.812 249.297 19.716C248.841 19.596 248.373 19.5 247.893 19.428C247.437 19.356 247.017 19.32 246.633 19.32C245.841 19.32 245.229 19.416 244.797 19.608C244.365 19.776 244.149 20.052 244.149 20.436C244.149 20.7 244.269 20.916 244.509 21.084C244.749 21.252 245.205 21.408 245.877 21.552L246.993 21.804C249.297 22.332 250.929 23.064 251.889 24C252.873 24.912 253.365 26.1 253.365 27.564Z" fill="url(#paint5_radial)"/>
<path d="M256.18 10.428C256.18 9.516 256.48 8.748 257.08 8.124C257.704 7.5 258.52 7.188 259.528 7.188C260.536 7.188 261.34 7.5 261.94 8.124C262.564 8.748 262.876 9.516 262.876 10.428C262.876 11.34 262.564 12.108 261.94 12.732C261.34 13.356 260.536 13.668 259.528 13.668C258.52 13.668 257.704 13.356 257.08 12.732C256.48 12.108 256.18 11.34 256.18 10.428ZM262.588 32.748C262.324 32.796 261.928 32.856 261.4 32.928C260.896 33.024 260.38 33.072 259.852 33.072C259.324 33.072 258.844 33.036 258.412 32.964C258.004 32.892 257.656 32.748 257.368 32.532C257.08 32.316 256.852 32.028 256.684 31.668C256.54 31.284 256.468 30.792 256.468 30.192V15.54C256.732 15.492 257.116 15.432 257.62 15.36C258.148 15.264 258.676 15.216 259.204 15.216C259.732 15.216 260.2 15.252 260.608 15.324C261.04 15.396 261.4 15.54 261.688 15.756C261.976 15.972 262.192 16.272 262.336 16.656C262.504 17.016 262.588 17.496 262.588 18.096V32.748Z" fill="url(#paint6_radial)"/>
<path d="M275.016 14.748C276.384 14.748 277.62 14.928 278.724 15.288C279.852 15.624 280.8 16.068 281.568 16.62C282.048 16.956 282.42 17.328 282.684 17.736C282.972 18.144 283.116 18.672 283.116 19.32V31.92C283.116 33.192 282.876 34.284 282.396 35.196C281.916 36.132 281.256 36.9 280.416 37.5C279.6 38.124 278.628 38.58 277.5 38.868C276.396 39.156 275.208 39.3 273.936 39.3C271.752 39.3 270.036 39 268.788 38.4C267.54 37.824 266.916 36.876 266.916 35.556C266.916 35.004 267.024 34.512 267.24 34.08C267.48 33.672 267.744 33.36 268.032 33.144C268.728 33.528 269.508 33.852 270.372 34.116C271.26 34.38 272.172 34.512 273.108 34.512C274.404 34.512 275.436 34.296 276.204 33.864C276.972 33.432 277.356 32.736 277.356 31.776V31.2C276.372 31.632 275.172 31.848 273.756 31.848C272.676 31.848 271.644 31.692 270.66 31.38C269.7 31.044 268.848 30.54 268.104 29.868C267.384 29.172 266.796 28.284 266.34 27.204C265.908 26.124 265.692 24.84 265.692 23.352C265.692 21.888 265.92 20.616 266.376 19.536C266.856 18.456 267.504 17.568 268.32 16.872C269.16 16.152 270.144 15.624 271.272 15.288C272.424 14.928 273.672 14.748 275.016 14.748ZM277.248 19.968C277.08 19.872 276.828 19.776 276.492 19.68C276.18 19.584 275.784 19.536 275.304 19.536C274.128 19.536 273.24 19.872 272.64 20.544C272.064 21.192 271.776 22.128 271.776 23.352C271.776 24.744 272.064 25.752 272.64 26.376C273.24 26.976 273.996 27.276 274.908 27.276C275.892 27.276 276.672 27.048 277.248 26.592V19.968Z" fill="url(#paint7_radial)"/>
<path d="M286.91 15.54C287.15 15.468 287.522 15.396 288.026 15.324C288.554 15.252 289.094 15.216 289.646 15.216C290.174 15.216 290.642 15.252 291.05 15.324C291.482 15.396 291.842 15.54 292.13 15.756C292.418 15.972 292.634 16.272 292.778 16.656C292.946 17.016 293.03 17.496 293.03 18.096V25.836C293.03 26.82 293.27 27.528 293.75 27.96C294.23 28.368 294.926 28.572 295.838 28.572C296.39 28.572 296.834 28.524 297.17 28.428C297.53 28.332 297.806 28.236 297.998 28.14V15.54C298.238 15.468 298.61 15.396 299.114 15.324C299.642 15.252 300.182 15.216 300.734 15.216C301.262 15.216 301.73 15.252 302.138 15.324C302.57 15.396 302.93 15.54 303.218 15.756C303.506 15.972 303.722 16.272 303.866 16.656C304.034 17.016 304.118 17.496 304.118 18.096V29.04C304.118 30.24 303.614 31.14 302.606 31.74C301.766 32.268 300.758 32.664 299.582 32.928C298.43 33.216 297.17 33.36 295.802 33.36C294.506 33.36 293.306 33.216 292.202 32.928C291.122 32.64 290.186 32.196 289.394 31.596C288.602 30.996 287.99 30.228 287.558 29.292C287.126 28.332 286.91 27.18 286.91 25.836V15.54Z" fill="url(#paint8_radial)"/>
<path d="M317.115 33.36C315.699 33.36 314.379 33.168 313.155 32.784C311.955 32.376 310.899 31.776 309.987 30.984C309.099 30.192 308.391 29.196 307.863 27.996C307.359 26.796 307.107 25.392 307.107 23.784C307.107 22.2 307.359 20.844 307.863 19.716C308.391 18.564 309.075 17.628 309.915 16.908C310.755 16.164 311.715 15.624 312.795 15.288C313.875 14.928 314.979 14.748 316.107 14.748C317.379 14.748 318.531 14.94 319.563 15.324C320.619 15.708 321.519 16.236 322.263 16.908C323.031 17.58 323.619 18.384 324.027 19.32C324.459 20.256 324.675 21.276 324.675 22.38C324.675 23.196 324.447 23.82 323.991 24.252C323.535 24.684 322.899 24.96 322.083 25.08L313.191 26.412C313.455 27.204 313.995 27.804 314.811 28.212C315.627 28.596 316.563 28.788 317.619 28.788C318.603 28.788 319.527 28.668 320.391 28.428C321.279 28.164 321.999 27.864 322.551 27.528C322.935 27.768 323.259 28.104 323.523 28.536C323.787 28.968 323.919 29.424 323.919 29.904C323.919 30.984 323.415 31.788 322.407 32.316C321.639 32.724 320.775 33 319.815 33.144C318.855 33.288 317.955 33.36 317.115 33.36ZM316.107 19.212C315.531 19.212 315.027 19.308 314.595 19.5C314.187 19.692 313.851 19.944 313.587 20.256C313.323 20.544 313.119 20.88 312.975 21.264C312.855 21.624 312.783 21.996 312.759 22.38L318.915 21.372C318.843 20.892 318.579 20.412 318.123 19.932C317.667 19.452 316.995 19.212 316.107 19.212Z" fill="url(#paint9_radial)"/>
<path d="M329.457 30.012C329.457 29.028 329.757 28.224 330.357 27.6C330.981 26.952 331.833 26.628 332.913 26.628C333.993 26.628 334.833 26.952 335.433 27.6C336.057 28.224 336.369 29.028 336.369 30.012C336.369 30.996 336.057 31.812 335.433 32.46C334.833 33.084 333.993 33.396 332.913 33.396C331.833 33.396 330.981 33.084 330.357 32.46C329.757 31.812 329.457 30.996 329.457 30.012ZM330.645 25.296C330.237 25.08 329.853 24.696 329.493 24.144C329.133 23.568 328.953 22.896 328.953 22.128C328.953 21.384 329.145 20.832 329.529 20.472C329.937 20.088 330.525 19.8 331.293 19.608L334.101 18.924C335.301 18.612 335.901 18.036 335.901 17.196C335.901 16.74 335.673 16.344 335.217 16.008C334.785 15.672 334.029 15.504 332.949 15.504C331.965 15.504 331.041 15.636 330.177 15.9C329.313 16.14 328.617 16.428 328.089 16.764C327.681 16.452 327.333 16.08 327.045 15.648C326.757 15.192 326.613 14.652 326.613 14.028C326.613 13.404 326.793 12.864 327.153 12.408C327.513 11.928 328.005 11.544 328.629 11.256C329.277 10.944 330.033 10.716 330.897 10.572C331.785 10.428 332.757 10.356 333.813 10.356C336.645 10.356 338.781 10.992 340.221 12.264C341.685 13.512 342.417 15.156 342.417 17.196C342.417 21.036 339.705 23.496 334.281 24.576L330.645 25.296Z" fill="url(#paint10_radial)"/>
</g>
<defs>
<linearGradient id="paint0_linear" x1="245.25" y1="50.0433" x2="245.25" y2="3.9818" gradientUnits="userSpaceOnUse">
<stop stop-color="#A1D7EA"/>
<stop offset="1" stop-color="#858CDA"/>
</linearGradient>
<radialGradient id="paint1_radial" cx="0" cy="0" r="1" gradientUnits="userSpaceOnUse" gradientTransform="translate(398.65 -5.91824) scale(497.808 67.3266)">
<stop stop-color="#FA9B4E"/>
<stop offset="0.674" stop-color="#F95D58"/>
</radialGradient>
<radialGradient id="paint2_radial" cx="0" cy="0" r="1" gradientUnits="userSpaceOnUse" gradientTransform="translate(398.65 -5.91824) scale(497.808 67.3266)">
<stop stop-color="#FA9B4E"/>
<stop offset="0.674" stop-color="#F95D58"/>
</radialGradient>
<radialGradient id="paint3_radial" cx="0" cy="0" r="1" gradientUnits="userSpaceOnUse" gradientTransform="translate(398.65 -5.91824) scale(497.808 67.3266)">
<stop stop-color="#FA9B4E"/>
<stop offset="0.674" stop-color="#F95D58"/>
</radialGradient>
<radialGradient id="paint4_radial" cx="0" cy="0" r="1" gradientUnits="userSpaceOnUse" gradientTransform="translate(398.65 -5.91824) scale(497.808 67.3266)">
<stop stop-color="#FA9B4E"/>
<stop offset="0.674" stop-color="#F95D58"/>
</radialGradient>
<radialGradient id="paint5_radial" cx="0" cy="0" r="1" gradientUnits="userSpaceOnUse" gradientTransform="translate(398.65 -5.91824) scale(497.808 67.3266)">
<stop stop-color="#FA9B4E"/>
<stop offset="0.674" stop-color="#F95D58"/>
</radialGradient>
<radialGradient id="paint6_radial" cx="0" cy="0" r="1" gradientUnits="userSpaceOnUse" gradientTransform="translate(398.65 -5.91824) scale(497.808 67.3266)">
<stop stop-color="#FA9B4E"/>
<stop offset="0.674" stop-color="#F95D58"/>
</radialGradient>
<radialGradient id="paint7_radial" cx="0" cy="0" r="1" gradientUnits="userSpaceOnUse" gradientTransform="translate(398.65 -5.91824) scale(497.808 67.3266)">
<stop stop-color="#FA9B4E"/>
<stop offset="0.674" stop-color="#F95D58"/>
</radialGradient>
<radialGradient id="paint8_radial" cx="0" cy="0" r="1" gradientUnits="userSpaceOnUse" gradientTransform="translate(398.65 -5.91824) scale(497.808 67.3266)">
<stop stop-color="#FA9B4E"/>
<stop offset="0.674" stop-color="#F95D58"/>
</radialGradient>
<radialGradient id="paint9_radial" cx="0" cy="0" r="1" gradientUnits="userSpaceOnUse" gradientTransform="translate(398.65 -5.91824) scale(497.808 67.3266)">
<stop stop-color="#FA9B4E"/>
<stop offset="0.674" stop-color="#F95D58"/>
</radialGradient>
<radialGradient id="paint10_radial" cx="0" cy="0" r="1" gradientUnits="userSpaceOnUse" gradientTransform="translate(398.65 -5.91824) scale(497.808 67.3266)">
<stop stop-color="#FA9B4E"/>
<stop offset="0.674" stop-color="#F95D58"/>
</radialGradient>
<clipPath id="clip0">
<rect x="0.476562" y="0.925781" width="507" height="48" fill="white"/>
</clipPath>
</defs>
</svg>
