<svg width="118" height="59" viewBox="0 0 118 59" fill="none" xmlns="http://www.w3.org/2000/svg">
<g clip-path="url(#clip0)">
<path d="M0.710938 33.2223C0.710938 23.404 8.67029 15.4446 18.4886 15.4446H83.9332C93.7516 15.4446 101.711 23.404 101.711 33.2223C101.711 43.0407 93.7516 51.0001 83.9332 51.0001H18.4886C8.67029 51.0001 0.710938 43.0407 0.710938 33.2223Z" fill="url(#paint0_linear)"/>
<path d="M0.710938 30.4444C0.710938 19.7055 9.41648 11 20.1553 11H82.2666C93.0054 11 101.711 19.7055 101.711 30.4444C101.711 41.1832 93.0054 49.8887 82.2666 49.8887H20.1553C9.41647 49.8887 0.710938 41.1832 0.710938 30.4444Z" fill="white"/>
<path d="M5.56504 38.4979C4.513 30.9406 10.0698 24.0685 17.6798 23.5153L80.1371 18.9751C88.1173 18.395 95.2381 23.9578 96.6066 31.8412C98.2629 41.3824 90.9004 50.1049 81.2166 50.0742L18.5948 49.8758C12.025 49.855 6.4709 45.005 5.56504 38.4979Z" fill="url(#paint1_radial)"/>
<path d="M4.50173 29.5785C4.88808 21.5522 11.435 15.2021 19.4694 15.0609L81.3199 13.9738C89.9395 13.8224 97.1606 20.463 97.7301 29.0651C98.3526 38.466 90.8343 46.4042 81.4135 46.2932L19.5577 45.5642C10.917 45.4624 4.08625 38.2099 4.50173 29.5785Z" fill="url(#paint2_linear)"/>
<path d="M5.3209 29.9177C5.55886 22.1592 11.8512 15.9567 19.6125 15.8305L81.5476 14.8234C89.7144 14.6906 96.5316 21.0244 96.9988 29.1789C97.5016 37.9545 90.4914 45.3323 81.7016 45.2783L19.7595 44.8978C11.5928 44.8476 5.07053 38.0807 5.3209 29.9177Z" fill="url(#paint3_linear)"/>
<path d="M6.81877 29.7058C6.95807 22.431 12.8736 16.5947 20.1497 16.5536L81.5532 16.2066C88.4476 16.1676 94.2283 21.4045 94.8685 28.2692C95.5911 36.0181 89.534 42.7286 81.7519 42.8008L20.35 43.3711C12.7953 43.4412 6.67413 37.2594 6.81877 29.7058Z" fill="url(#paint4_radial)"/>
<path d="M22.4725 30.7632C21.9445 30.5832 21.4645 30.4032 21.0325 30.2232C20.6005 30.0312 20.2285 29.8032 19.9165 29.5392C19.6045 29.2752 19.3585 28.9632 19.1785 28.6032C19.0105 28.2312 18.9265 27.7812 18.9265 27.2532C18.9265 26.2332 19.3165 25.4172 20.0965 24.8052C20.8885 24.1932 21.9925 23.8872 23.4085 23.8872C23.9245 23.8872 24.4045 23.9232 24.8485 23.9952C25.2925 24.0672 25.6705 24.1812 25.9825 24.3372C26.3065 24.4812 26.5585 24.6732 26.7385 24.9132C26.9185 25.1412 27.0085 25.4112 27.0085 25.7232C27.0085 26.0352 26.9365 26.3052 26.7925 26.5332C26.6485 26.7492 26.4745 26.9352 26.2705 27.0912C26.0065 26.9232 25.6525 26.7792 25.2085 26.6592C24.7645 26.5272 24.2785 26.4612 23.7505 26.4612C23.2105 26.4612 22.8145 26.5392 22.5625 26.6952C22.3105 26.8392 22.1845 27.0252 22.1845 27.2532C22.1845 27.4332 22.2625 27.5832 22.4185 27.7032C22.5745 27.8112 22.8085 27.9132 23.1205 28.0092L24.0745 28.3152C25.2025 28.6752 26.0665 29.1372 26.6665 29.7012C27.2785 30.2532 27.5845 31.0092 27.5845 31.9692C27.5845 32.9892 27.1825 33.8172 26.3785 34.4532C25.5745 35.0772 24.3925 35.3892 22.8325 35.3892C22.2805 35.3892 21.7645 35.3412 21.2845 35.2452C20.8165 35.1612 20.4025 35.0352 20.0425 34.8672C19.6945 34.6872 19.4185 34.4712 19.2145 34.2192C19.0225 33.9552 18.9265 33.6552 18.9265 33.3192C18.9265 32.9712 19.0285 32.6772 19.2325 32.4372C19.4365 32.1852 19.6585 31.9932 19.8985 31.8612C20.2345 32.1252 20.6425 32.3532 21.1225 32.5452C21.6145 32.7372 22.1485 32.8332 22.7245 32.8332C23.3125 32.8332 23.7265 32.7432 23.9665 32.5632C24.2065 32.3832 24.3265 32.1732 24.3265 31.9332C24.3265 31.6932 24.2305 31.5132 24.0385 31.3932C23.8465 31.2612 23.5765 31.1352 23.2285 31.0152L22.4725 30.7632ZM31.6829 24.5172C31.8869 24.3972 32.1929 24.2832 32.6009 24.1752C33.0209 24.0672 33.4409 24.0132 33.8609 24.0132C34.4609 24.0132 34.9889 24.1032 35.4449 24.2832C35.9129 24.4512 36.2129 24.7212 36.3449 25.0932C36.5609 25.7172 36.7949 26.4432 37.0469 27.2712C37.2989 28.0992 37.5509 28.9572 37.8029 29.8452C38.0549 30.7212 38.3009 31.5912 38.5409 32.4552C38.7809 33.3072 38.9909 34.0632 39.1709 34.7232C39.0269 34.8912 38.8109 35.0232 38.5229 35.1192C38.2349 35.2272 37.8929 35.2812 37.4969 35.2812C37.2089 35.2812 36.9629 35.2572 36.7589 35.2092C36.5669 35.1612 36.4049 35.0892 36.2729 34.9932C36.1529 34.8972 36.0509 34.7712 35.9669 34.6152C35.8949 34.4592 35.8289 34.2792 35.7689 34.0752L35.4449 32.8332H32.1869C32.0909 33.1932 31.9949 33.5652 31.8989 33.9492C31.8029 34.3332 31.7069 34.7052 31.6109 35.0652C31.4429 35.1252 31.2629 35.1732 31.0709 35.2092C30.8909 35.2572 30.6689 35.2812 30.4049 35.2812C29.7929 35.2812 29.3369 35.1792 29.0369 34.9752C28.7489 34.7592 28.6049 34.4652 28.6049 34.0932C28.6049 33.9252 28.6289 33.7572 28.6769 33.5892C28.7249 33.4212 28.7789 33.2232 28.8389 32.9952C28.9229 32.6712 29.0369 32.2692 29.1809 31.7892C29.3369 31.3092 29.5049 30.7932 29.6849 30.2412C29.8649 29.6772 30.0569 29.1012 30.2609 28.5132C30.4649 27.9252 30.6569 27.3732 30.8369 26.8572C31.0169 26.3292 31.1789 25.8612 31.3229 25.4532C31.4789 25.0452 31.5989 24.7332 31.6829 24.5172ZM33.8429 26.8392C33.6749 27.3432 33.4829 27.9072 33.2669 28.5312C33.0629 29.1432 32.8769 29.7672 32.7089 30.4032H34.9409C34.7729 29.7552 34.5989 29.1252 34.4189 28.5132C34.2509 27.8892 34.0949 27.3312 33.9509 26.8392H33.8429ZM42.3201 35.1552C41.8041 35.1552 41.3961 35.0052 41.0961 34.7052C40.7961 34.4052 40.6461 33.9972 40.6461 33.4812V24.1752C40.7781 24.1512 40.9881 24.1212 41.2761 24.0852C41.5641 24.0372 41.8401 24.0132 42.1041 24.0132C42.3801 24.0132 42.6201 24.0372 42.8241 24.0852C43.0401 24.1212 43.2201 24.1932 43.3641 24.3012C43.5081 24.4092 43.6161 24.5592 43.6881 24.7512C43.7601 24.9432 43.7961 25.1952 43.7961 25.5072V32.6172H47.9181C48.0021 32.7492 48.0801 32.9292 48.1521 33.1572C48.2241 33.3732 48.2601 33.6012 48.2601 33.8412C48.2601 34.3212 48.1581 34.6632 47.9541 34.8672C47.7501 35.0592 47.4801 35.1552 47.1441 35.1552H42.3201ZM53.0246 35.0292C52.8926 35.0652 52.6826 35.1012 52.3946 35.1372C52.1186 35.1732 51.8426 35.1912 51.5666 35.1912C51.2906 35.1912 51.0446 35.1672 50.8286 35.1192C50.6246 35.0832 50.4506 35.0112 50.3066 34.9032C50.1626 34.7952 50.0546 34.6452 49.9826 34.4532C49.9106 34.2612 49.8746 34.0092 49.8746 33.6972V24.1932C50.0066 24.1692 50.2166 24.1392 50.5046 24.1032C50.7926 24.0552 51.0686 24.0312 51.3326 24.0312C51.6086 24.0312 51.8486 24.0552 52.0526 24.1032C52.2686 24.1392 52.4486 24.2112 52.5926 24.3192C52.7366 24.4272 52.8446 24.5772 52.9166 24.7692C52.9886 24.9612 53.0246 25.2132 53.0246 25.5252V35.0292ZM58.491 31.5732V35.0292C58.359 35.0652 58.149 35.1012 57.861 35.1372C57.585 35.1732 57.309 35.1912 57.033 35.1912C56.757 35.1912 56.511 35.1672 56.295 35.1192C56.091 35.0832 55.917 35.0112 55.773 34.9032C55.641 34.7952 55.539 34.6452 55.467 34.4532C55.395 34.2612 55.359 34.0092 55.359 33.6972V25.2192C55.359 24.9672 55.425 24.7752 55.557 24.6432C55.701 24.4992 55.893 24.3852 56.133 24.3012C56.541 24.1572 57.015 24.0552 57.555 23.9952C58.095 23.9232 58.671 23.8872 59.283 23.8872C60.939 23.8872 62.187 24.2352 63.027 24.9312C63.867 25.6272 64.287 26.5692 64.287 27.7572C64.287 28.5012 64.095 29.1372 63.711 29.6652C63.327 30.1932 62.871 30.6012 62.343 30.8892C62.775 31.4772 63.201 32.0292 63.621 32.5452C64.041 33.0612 64.371 33.5292 64.611 33.9492C64.491 34.3692 64.269 34.6932 63.945 34.9212C63.633 35.1372 63.279 35.2452 62.883 35.2452C62.619 35.2452 62.391 35.2152 62.199 35.1552C62.007 35.0952 61.839 35.0112 61.695 34.9032C61.551 34.7952 61.419 34.6632 61.299 34.5072C61.179 34.3512 61.065 34.1832 60.957 34.0032L59.445 31.5732H58.491ZM59.625 29.1792C60.081 29.1792 60.441 29.0652 60.705 28.8372C60.969 28.5972 61.101 28.2492 61.101 27.7932C61.101 27.3372 60.951 26.9952 60.651 26.7672C60.363 26.5272 59.901 26.4072 59.265 26.4072C59.085 26.4072 58.941 26.4132 58.833 26.4252C58.725 26.4372 58.605 26.4552 58.473 26.4792V29.1792H59.625Z" fill="white"/>
<circle cx="94.7334" cy="31.306" r="24" fill="url(#paint5_radial)"/>
<path d="M70.7751 30.144C71.8055 12.6523 86.8351 7.35101 95.3769 7.83386C103.919 8.31671 115.052 13.0509 117.609 30.1441C120.236 47.716 104.845 54.135 94.8948 54.135C84.9448 54.135 69.8365 46.0784 70.7751 30.144Z" fill="url(#paint6_linear)"/>
<path d="M70.7751 29.5073C71.8055 12.0889 86.8351 6.85483 95.3769 7.33566C103.919 7.81649 115.052 12.4858 117.609 29.5073C120.236 47.0057 104.845 53.3978 94.8948 53.3978C84.9448 53.3978 69.8365 45.3749 70.7751 29.5073Z" fill="white"/>
<path d="M74.1627 31.5515C74.8948 17.2012 88.9204 10.1282 95.5822 10.5631C102.244 10.9979 116.819 24.4002 113.299 36.7322C109.237 50.9604 98.0183 51.3764 90.2583 51.3764C82.4983 51.3764 73.4306 45.9017 74.1627 31.5515Z" fill="url(#paint7_radial)"/>
<g filter="url(#filter0_d)">
<path d="M74.9117 30.472C75.7178 16.9984 87.5667 9.97587 94.9016 10.3842C102.236 10.7924 112.535 16.0185 114.73 30.472C116.826 44.2722 104.01 50.3965 95.4658 50.3965C86.9218 50.3965 74.1057 43.9455 74.9117 30.472Z" fill="url(#paint8_linear)"/>
</g>
<path d="M76.4004 30.3741C77.1502 17.5931 88.1725 10.9315 94.9956 11.3188C101.819 11.7061 111.399 16.6636 113.441 30.3741C115.39 43.4649 103.468 49.2745 95.5205 49.2745C87.5725 49.2745 75.6506 43.1551 76.4004 30.3741Z" fill="url(#paint9_linear)"/>
<path d="M77.3392 26.9955C78.0883 16.4382 88.2231 13.6255 95.0401 13.9454C101.857 14.2653 112.189 20.0233 113.403 32.7475C114.446 43.6691 102.562 45.9074 94.6214 45.9074C86.6806 45.9074 76.5901 37.5527 77.3392 26.9955Z" fill="url(#paint10_radial)"/>
<path d="M88.7059 33.997C89.1911 33.997 89.5833 33.9258 89.5833 34.4102V38.7973H93.093V24.7585C93.093 24.3716 93.3475 24.0294 93.7186 23.918L96.7659 23.0037H89.5833V27.3908C89.5833 27.8752 89.1911 27.8122 88.7059 27.8122C88.2207 27.8122 87.8285 27.8752 87.8285 27.3908V22.1263C87.8285 21.6419 88.2207 21.2488 88.7059 21.2488H102.745C102.776 21.2488 102.804 21.262 102.835 21.2655C102.876 21.2699 102.914 21.2769 102.953 21.2866C103.046 21.3102 103.129 21.3462 103.207 21.3953C103.226 21.4076 103.25 21.4085 103.268 21.4225C103.276 21.4278 103.278 21.4375 103.285 21.4428C103.381 21.5182 103.461 21.6103 103.519 21.72C103.531 21.7437 103.533 21.7692 103.543 21.7937C103.571 21.8604 103.602 21.9253 103.612 21.999C103.617 22.0254 103.609 22.0499 103.61 22.0754C103.611 22.0929 103.622 22.1087 103.622 22.1262V39.6747C103.622 40.0932 103.326 40.453 102.917 40.5346L94.1424 42.2895C94.0854 42.3018 94.0275 42.307 93.9704 42.307C93.7695 42.307 93.5721 42.2377 93.4142 42.1078C93.2115 41.9411 93.093 41.6928 93.093 41.4296V40.5522H88.7059C88.2207 40.5522 87.8285 40.1591 87.8285 39.6748V34.4102C87.8285 33.9258 88.2207 33.997 88.7059 33.997Z" fill="url(#paint11_linear)"/>
<path d="M88.7064 33.053C89.1916 33.053 89.5838 32.9818 89.5838 33.4662V37.8533H93.0935V23.8145C93.0935 23.4275 93.348 23.0853 93.7191 22.9739L96.7664 22.0597H89.5838V26.4468C89.5838 26.9311 89.1916 26.8681 88.7064 26.8681C88.2212 26.8681 87.829 26.9311 87.829 26.4468V21.1823C87.829 20.6979 88.2212 20.3048 88.7064 20.3048H102.745C102.777 20.3048 102.805 20.318 102.836 20.3215C102.877 20.3259 102.914 20.3329 102.954 20.3425C103.046 20.3662 103.129 20.4022 103.208 20.4513C103.227 20.4636 103.251 20.4645 103.269 20.4785C103.276 20.4838 103.279 20.4935 103.286 20.4987C103.381 20.5742 103.461 20.6663 103.519 20.776C103.531 20.7997 103.534 20.8251 103.544 20.8497C103.572 20.9164 103.602 20.9813 103.613 21.055C103.617 21.0813 103.609 21.1059 103.61 21.1313C103.611 21.1489 103.623 21.1647 103.623 21.1822V38.7307C103.623 39.1492 103.327 39.509 102.917 39.5906L94.1429 41.3454C94.0858 41.3577 94.0279 41.363 93.9709 41.363C93.77 41.363 93.5726 41.2937 93.4147 41.1638C93.212 40.9971 93.0935 40.7488 93.0935 40.4855V39.6081H88.7064C88.2212 39.6081 87.829 39.2151 87.829 38.7307V33.4662C87.829 32.9818 88.2212 33.053 88.7064 33.053Z" fill="white"/>
<path d="M89.8572 29.1985V32.1738C89.8578 32.1984 89.8534 32.2229 89.8441 32.2457C89.8348 32.2686 89.8209 32.2893 89.8032 32.3068C89.7855 32.3242 89.7644 32.3378 89.7412 32.347C89.7179 32.3561 89.6931 32.3605 89.668 32.3599L86.5152 32.3737C86.2335 32.3749 86.0059 32.6035 86.0059 32.8852V34.4326C86.008 34.4706 85.9971 34.5082 85.9751 34.5394C85.9531 34.5707 85.9212 34.5939 85.8843 34.6054C85.8502 34.6189 85.8129 34.6223 85.7769 34.6152C85.7409 34.6081 85.7078 34.5908 85.6816 34.5655L81.8978 30.8204C81.8631 30.7846 81.8438 30.737 81.8438 30.6875C81.8438 30.638 81.8631 30.5904 81.8978 30.5545L85.6816 26.8188C85.7078 26.7935 85.7409 26.7763 85.7769 26.7692C85.8129 26.7621 85.8502 26.7655 85.8843 26.7789C85.9196 26.7927 85.9501 26.8165 85.9717 26.8472C85.9934 26.878 86.0053 26.9144 86.0059 26.9518V28.5009C86.0059 28.7834 86.2349 29.0124 86.5174 29.0124H89.668C89.6931 29.0118 89.7179 29.0162 89.7412 29.0254C89.7644 29.0345 89.7855 29.0482 89.8032 29.0656C89.8209 29.083 89.8348 29.1037 89.8441 29.1266C89.8534 29.1494 89.8578 29.1739 89.8572 29.1985Z" fill="url(#paint12_linear)"/>
<path d="M90.3401 28.6215V31.5968C90.3407 31.6214 90.3363 31.6459 90.327 31.6687C90.3177 31.6916 90.3038 31.7123 90.2861 31.7297C90.2684 31.7471 90.2473 31.7608 90.2241 31.77C90.2008 31.7791 90.176 31.7835 90.1509 31.7829L86.0059 31.7989V33.8555C86.008 33.8935 85.9971 33.9311 85.9751 33.9624C85.9531 33.9937 85.9212 34.0169 85.8843 34.0284C85.8502 34.0418 85.8129 34.0452 85.7769 34.0382C85.7409 34.0311 85.7078 34.0138 85.6816 33.9885L81.8978 30.2434C81.8631 30.2076 81.8438 30.16 81.8438 30.1105C81.8438 30.061 81.8631 30.0134 81.8978 29.9775L85.6816 26.2418C85.7078 26.2165 85.7409 26.1992 85.7769 26.1921C85.8129 26.1851 85.8502 26.1885 85.8843 26.2019C85.9196 26.2157 85.9501 26.2394 85.9717 26.2702C85.9934 26.301 86.0053 26.3374 86.0059 26.3748V28.4354H90.1509C90.176 28.4348 90.2008 28.4392 90.2241 28.4483C90.2473 28.4575 90.2684 28.4712 90.2861 28.4886C90.3038 28.506 90.3177 28.5267 90.327 28.5496C90.3363 28.5724 90.3407 28.5969 90.3401 28.6215Z" fill="white"/>
</g>
<defs>
<filter id="filter0_d" x="68.8755" y="5.36731" width="52.0828" height="52.0292" filterUnits="userSpaceOnUse" color-interpolation-filters="sRGB">
<feFlood flood-opacity="0" result="BackgroundImageFix"/>
<feColorMatrix in="SourceAlpha" type="matrix" values="0 0 0 0 0 0 0 0 0 0 0 0 0 0 0 0 0 0 127 0"/>
<feOffset dy="1"/>
<feGaussianBlur stdDeviation="3"/>
<feColorMatrix type="matrix" values="0 0 0 0 0 0 0 0 0 0 0 0 0 0 0 0 0 0 0.25 0"/>
<feBlend mode="normal" in2="BackgroundImageFix" result="effect1_dropShadow"/>
<feBlend mode="normal" in="SourceGraphic" in2="effect1_dropShadow" result="shape"/>
</filter>
<linearGradient id="paint0_linear" x1="54.5195" y1="13.1771" x2="54.5195" y2="51.0001" gradientUnits="userSpaceOnUse">
<stop stop-color="#A1D7EA"/>
<stop offset="1" stop-color="#858CDA"/>
</linearGradient>
<radialGradient id="paint1_radial" cx="0" cy="0" r="1" gradientUnits="userSpaceOnUse" gradientTransform="translate(51.677 41.0454) rotate(-180) scale(42.4229 17.9695)">
<stop offset="0.110044" stop-color="#A6A7F1"/>
<stop offset="1" stop-color="#EBE5FC" stop-opacity="0.44"/>
</radialGradient>
<linearGradient id="paint2_linear" x1="54.4296" y1="11.6118" x2="54.4296" y2="46.4991" gradientUnits="userSpaceOnUse">
<stop stop-color="#5496AE"/>
<stop offset="1" stop-color="#3D4493"/>
</linearGradient>
<linearGradient id="paint3_linear" x1="60.2366" y1="14.5858" x2="59.252" y2="45.6272" gradientUnits="userSpaceOnUse">
<stop offset="0.154696" stop-color="#64E0F1"/>
<stop offset="0.657459" stop-color="#3196D4"/>
</linearGradient>
<radialGradient id="paint4_radial" cx="0" cy="0" r="1" gradientUnits="userSpaceOnUse" gradientTransform="translate(61.438 22.0979) rotate(137.948) scale(29.7017 50.8956)">
<stop stop-color="#45D4E2"/>
<stop offset="0.674033" stop-color="#16B4E2"/>
</radialGradient>
<radialGradient id="paint5_radial" cx="0" cy="0" r="1" gradientUnits="userSpaceOnUse" gradientTransform="translate(94.7334 31.306) rotate(90) scale(24)">
<stop offset="0.819209" stop-opacity="0.75"/>
<stop offset="1" stop-opacity="0"/>
</radialGradient>
<linearGradient id="paint6_linear" x1="95.8648" y1="4.84933" x2="95.8648" y2="54.135" gradientUnits="userSpaceOnUse">
<stop stop-color="#A1D7EA"/>
<stop offset="1" stop-color="#858CDA"/>
</linearGradient>
<radialGradient id="paint7_radial" cx="0" cy="0" r="1" gradientUnits="userSpaceOnUse" gradientTransform="translate(93.9802 30.2487) rotate(124.551) scale(22.9342 21.5273)">
<stop offset="0.751236" stop-color="#A6A7F1"/>
<stop offset="1" stop-color="#EBE5FC" stop-opacity="0.44"/>
</radialGradient>
<linearGradient id="paint8_linear" x1="96.2299" y1="7.81445" x2="96.2299" y2="50.3965" gradientUnits="userSpaceOnUse">
<stop stop-color="#5496AE"/>
<stop offset="1" stop-color="#3D4493"/>
</linearGradient>
<linearGradient id="paint9_linear" x1="98.552" y1="11.3029" x2="94.8467" y2="49.2585" gradientUnits="userSpaceOnUse">
<stop offset="0.154696" stop-color="#64E0F1"/>
<stop offset="0.657459" stop-color="#3196D4"/>
</linearGradient>
<radialGradient id="paint10_radial" cx="0" cy="0" r="1" gradientUnits="userSpaceOnUse" gradientTransform="translate(99.4399 20.8891) rotate(110.934) scale(24.9005 28.6294)">
<stop stop-color="#45D4E2"/>
<stop offset="0.674033" stop-color="#16B4E2"/>
</radialGradient>
<linearGradient id="paint11_linear" x1="95.2079" y1="19.9059" x2="95.2079" y2="42.307" gradientUnits="userSpaceOnUse">
<stop stop-color="#5496AE"/>
<stop offset="1" stop-color="#3D4493"/>
</linearGradient>
<linearGradient id="paint12_linear" x1="86.113" y1="26.2647" x2="86.113" y2="34.6188" gradientUnits="userSpaceOnUse">
<stop stop-color="#5496AE"/>
<stop offset="1" stop-color="#3D4493" stop-opacity="0.72"/>
</linearGradient>
<clipPath id="clip0">
<rect x="0.75" width="117" height="59" fill="white"/>
</clipPath>
</defs>
</svg>
