<svg width="92" height="72" viewBox="0 0 92 72" fill="none" xmlns="http://www.w3.org/2000/svg">
<rect x="10.0427" y="12.132" width="86.1688" height="32.3177" rx="3.30113" transform="rotate(18 10.0427 12.132)" fill="url(#paint0_linear)"/>
<path d="M47.4402 53.2014C47.3367 53.1678 47.26 53.0867 47.2101 52.9583C47.1753 52.8187 47.1814 52.6764 47.2284 52.5313L48.0043 50.1377L43.1924 48.5742C43.0889 48.5406 43.0122 48.4595 42.9623 48.3311C42.9275 48.1915 42.9336 48.0492 42.9806 47.9041L43.693 45.7063C43.7635 45.4887 43.891 45.2896 44.0753 45.109L51.3416 38.0417C51.5664 37.8421 51.7978 37.781 52.0358 37.8584L54.3952 38.625C54.509 38.662 54.5857 38.743 54.6252 38.8681C54.6751 38.9965 54.6741 39.1405 54.6224 39.3001L51.907 47.6777L53.273 48.1216C53.3972 48.1619 53.4767 48.2519 53.5115 48.3915C53.551 48.5166 53.5473 48.6516 53.5002 48.7967L52.7597 51.0815C52.7127 51.2266 52.6341 51.3454 52.5241 51.4379C52.4187 51.5159 52.3091 51.5364 52.1953 51.4994L50.8138 51.0506L50.038 53.4442C49.9863 53.6037 49.9026 53.7209 49.7869 53.7955C49.6815 53.8735 49.5719 53.894 49.4581 53.857L47.4402 53.2014ZM46.6111 46.1254L49.1102 46.9374L50.6971 42.0414L46.6111 46.1254Z" fill="white"/>
<path d="M57.3268 56.6543C55.9035 56.1758 54.9886 55.2932 54.582 54.0067C54.1755 52.7201 54.2134 51.2091 54.6958 49.4738C54.929 48.6837 55.1467 47.9768 55.3489 47.353C55.5558 46.7147 55.8013 45.9927 56.0853 45.1871C56.4793 44.1125 56.9834 43.21 57.5976 42.4796C58.2269 41.738 58.9474 41.2265 59.7592 40.9451C60.5814 40.6671 61.4633 40.681 62.405 40.987C63.3467 41.293 64.0687 41.8002 64.5711 42.5086C65.0736 43.217 65.3568 44.0547 65.4209 45.0215C65.5 45.9772 65.3839 47.0058 65.0727 48.1073C64.9617 48.5202 64.737 49.2489 64.3984 50.2933C64.0693 51.3088 63.8309 52.009 63.6832 52.394C63.056 54.0822 62.2005 55.3276 61.1169 56.13C60.0333 56.9324 58.7699 57.1071 57.3268 56.6543ZM58.3918 53.3685C58.8782 53.5265 59.3109 53.4266 59.69 53.0687C60.0738 52.6964 60.4077 52.1074 60.6917 51.3017C60.8487 50.8877 61.0801 50.2093 61.3857 49.2663C61.6913 48.3234 61.8973 47.6527 62.0035 47.2543C62.2367 46.4642 62.3072 45.8057 62.215 45.2786C62.1274 44.7371 61.8405 44.3873 61.3541 44.2293C60.4228 43.9267 59.6562 44.6156 59.0543 46.2961C58.917 46.6844 58.6955 47.35 58.3899 48.2929C58.0843 49.2359 57.8684 49.9194 57.7424 50.3434C57.244 52.0575 57.4605 53.0659 58.3918 53.3685Z" fill="white"/>
<path d="M68.3078 52.6552C67.5778 52.418 67.0604 52.0191 66.7555 51.4585C66.4506 50.8979 66.3927 50.2527 66.5816 49.5229C66.6761 49.158 66.7465 48.9039 66.7929 48.7608C66.8431 48.6056 66.9563 48.293 67.1323 47.8227C67.4003 47.1053 67.8185 46.6017 68.3871 46.3117C68.9556 46.0216 69.621 46.0005 70.3832 46.2481C71.1454 46.4958 71.6716 46.9041 71.9619 47.4732C72.2522 48.0422 72.3009 48.6976 72.1081 49.4394C71.975 49.9236 71.8833 50.2433 71.833 50.3984C71.7867 50.5416 71.6948 50.7886 71.5574 51.1396C71.2825 51.8415 70.852 52.328 70.2659 52.5991C69.6905 52.8737 69.0378 52.8924 68.3078 52.6552ZM65.0241 58.4521C64.9167 58.4173 64.8352 58.3578 64.7793 58.2737C64.7381 58.1812 64.7349 58.0812 64.7697 57.9739C64.7929 57.9023 64.8356 57.8436 64.8979 57.7979L76.6207 48.7496C76.7453 48.6581 76.8528 48.6008 76.9434 48.5775C77.0379 48.5422 77.1549 48.5473 77.2945 48.5926L78.5022 48.985C78.6095 49.0199 78.6838 49.0836 78.725 49.1761C78.7808 49.2602 78.7914 49.3559 78.7566 49.4633C78.7334 49.5349 78.6907 49.5936 78.6284 49.6393L66.9055 58.6876C66.781 58.779 66.6715 58.8424 66.577 58.8776C66.4864 58.9009 66.3714 58.8899 66.2318 58.8445L65.0241 58.4521ZM68.8238 51.0624C69.0599 51.1391 69.2568 51.1174 69.4144 50.9972C69.5866 50.8685 69.7167 50.6866 69.8047 50.4515C69.9422 50.1005 70.034 49.8534 70.0804 49.7103C70.1307 49.5551 70.1992 49.3071 70.2859 48.966C70.3563 48.712 70.3576 48.4882 70.2898 48.2947C70.2365 48.0928 70.0918 47.9535 69.8556 47.8767C69.4262 47.7372 69.0973 47.9468 68.8689 48.5056C68.804 48.6691 68.7194 48.912 68.6151 49.2341C68.5107 49.5563 68.4349 49.8086 68.3877 49.991C68.328 50.2486 68.3267 50.4723 68.3838 50.6623C68.4517 50.8558 68.5983 50.9892 68.8238 51.0624ZM73.1753 61.1995C72.4453 60.9623 71.9244 60.5557 71.6127 59.9797C71.3117 59.4072 71.2556 58.756 71.4446 58.0261C71.5391 57.6612 71.6095 57.4072 71.6559 57.264C71.7022 57.1208 71.8135 56.8141 71.9895 56.3438C72.2721 55.618 72.6976 55.1102 73.2661 54.8201C73.8347 54.5301 74.5001 54.509 75.2622 54.7566C76.0244 55.0043 76.5507 55.4126 76.8409 55.9817C77.1312 56.5507 77.1727 57.2103 76.9652 57.9606C76.8321 58.4448 76.7424 58.7585 76.696 58.9017C76.6496 59.0448 76.5577 59.2919 76.4203 59.6429C76.1455 60.3448 75.7184 60.839 75.1392 61.1255C74.5599 61.412 73.9053 61.4367 73.1753 61.1995ZM73.697 59.5888C73.9225 59.662 74.114 59.6386 74.2716 59.5183C74.4438 59.3897 74.5812 59.2035 74.6838 58.96C74.8212 58.609 74.9131 58.3619 74.9595 58.2187C75.0097 58.0636 75.0782 57.8156 75.165 57.4745C75.2247 57.217 75.2206 56.9915 75.1527 56.798C75.0956 56.608 74.9543 56.4764 74.7289 56.4031C74.4927 56.3264 74.2886 56.3524 74.1164 56.481C73.9588 56.6013 73.836 56.7789 73.7479 57.0141C73.6831 57.1776 73.5985 57.4205 73.4941 57.7426C73.3898 58.0648 73.314 58.3171 73.2668 58.4995C73.1963 58.7536 73.1877 58.9816 73.241 59.1835C73.3088 59.377 73.4608 59.5121 73.697 59.5888Z" fill="white"/>
<path d="M12.5444 41.6038C11.4589 41.2301 10.6974 40.6729 10.2599 39.9322C9.82994 39.1942 9.7966 38.2978 10.1598 37.2429L11.7707 32.5647C11.7996 32.4806 11.85 32.421 11.922 32.386C11.9965 32.3432 12.0759 32.3363 12.16 32.3653L13.7308 32.9062C13.8149 32.9351 13.8732 32.9894 13.9056 33.069C13.9484 33.1435 13.9552 33.2229 13.9263 33.307L12.3234 37.9622C12.1602 38.4361 12.1486 38.8298 12.2887 39.1431C12.4364 39.459 12.7205 39.6893 13.1409 39.8341C13.5614 39.9789 13.9232 39.9709 14.2265 39.8103C14.54 39.6446 14.7771 39.3287 14.9376 38.8624L16.5406 34.2071C16.5695 34.123 16.62 34.0635 16.6919 34.0284C16.7741 33.9883 16.8573 33.9827 16.9413 34.0117L18.5007 34.5486C18.5848 34.5776 18.6431 34.6318 18.6755 34.7114C18.7183 34.786 18.7252 34.8653 18.6962 34.9494L17.0854 39.6276C16.7221 40.6824 16.144 41.3683 15.3508 41.6852C14.5577 42.0021 13.6222 41.975 12.5444 41.6038ZM13.5957 32.2184C13.5193 32.1921 13.466 32.1481 13.4359 32.0864C13.4085 32.0171 13.4079 31.9442 13.4343 31.8678L13.8093 30.7785C13.8356 30.7021 13.8796 30.6488 13.9413 30.6188C14.0056 30.581 14.0759 30.5753 14.1524 30.6017L15.2531 30.9807C15.3296 31.007 15.3815 31.0548 15.409 31.1241C15.4467 31.1884 15.4524 31.2588 15.4261 31.3352L15.051 32.4245C15.0247 32.5009 14.9755 32.5567 14.9036 32.5918C14.8419 32.6219 14.7729 32.6237 14.6965 32.5974L13.5957 32.2184ZM16.359 33.1699C16.2826 33.1436 16.2255 33.0983 16.1878 33.034C16.1604 32.9647 16.1598 32.8918 16.1861 32.8154L16.5612 31.7261C16.5875 31.6496 16.6315 31.5964 16.6932 31.5663C16.7651 31.5312 16.8393 31.5268 16.9157 31.5532L18.005 31.9282C18.0815 31.9545 18.1334 32.0024 18.1608 32.0717C18.1985 32.1359 18.2042 32.2063 18.1779 32.2828L17.8029 33.372C17.7765 33.4485 17.7274 33.5042 17.6555 33.5393C17.5938 33.5694 17.5248 33.5713 17.4483 33.545L16.359 33.1699Z" fill="white"/>
<path d="M17.8071 43.2877C17.7307 43.2614 17.6711 43.2109 17.6284 43.1364C17.5959 43.0568 17.5929 42.9788 17.6192 42.9023L20.1815 35.4608C20.2105 35.3767 20.2609 35.3171 20.3328 35.2821C20.4074 35.2393 20.4867 35.2324 20.5708 35.2614L24.1139 36.4814C25.0847 36.8156 25.7386 37.2631 26.0757 37.8238C26.4127 38.3845 26.4549 39.0317 26.2022 39.7656C26.0759 40.1325 25.8673 40.4155 25.5764 40.6146C25.2932 40.8163 25.012 40.9376 24.733 40.9783C24.999 41.2238 25.1838 41.5439 25.2872 41.9387C25.3934 42.3258 25.378 42.7181 25.2411 43.1156C24.9753 43.8876 24.5126 44.3995 23.853 44.6512C23.2011 44.9056 22.4012 44.8696 21.4534 44.5432L17.8071 43.2877ZM22.7794 39.5746C23.0623 39.672 23.3064 39.6705 23.512 39.5703C23.7175 39.47 23.8624 39.2976 23.9466 39.053C24.0282 38.816 24.0176 38.5986 23.9147 38.4007C23.8221 38.1978 23.6305 38.0464 23.3401 37.9464L21.9068 37.4529L21.3462 39.0811L22.7794 39.5746ZM21.7456 42.9123C22.0437 43.015 22.302 43.0099 22.5204 42.897C22.7491 42.7791 22.9069 42.594 22.9938 42.3417C23.0832 42.0818 23.0729 41.8388 22.9626 41.6128C22.855 41.3791 22.6559 41.2122 22.3654 41.1122L20.829 40.5831L20.2091 42.3833L21.7456 42.9123Z" fill="white"/>
<path d="M25.9141 46.0791C25.8376 46.0528 25.778 46.0024 25.7353 45.9278C25.7029 45.8482 25.6998 45.7702 25.7261 45.6938L28.2884 38.2522C28.3174 38.1682 28.3678 38.1086 28.4398 38.0735C28.5143 38.0308 28.5936 38.0239 28.6777 38.0528L34.0898 39.9163C34.1738 39.9453 34.2321 39.9996 34.2646 40.0791C34.3073 40.1537 34.3142 40.233 34.2852 40.3171L33.8944 41.4523C33.8654 41.5363 33.8111 41.5946 33.7316 41.6271C33.6596 41.6621 33.5816 41.6652 33.4975 41.6363L29.8742 40.3887L29.3728 41.8449L32.7439 43.0056C32.828 43.0345 32.8862 43.0888 32.9187 43.1684C32.9614 43.243 32.9683 43.3223 32.9393 43.4064L32.5801 44.4498C32.5511 44.5339 32.4955 44.596 32.4133 44.6361C32.3414 44.6711 32.2634 44.6742 32.1793 44.6453L28.8082 43.4845L28.295 44.9751L32.01 46.2543C32.0941 46.2832 32.1524 46.3375 32.1848 46.4171C32.2276 46.4917 32.2344 46.571 32.2055 46.6551L31.8146 47.7902C31.7857 47.8743 31.7314 47.9326 31.6518 47.965C31.5799 48.0001 31.5019 48.0032 31.4178 47.9742L25.9141 46.0791Z" fill="white"/>
<path d="M33.2707 48.6122C33.1943 48.5859 33.1347 48.5355 33.092 48.4609C33.0595 48.3813 33.0565 48.3033 33.0828 48.2269L35.6451 40.7854C35.6741 40.7013 35.7245 40.6417 35.7965 40.6066C35.871 40.5639 35.9503 40.557 36.0344 40.5859L39.1876 41.6717C40.1966 42.0191 40.905 42.5195 41.3128 43.1729C41.7281 43.829 41.7924 44.5736 41.5055 45.4068C41.3212 45.9419 41.0385 46.3533 40.6573 46.641C40.2837 46.9314 39.8435 47.1047 39.3367 47.1611L39.9213 50.4918C39.9285 50.5456 39.9255 50.5915 39.9123 50.6298C39.8912 50.6909 39.8486 50.7404 39.7843 50.7781C39.7226 50.8081 39.6574 50.8113 39.5886 50.7876L37.9719 50.231C37.7502 50.1546 37.629 49.9975 37.6084 49.7595L37.2038 46.8371L36.1031 46.458L35.2384 48.9691C35.2095 49.0532 35.1552 49.1115 35.0756 49.1439C35.0037 49.179 34.9257 49.1821 34.8416 49.1531L33.2707 48.6122ZM37.9562 45.2108C38.2849 45.3239 38.5609 45.3292 38.7844 45.2266C39.0181 45.119 39.185 44.9199 39.285 44.6294C39.385 44.339 39.3774 44.0755 39.2621 43.8392C39.1545 43.6055 38.9363 43.432 38.6076 43.3188L37.3349 42.8806L36.6834 44.7725L37.9562 45.2108Z" fill="white"/>
<path d="M15.8679 29.2031C15.2714 28.9977 14.7937 28.7369 14.4348 28.4207C14.0759 28.1045 13.8376 27.7679 13.7197 27.411C13.6019 27.054 13.594 26.7073 13.6961 26.371C13.7151 26.3157 13.7495 26.2759 13.7991 26.2517C13.8548 26.2296 13.9104 26.2281 13.9657 26.2472L15.1925 26.6696C15.2663 26.695 15.3205 26.7274 15.3551 26.7668C15.3958 26.8084 15.4333 26.8694 15.4674 26.95C15.4966 27.1251 15.5772 27.2904 15.7094 27.446C15.8498 27.5975 16.0614 27.722 16.3443 27.8194C16.6764 27.9338 16.9485 27.9724 17.1608 27.9354C17.3751 27.8923 17.513 27.7816 17.5744 27.6032C17.6188 27.4741 17.6087 27.3537 17.544 27.242C17.4814 27.1241 17.3592 26.9995 17.1775 26.8681C16.9978 26.7306 16.7311 26.5562 16.3774 26.345C15.6841 25.9412 15.2049 25.5251 14.9396 25.0967C14.6744 24.6684 14.6382 24.1744 14.8308 23.6148C14.9621 23.2335 15.1831 22.9313 15.4939 22.7081C15.8128 22.4809 16.1946 22.3509 16.6392 22.3183C17.09 22.2878 17.5736 22.3614 18.0902 22.5393C18.6313 22.7256 19.0659 22.9819 19.3938 23.308C19.73 23.6302 19.954 23.9687 20.0656 24.3235C20.1856 24.6744 20.2051 24.9872 20.1243 25.262C20.1052 25.3174 20.0698 25.3602 20.0181 25.3906C19.9685 25.4147 19.916 25.4173 19.8607 25.3983L18.5693 24.9536C18.434 24.907 18.3485 24.8157 18.3128 24.6796C18.3204 24.5377 18.2621 24.3973 18.138 24.2582C18.016 24.1131 17.8413 24.0013 17.6138 23.923C17.3555 23.834 17.1397 23.8113 16.9665 23.8549C16.7933 23.8984 16.676 24.0094 16.6146 24.1877C16.5532 24.366 16.5968 24.5392 16.7452 24.7073C16.8959 24.8692 17.2053 25.0893 17.6736 25.3674C18.2156 25.671 18.6282 25.961 18.9114 26.2373C19.2028 26.5096 19.3851 26.7994 19.4582 27.1066C19.5395 27.4097 19.5145 27.7519 19.3833 28.1332C19.2393 28.5514 18.9944 28.8729 18.6487 29.0978C18.303 29.3227 17.8894 29.4451 17.4079 29.4651C16.9285 29.4788 16.4152 29.3915 15.8679 29.2031Z" fill="white"/>
<path d="M19.8294 30.4639C19.7679 30.4427 19.7199 30.4022 19.6856 30.3422C19.6595 30.2782 19.657 30.2154 19.6782 30.1539L21.7395 24.1673C21.7628 24.0997 21.8034 24.0517 21.8613 24.0235C21.9212 23.9891 21.9851 23.9836 22.0527 24.0069L24.6632 24.9058C25.4626 25.181 26.0274 25.5784 26.3575 26.0979C26.6877 26.6174 26.7321 27.2277 26.4907 27.9288C26.2493 28.6298 25.8407 29.0773 25.2649 29.2711C24.6913 29.4588 24.0048 29.415 23.2053 29.1397L22.1537 28.7776L21.4677 30.7701C21.4465 30.8316 21.4059 30.8795 21.3459 30.9139C21.2881 30.9421 21.2253 30.9446 21.1577 30.9213L19.8294 30.4639ZM23.6134 27.8048C23.8655 27.8916 24.0845 27.8948 24.2704 27.8143C24.4646 27.7299 24.6062 27.5585 24.6951 27.3002C24.7777 27.0604 24.7767 26.8434 24.6923 26.6492C24.6139 26.4571 24.4364 26.3135 24.1597 26.2182L23.1266 25.8624L22.5803 27.449L23.6134 27.8048Z" fill="white"/>
<path d="M25.0493 32.2613C25.0001 32.2443 24.9603 32.21 24.9299 32.1583C24.9079 32.1025 24.9053 32.0501 24.9222 32.0009C24.9349 31.964 24.9475 31.9373 24.9601 31.921L29.1453 26.7483C29.2682 26.5911 29.4219 26.5443 29.6063 26.6078L31.0453 27.1033C31.2298 27.1668 31.3221 27.2983 31.3222 27.4979L31.4355 34.1507C31.4353 34.1713 31.4289 34.2 31.4162 34.2369C31.3992 34.2861 31.3618 34.3248 31.304 34.353C31.2544 34.3772 31.205 34.3808 31.1558 34.3639L29.9566 33.951C29.809 33.9002 29.7278 33.7965 29.7128 33.6401L29.6889 32.631L27.2721 31.7988L26.6319 32.5792C26.5238 32.6933 26.396 32.725 26.2484 32.6742L25.0493 32.2613ZM28.1359 30.5486L29.7779 31.1139L29.7668 28.479L28.1359 30.5486Z" fill="white"/>
<path d="M32.2786 34.7505C32.2171 34.7294 32.1692 34.6888 32.1348 34.6288C32.1087 34.5648 32.1062 34.502 32.1274 34.4405L34.1887 28.4539C34.212 28.3863 34.2526 28.3384 34.3105 28.3101C34.3705 28.2758 34.4343 28.2702 34.5019 28.2935L37.0386 29.167C37.8504 29.4465 38.4202 29.849 38.7483 30.3747C39.0824 30.9025 39.1341 31.5015 38.9033 32.1718C38.7551 32.6023 38.5276 32.9333 38.2209 33.1647C37.9204 33.3983 37.5663 33.5377 37.1586 33.5831L37.6289 36.2626C37.6346 36.3059 37.6322 36.3429 37.6216 36.3736C37.6047 36.4228 37.5703 36.4626 37.5186 36.4929C37.469 36.5171 37.4165 36.5197 37.3612 36.5006L36.0606 36.0528C35.8822 35.9914 35.7848 35.8649 35.7681 35.6735L35.4427 33.3224L34.5572 33.0175L33.8616 35.0376C33.8383 35.1053 33.7946 35.1522 33.7306 35.1783C33.6727 35.2065 33.61 35.209 33.5423 35.1857L32.2786 34.7505ZM36.048 32.0141C36.3124 32.1052 36.5345 32.1094 36.7142 32.0268C36.9023 31.9403 37.0365 31.7801 37.117 31.5464C37.1974 31.3128 37.1913 31.1008 37.0986 30.9107C37.012 30.7227 36.8365 30.5831 36.572 30.4921L35.5481 30.1395L35.0241 31.6615L36.048 32.0141Z" fill="white"/>
<path d="M38.6924 36.959C38.6309 36.9378 38.583 36.8972 38.5486 36.8372C38.5225 36.7732 38.52 36.7105 38.5412 36.649L40.6025 30.6624C40.6258 30.5947 40.6664 30.5468 40.7243 30.5186C40.7843 30.4842 40.8481 30.4787 40.9157 30.502L45.2696 32.0011C45.3372 32.0244 45.3841 32.0681 45.4102 32.1321C45.4446 32.1921 45.4501 32.2559 45.4269 32.3235L45.1124 33.2367C45.0891 33.3044 45.0455 33.3513 44.9814 33.3774C44.9236 33.4056 44.8608 33.4081 44.7932 33.3848L41.8783 32.3811L41.4749 33.5526L44.1869 34.4864C44.2545 34.5097 44.3014 34.5533 44.3275 34.6173C44.3619 34.6773 44.3674 34.7411 44.3441 34.8088L44.0551 35.6482C44.0318 35.7158 43.9871 35.7658 43.9209 35.7981C43.8631 35.8263 43.8003 35.8287 43.7327 35.8055L41.0207 34.8717L40.6078 36.0708L43.5965 37.0999C43.6641 37.1232 43.711 37.1669 43.7371 37.2309C43.7715 37.2909 43.777 37.3547 43.7537 37.4223L43.4393 38.3355C43.416 38.4032 43.3724 38.45 43.3083 38.4762C43.2505 38.5044 43.1877 38.5068 43.1201 38.4836L38.6924 36.959Z" fill="white"/>
<g opacity="0.5">
<path d="M78.4233 39.4236C77.5622 41.7305 67.8632 42.1892 59.0117 38.6973C50.1602 35.2054 44.9025 29.9789 45.7635 27.672C46.6246 25.365 53.3462 27.4219 63.3298 31.1483C73.3135 34.8748 79.2844 37.1166 78.4233 39.4236Z" fill="url(#paint1_linear)"/>
<path d="M81.0942 40.4203C80.2331 42.7272 70.5341 43.1859 61.6826 39.6939C52.8312 36.202 47.5734 30.9756 48.4345 28.6686C49.2956 26.3617 56.0171 28.4186 66.0008 32.145C75.9844 35.8714 81.9553 38.1133 81.0942 40.4203Z" fill="url(#paint2_linear)"/>
</g>
<mask id="mask0" mask-type="alpha" maskUnits="userSpaceOnUse" x="47" y="6" width="38" height="32">
<path d="M59.9243 8.55183C55.8362 12.1169 51.5909 17.9113 50.1736 18.8671C50.2291 19.6656 50.3639 21.6533 50.4593 23.2162C50.5786 25.1698 56.1864 26.6265 57.234 27.2297C58.072 27.7122 62.3645 30.9123 64.4059 32.4521L69.8996 35.3511C72.2802 35.6033 77.4261 35.1908 78.965 31.5227C80.5038 27.8546 79.2414 19.2267 78.3905 15.4444C75.8503 17.3246 69.5075 22.3078 64.6761 26.6136C64.1595 23.4511 60.7187 10.9696 59.9243 8.55183Z" fill="#FD897C"/>
</mask>
<g mask="url(#mask0)">
<path d="M59.9243 8.55183C55.8362 12.1169 51.5909 17.9113 50.1736 18.8671C50.2291 19.6656 50.3639 21.6533 50.4593 23.2162C50.5786 25.1698 56.1864 26.6265 57.234 27.2297C58.072 27.7122 62.3645 30.9123 64.4059 32.4521L69.8996 35.3511C72.2802 35.6033 77.4261 35.1908 78.965 31.5227C80.5038 27.8546 79.2414 19.2267 78.3905 15.4444C75.8503 17.3246 69.5075 22.3078 64.6761 26.6136C64.1595 23.4511 60.7187 10.9696 59.9243 8.55183Z" fill="#FD897C"/>
<path d="M59.7031 9.19804C55.6149 12.7631 50.9449 18.2058 49.5276 19.1617C49.5831 19.9602 49.7179 21.9478 49.8133 23.5107C49.9326 25.4644 55.5404 26.9211 56.588 27.5243C57.4261 28.0068 61.7185 31.2069 63.7599 32.7467L69.2536 35.6457C71.6342 35.8979 77.8553 35.7466 79.3941 32.0785C80.833 28.6488 79.1575 21.0404 78.2382 16.9744C78.1536 16.6004 77.7139 16.4352 77.4036 16.6605C74.6388 18.6683 69.5184 22.2397 65.0673 26.2066C64.5508 23.0441 60.4975 11.6158 59.7031 9.19804Z" fill="url(#paint3_linear)"/>
<path d="M56.7827 11.9315C53.6049 15.0673 50.6128 18.4297 49.5276 19.1616C49.5831 19.9601 49.7179 21.9477 49.8133 23.5106C49.9326 25.4643 55.5404 26.921 56.588 27.5242C57.4261 28.0067 61.7185 31.2068 63.7599 32.7466L69.2536 35.6456C71.6342 35.8978 77.8553 35.7465 79.3941 32.0784C80.0267 30.5706 80.0573 28.2552 79.8149 25.7882C79.365 21.2089 73.8292 19.1598 70.1913 21.9772C68.4954 23.2906 66.7344 24.7208 65.0673 26.2065C64.6959 23.9322 62.4954 17.3833 60.9931 12.9848C60.3794 11.1879 58.1342 10.5978 56.7827 11.9315Z" fill="url(#paint4_linear)"/>
<circle cx="60.3501" cy="8.07196" r="2.0207" transform="rotate(20.4683 60.3501 8.07196)" fill="#CF3115"/>
<circle cx="78.6803" cy="15.4491" r="2.0207" transform="rotate(20.4683 78.6803 15.4491)" fill="#CF3115"/>
<path d="M55.3953 12.7161C51.4855 17.087 50.9451 18.2054 49.5279 19.1612C49.5833 19.9597 49.7181 21.9474 49.8135 23.5103C49.9328 25.4639 55.5406 26.9207 56.5882 27.5238C57.4263 28.0063 61.7187 31.2065 63.7602 32.7462L69.2539 35.6452C71.6345 35.8975 76.2324 32.4711 76.2324 32.4711C76.2324 32.4711 74.0485 23.0839 73.1976 19.3016C70.6707 21.2955 67.245 25.4983 62.4136 29.804C61.8971 26.6415 56.1897 15.1338 55.3953 12.7161Z" fill="url(#paint5_linear)"/>
</g>
<mask id="mask1" mask-type="alpha" maskUnits="userSpaceOnUse" x="41" y="3" width="48" height="42">
<path d="M46.4429 28.2925C46.4429 28.2925 49.3264 13.6859 51.014 5.81686C51.5057 7.90949 54.0059 15.4185 55.0639 22.8134C55.667 21.7658 65.9584 13.5161 70.141 10.8349C71.0388 13.8852 71.2474 24.5408 71.2395 29.4874L71.2537 29.478C72.7767 28.4697 78.3146 24.8036 87.8781 19.5766C86.2101 24.0449 80.3327 33.7299 77.1159 39.3172C73.3949 39.6252 64.5378 39.7132 58.8778 37.6006C53.2178 35.488 48.2296 30.515 46.4429 28.2925Z" fill="#FFE29D"/>
</mask>
<g mask="url(#mask1)">
<rect x="47.5628" y="-0.325729" width="47.5585" height="32.7928" transform="rotate(20.4683 47.5628 -0.325729)" fill="#FFE29D"/>
<path d="M45.2373 28.0545L45.1264 28.6162L45.4852 29.0625C47.338 31.3673 52.4946 36.5297 58.4481 38.7519C61.4479 39.8716 65.2199 40.3871 68.6502 40.5933C72.098 40.8005 75.3012 40.7005 77.2173 40.5418L77.8594 40.4887L78.1809 39.9303C78.7712 38.905 79.4583 37.7296 80.1952 36.4688C81.4455 34.33 82.8393 31.9456 84.1475 29.6322C86.2193 25.9684 88.1558 22.3465 89.0294 20.0063L90.1828 16.9165L87.2888 18.4983C80.0612 22.4486 75.1189 25.5136 72.4588 27.2233C72.4373 24.9262 72.3781 22.0981 72.2575 19.3953C72.1753 17.5524 72.0642 15.7567 71.9156 14.2222C71.7697 12.7144 71.5804 11.3732 71.3198 10.4879L70.8572 8.91608L69.4778 9.80034C67.3288 11.178 63.6677 13.9453 60.494 16.4759C58.9009 17.7463 57.4139 18.9702 56.2829 19.9467C56.15 20.0614 56.0215 20.1731 55.8979 20.2815C55.0126 15.363 53.6423 10.5976 52.8248 7.75431C52.5353 6.74779 52.3152 5.98212 52.2103 5.53577L49.8125 5.55918C48.9668 9.5022 47.8227 15.128 46.8908 19.7634C46.4247 22.0821 46.0114 24.1547 45.7146 25.6477C45.5661 26.3942 45.4469 26.9958 45.3647 27.4108L45.2702 27.8882L45.2457 28.0122L45.2394 28.0438L45.2379 28.0518L45.2375 28.0538L45.2374 28.0544C45.2373 28.0545 45.2373 28.0545 46.4429 28.2925L45.2373 28.0545Z" fill="#FFE29D" stroke="#FFE29D" stroke-width="2.45772"/>
<path d="M46.443 28.2924C46.443 28.2924 48.7145 14.5757 51.0141 5.81678C51.5058 7.90941 53.1733 16.3691 54.2313 23.764C54.8345 22.7164 61.7002 16.4872 69.1743 12.5671C70.0721 15.6174 70.1746 25.1848 70.1667 30.1313C71.6693 29.1366 77.2698 25.8734 86.8634 20.6299C85.1954 25.0983 80.4058 34.1721 77.1891 39.7593C73.468 40.0674 64.5379 39.7131 58.8779 37.6005C53.218 35.4879 48.2297 30.5149 46.443 28.2924Z" fill="url(#paint6_radial)"/>
<path d="M46.4696 27.3428C46.4696 27.3428 48.714 14.5757 51.0135 5.81676C51.425 7.56777 51.9047 16.687 52.6702 23.9501C52.8487 25.643 54.7946 26.3123 55.9216 25.0366C58.5508 22.0602 61.6303 18.3237 69.2138 12.9362C70.0061 15.6279 70.4094 24.5867 70.4878 30.055C70.5 30.9017 71.4014 31.3457 72.0543 30.8064C74.5413 28.7521 79.3881 24.7153 86.8628 20.6299C85.1948 25.0983 80.3215 33.0912 77.1047 38.6784C73.3836 38.9865 64.6333 38.8895 58.9734 36.7768C53.3134 34.6642 48.2563 29.5653 46.4696 27.3428Z" fill="url(#paint7_linear)"/>
<path d="M54.3833 38.8071C55.1986 37.491 64.6268 20.8452 69.1252 12.9903C70.6154 21.4765 69.8474 26.7371 69.9279 31.0074L69.9847 42.1224C69.6067 42.8456 60.6704 41.4131 54.3833 38.8071Z" fill="#F78B0C"/>
<path d="M54.4475 44.3727C55.2628 43.0566 65.6425 30.372 70.1409 22.5171C70.4752 25.6476 71.6955 28.0722 75.4747 25.6834L70.0489 47.688C69.6709 48.4112 60.7346 46.9787 54.4475 44.3727Z" fill="url(#paint8_linear)"/>
<path d="M69.0921 13.1059L69.3057 10.1252L73.0459 13.2236C73.0208 13.4465 71.1599 16.8499 70.0251 20.6989C69.9993 20.4571 69.5369 15.3618 69.0921 13.1059Z" fill="url(#paint9_linear)"/>
<path d="M85.8091 20.8741L89.0588 18.1809L89.683 20.6746C89.6578 20.8974 80.7277 36.219 78.1003 38.2985C75.1668 40.9058 86.2539 23.1299 85.8091 20.8741Z" fill="url(#paint10_linear)"/>
<path d="M51.0753 7.99124L51.2889 5.01051L55.0291 8.10893C55.004 8.33176 53.1431 11.7352 52.0083 15.5842C51.9825 15.3424 51.5201 10.2471 51.0753 7.99124Z" fill="url(#paint11_linear)"/>
<path d="M51.182 5.94817L52.3292 20.0472L48.1635 32.0129L41.5365 28.8383L51.182 5.94817Z" fill="url(#paint12_linear)"/>
<circle cx="70.7595" cy="10.3118" r="2.0207" transform="rotate(20.4683 70.7595 10.3118)" fill="#F79E0D"/>
<circle cx="51.3626" cy="5.86983" r="2.0207" transform="rotate(20.4683 51.3626 5.86983)" fill="#F79E0D"/>
<circle cx="88.1452" cy="20.1937" r="2.0207" transform="rotate(20.4683 88.1452 20.1937)" fill="#F79E0D"/>
<path d="M75.8404 27.7755C76.5627 27.2753 77.4032 26.7362 78.2822 26.1957C80.4928 24.8363 82.9507 27.2169 81.7702 29.528L75.0724 42.6404L72.9467 40.9558C72.9467 40.9558 74.9942 31.997 75.8404 27.7755Z" fill="url(#paint13_linear)"/>
</g>
<mask id="mask2" mask-type="alpha" maskUnits="userSpaceOnUse" x="67" y="6" width="7" height="7">
<path d="M72.6244 10.5199L72.6245 10.5199L72.6264 10.5146C73.0793 9.21801 72.3613 8.0498 71.4452 7.70788C70.9503 7.52314 70.3678 7.66577 69.8989 7.92456C69.4268 8.18516 68.9969 8.60268 68.8217 9.07189C68.6413 9.55539 68.7356 10.0676 68.9961 10.5014C69.2562 10.9344 69.688 11.3031 70.2185 11.5255L70.2185 11.5257L70.2284 11.5294C71.1271 11.8649 72.2726 11.4626 72.6244 10.5199Z" fill="white" stroke="white" stroke-width="0.53061"/>
</mask>
<g mask="url(#mask2)">
<path d="M73.1483 11.0799C72.6361 12.452 71.0827 13.0632 69.821 12.5923C68.5594 12.1214 67.3177 10.4168 67.8298 9.04472C68.342 7.67261 70.336 6.37462 71.5976 6.84553C72.8593 7.31644 73.6604 9.70783 73.1483 11.0799Z" fill="white"/>
<path d="M72.5542 10.2041C72.1593 11.262 70.86 11.6954 69.7771 11.2912C68.6942 10.887 67.5929 9.51901 67.9878 8.46104C68.3827 7.40308 70.0359 6.44542 71.1187 6.84961C72.2016 7.25381 72.9491 9.14611 72.5542 10.2041Z" fill="#FDC541"/>
</g>
<mask id="mask3" mask-type="alpha" maskUnits="userSpaceOnUse" x="85" y="16" width="6" height="6">
<path d="M89.7212 18.796L89.7212 18.796L89.7192 18.7908C89.3107 17.7111 88.2152 17.3432 87.4345 17.6199C87.007 17.7714 86.7083 18.1833 86.5474 18.5999C86.3851 19.0199 86.3322 19.5217 86.4745 19.9233C86.6219 20.3393 86.9645 20.6208 87.3679 20.7599C87.7705 20.8987 88.2472 20.9024 88.7072 20.7597L88.7072 20.7599L88.7172 20.7564C89.4805 20.4858 90.0073 19.6035 89.7212 18.796Z" fill="white" stroke="white" stroke-width="0.53061"/>
</mask>
<g mask="url(#mask3)">
<path d="M90.3021 18.8878C90.704 20.0215 90.0489 21.226 89.0064 21.5954C87.9639 21.9649 86.283 21.5475 85.8811 20.4138C85.4793 19.28 86.0492 17.4108 87.0917 17.0414C88.1341 16.6719 89.9003 17.754 90.3021 18.8878Z" fill="white"/>
<path d="M89.466 18.6509C89.7758 19.525 89.1869 20.4834 88.2921 20.8006C87.3973 21.1177 85.9823 20.838 85.6725 19.9638C85.3627 19.0896 85.8976 17.6145 86.7924 17.2974C87.6872 16.9803 89.1562 17.7767 89.466 18.6509Z" fill="#FDC541"/>
</g>
<mask id="mask4" mask-type="alpha" maskUnits="userSpaceOnUse" x="48" y="2" width="6" height="6">
<path d="M52.9545 5.07228L52.9546 5.07226L52.9526 5.06701C52.544 3.9873 51.4486 3.61945 50.6679 3.89613C50.2404 4.04763 49.9416 4.45958 49.7807 4.87615C49.6185 5.2962 49.5656 5.79798 49.7079 6.19957C49.8553 6.61553 50.1979 6.89701 50.6013 7.03611C51.0039 7.17493 51.4806 7.17864 51.9405 7.03595L51.9406 7.03615L51.9506 7.03262C52.7139 6.76209 53.2407 5.87972 52.9545 5.07228Z" fill="white" stroke="white" stroke-width="0.53061"/>
</mask>
<g mask="url(#mask4)">
<path d="M53.5355 5.16382C53.9373 6.29758 53.2822 7.50201 52.2397 7.87148C51.1973 8.24095 49.5163 7.82356 49.1145 6.6898C48.7127 5.55604 49.2825 3.68686 50.325 3.31739C51.3675 2.94792 53.1337 4.03006 53.5355 5.16382Z" fill="white"/>
<path d="M52.7002 4.92689C53.0101 5.80108 52.4211 6.75948 51.5263 7.07661C50.6315 7.39373 49.2165 7.11402 48.9067 6.23984C48.5969 5.36565 49.1318 3.89056 50.0266 3.57344C50.9214 3.25631 52.3904 4.0527 52.7002 4.92689Z" fill="#FDC541"/>
</g>
<circle cx="70.633" cy="9.53287" r="1.72601" transform="rotate(20.4683 70.633 9.53287)" fill="url(#paint14_radial)"/>
<path d="M89.2392 18.7683C89.5007 19.5063 89.1145 20.3165 88.3766 20.578C87.6387 20.8396 86.8284 20.4534 86.5669 19.7154C86.3054 18.9775 86.6916 18.1673 87.4295 17.9058C88.1674 17.6442 88.9776 18.0304 89.2392 18.7683Z" fill="url(#paint15_radial)"/>
<path d="M52.4717 5.04472C52.7332 5.78265 52.347 6.59288 51.6091 6.85441C50.8711 7.11595 50.0609 6.72975 49.7994 5.99181C49.5378 5.25388 49.924 4.44365 50.662 4.18212C51.3999 3.92059 52.2101 4.30678 52.4717 5.04472Z" fill="url(#paint16_radial)"/>
<path d="M61.9257 8.31828C61.5803 9.24355 60.5487 9.95127 59.6234 9.60591C58.6981 9.26055 58.0292 7.95061 58.3746 7.02534C58.7199 6.10008 59.8624 5.53132 60.7876 5.87668C61.7129 6.22204 62.271 7.39302 61.9257 8.31828Z" fill="url(#paint17_radial)"/>
<circle cx="60.1472" cy="7.66338" r="1.54828" transform="rotate(20.4683 60.1472 7.66338)" fill="url(#paint18_radial)"/>
<path d="M80.6127 14.3535C80.7423 15.3325 80.1638 16.4418 79.1847 16.5714C78.2056 16.701 76.9999 15.8586 76.8703 14.8795C76.7407 13.9005 77.4823 12.8618 78.4614 12.7322C79.4404 12.6026 80.4831 13.3744 80.6127 14.3535Z" fill="url(#paint19_radial)"/>
<path d="M80.2701 14.4083C80.3823 15.256 79.786 16.0341 78.9383 16.1463C78.0906 16.2585 77.3125 15.6623 77.2003 14.8146C77.0881 13.9669 77.6843 13.1887 78.532 13.0765C79.3797 12.9643 80.1579 13.5606 80.2701 14.4083Z" fill="url(#paint20_radial)"/>
<defs>
<linearGradient id="paint0_linear" x1="53.1271" y1="12.132" x2="53.1271" y2="44.4497" gradientUnits="userSpaceOnUse">
<stop stop-color="#FB6E07"/>
<stop offset="1" stop-color="#FF8A00"/>
</linearGradient>
<linearGradient id="paint1_linear" x1="64.2874" y1="30.9211" x2="61.0926" y2="39.4803" gradientUnits="userSpaceOnUse">
<stop stop-color="#5496AE"/>
<stop offset="1" stop-color="#3D4493" stop-opacity="0.72"/>
</linearGradient>
<linearGradient id="paint2_linear" x1="66.9583" y1="31.9178" x2="63.7636" y2="40.4769" gradientUnits="userSpaceOnUse">
<stop stop-color="#5496AE"/>
<stop offset="1" stop-color="#3D4493" stop-opacity="0.72"/>
</linearGradient>
<linearGradient id="paint3_linear" x1="78.5524" y1="15.3663" x2="70.0853" y2="23.8864" gradientUnits="userSpaceOnUse">
<stop stop-color="#E23316" stop-opacity="0.52"/>
<stop offset="1" stop-color="#EC920C"/>
</linearGradient>
<linearGradient id="paint4_linear" x1="69.3241" y1="12.5958" x2="61.7641" y2="32.85" gradientUnits="userSpaceOnUse">
<stop stop-color="#E23316"/>
<stop offset="1" stop-color="#EC920C" stop-opacity="0.87"/>
</linearGradient>
<linearGradient id="paint5_linear" x1="59.2282" y1="24.2889" x2="63.2956" y2="4.9623" gradientUnits="userSpaceOnUse">
<stop stop-color="#CF3016"/>
<stop offset="1" stop-color="#CF3016" stop-opacity="0"/>
</linearGradient>
<radialGradient id="paint6_radial" cx="0" cy="0" r="1" gradientUnits="userSpaceOnUse" gradientTransform="translate(67.6146 20.9398) rotate(114.935) scale(18.7208 26.7714)">
<stop offset="0.260417" stop-color="#FDE87B"/>
<stop offset="1" stop-color="#FAB011"/>
</radialGradient>
<linearGradient id="paint7_linear" x1="69.2835" y1="10.3437" x2="52.0572" y2="57.2244" gradientUnits="userSpaceOnUse">
<stop stop-color="#FDCA46"/>
<stop offset="1" stop-color="#F78B0C"/>
</linearGradient>
<linearGradient id="paint8_linear" x1="62.8428" y1="39.8888" x2="76.3565" y2="28.1741" gradientUnits="userSpaceOnUse">
<stop offset="0.0260417" stop-color="#F7122E" stop-opacity="0.72"/>
<stop offset="1" stop-color="#F8600B" stop-opacity="0"/>
</linearGradient>
<linearGradient id="paint9_linear" x1="72.4782" y1="12.2849" x2="70.133" y2="20.3613" gradientUnits="userSpaceOnUse">
<stop stop-color="#FFF8E7" stop-opacity="0"/>
<stop offset="0.255919" stop-color="white"/>
<stop offset="1" stop-color="#FFF8E7" stop-opacity="0"/>
</linearGradient>
<linearGradient id="paint10_linear" x1="89.1151" y1="19.7358" x2="86.77" y2="27.8122" gradientUnits="userSpaceOnUse">
<stop stop-color="#FFF8E7" stop-opacity="0"/>
<stop offset="0.255919" stop-color="white"/>
<stop offset="1" stop-color="#FFF8E7" stop-opacity="0"/>
</linearGradient>
<linearGradient id="paint11_linear" x1="54.4613" y1="7.17017" x2="52.1162" y2="15.2466" gradientUnits="userSpaceOnUse">
<stop stop-color="#FFF8E7" stop-opacity="0"/>
<stop offset="0.255919" stop-color="white"/>
<stop offset="1" stop-color="#FFF8E7" stop-opacity="0"/>
</linearGradient>
<linearGradient id="paint12_linear" x1="54.0105" y1="9.00814" x2="37.6729" y2="21.942" gradientUnits="userSpaceOnUse">
<stop offset="0.102836" stop-color="#FD754A" stop-opacity="0"/>
<stop offset="0.588542" stop-color="#F78B0C"/>
</linearGradient>
<linearGradient id="paint13_linear" x1="82.5367" y1="21.7143" x2="66.8033" y2="36.0932" gradientUnits="userSpaceOnUse">
<stop offset="0.102836" stop-color="#FE7E21" stop-opacity="0"/>
<stop offset="0.744452" stop-color="#F79E0C"/>
</linearGradient>
<radialGradient id="paint14_radial" cx="0" cy="0" r="1" gradientUnits="userSpaceOnUse" gradientTransform="translate(71.5038 8.6722) rotate(120.256) scale(3.89697 3.90121)">
<stop offset="0.135417" stop-color="white"/>
<stop offset="0.531458" stop-color="#FFB629"/>
<stop offset="0.682292" stop-color="#E77E31"/>
<stop offset="1" stop-color="#D58205"/>
</radialGradient>
<radialGradient id="paint15_radial" cx="0" cy="0" r="1" gradientUnits="userSpaceOnUse" gradientTransform="translate(88.3411 18.3367) rotate(100.741) scale(3.2006 3.20408)">
<stop offset="0.135417" stop-color="white"/>
<stop offset="0.531458" stop-color="#FFB629"/>
<stop offset="0.682292" stop-color="#E77E31"/>
<stop offset="1" stop-color="#D58205"/>
</radialGradient>
<radialGradient id="paint16_radial" cx="0" cy="0" r="1" gradientUnits="userSpaceOnUse" gradientTransform="translate(51.5735 4.61308) rotate(100.741) scale(3.2006 3.20408)">
<stop offset="0.135417" stop-color="white"/>
<stop offset="0.531458" stop-color="#FFB629"/>
<stop offset="0.682292" stop-color="#E77E31"/>
<stop offset="1" stop-color="#D58205"/>
</radialGradient>
<radialGradient id="paint17_radial" cx="0" cy="0" r="1" gradientUnits="userSpaceOnUse" gradientTransform="translate(61.6607 7.63382) rotate(148.496) scale(3.01774 3.02103)">
<stop offset="0.46875" stop-color="#FEF2CB"/>
<stop offset="1" stop-color="#D52A05"/>
</radialGradient>
<radialGradient id="paint18_radial" cx="0" cy="0" r="1" gradientUnits="userSpaceOnUse" gradientTransform="translate(60.5827 6.93319) rotate(100.823) scale(2.31973 2.32225)">
<stop stop-color="#FEF2CB"/>
<stop offset="0.348958" stop-color="#F4B540"/>
<stop offset="1" stop-color="#D52A05"/>
</radialGradient>
<radialGradient id="paint19_radial" cx="0" cy="0" r="1" gradientUnits="userSpaceOnUse" gradientTransform="translate(80.0573 13.8736) rotate(142.564) scale(3.10312 3.1065)">
<stop offset="0.642785" stop-color="#FEF2CB"/>
<stop offset="1" stop-color="#D52A05"/>
</radialGradient>
<radialGradient id="paint20_radial" cx="0" cy="0" r="1" gradientUnits="userSpaceOnUse" gradientTransform="translate(79.7568 14.0917) rotate(156.823) scale(2.75811 2.76111)">
<stop offset="0.140625" stop-color="#FEF2CB"/>
<stop offset="0.5625" stop-color="#F4B540"/>
<stop offset="1" stop-color="#D52A05"/>
</radialGradient>
</defs>
</svg>
