{
  "cms.library.shelf.mybooks.png": "I MIEI LIBRI",
  "cms.library.shelf.featured.png": "IN EVIDENZA",
  "cms.library.shelf.friendship.png": "AMICIZIA",
  "cms.library.shelf.animals.png": "ANIMALI",
  "cms.library.shelf.adventure.png": "AVVENTURA",
  "cms.library.shelf.reference.png": "Consultazione",
  "cms.library.shelf.greekmyths.png": "MITI GRECI",
  "cms.library.shelf.magic.png": "MAGIA",
  "cms.library.shelf.earlyreaders.png": "LETTORI PRECOCI",
  "cms.library.shelf.levelone.png": "LIVELLO 1",
  "cms.library.shelf.leveltwo.png": "LIVELLO 2",
  "cms.library.shelf.levelthree.png": "LIVELLO 3",
  "cms.library.shelf.levelfour.png": "LIVELLO 4",
  "cms.library.shelf.levelfive.png": "LIVELLO 5",
  "cms.popup.suggestion.title.svg": "Cosa vuoi fare?",
  "cms.popup.suggestion.game.svg": "Gioco",
  "cms.popup.suggestion.games.svg": "Giochi",
  "cms.popup.suggestion.book.svg": "Libro",
  "cms.popup.suggestion.adventure.svg": "Avventure",
  "cms.popup.suggestion.narration.mp3": "tocca il libro delle avventure per iniziare l’esplorazione",
  "cms.popup.gamesfeedback.nicetry.png": "Bel tentativo!",
  "cms.popup.gamesfeedback.welldone.png": "BEN FATTO!",
  "cms.popup.gamesfeedback.button.back.png": "Indietro",
  "cms.popup.gamesfeedback.button.again.png": "Gioca ancora",
  "cms.popup.gamesfeedback.button.next.png": "Prossimo livello",
  "cms.popup.subscription.terms.store.ios.txt": "Il pagamento sarà addebitato sul conto iTunes alla conferma dell'acquisto",
  "cms.popup.subscription.terms.store.android.txt": "Il pagamento sarà addebitato sul conto PlayStore alla conferma dell'acquisto",
  "cms.popup.subscription.terms.autorenew.txt": "La sottoscrizione si rinnova automaticamente a meno che l'auto-rinnovo non sia stato disattivato almeno 24 ore prima dalla fine del periodo corrente",
  "cms.popup.subscription.terms.charge.txt": "L'account sarà addebitato per il rinnovo nelle 24 ore precedenti alla fine del periodo corrente, e indicherà il costo del rinnovo",
  "cms.popup.subscription.terms.manage.txt": "La sottoscrizione può essere gestita dall'utente e l'auto-rinnovo può essere disattivato nelle impostazioni dell'account dopo aver effettuato l'acquisto",
  "cms.popup.subscription.terms.unused.txt": "La restante parte del periodo di prova gratuito, se offerto, sarà aggiunta alla sottoscrizione dopo l'acquisto, laddove applicabile",
  "cms.popup.subscription.savecrown.svg": "Risparmia oltre il {X}%",
  "cms.popup.subscription.product.try.button.svg": "Prova Bookful per {X} giorni",
  "cms.popup.subscription.product.start.button.svg": "comincia subito",
  "cms.popup.subscription.product.freefor.txt": "Gratis per {X} giorni e",
  "cms.popup.subscription.product.permonth.txt": "{X} mesi per {Y} al mese",
  "cms.popup.subscription.product.quarterly.title.txt": "trimestrale",
  "cms.popup.subscription.product.quarterly.label.txt": "{X}/trimestre",
  "cms.popup.subscription.product.annual.title.txt": "annuale",
  "cms.popup.subscription.product.annual.label.txt": "{X}/anno",
  "cms.popup.subscription.product.lifetime.title.txt": "Per sempre",
  "cms.popup.subscription.product.lifetime.label.txt": "{X}/per sempre",
  "cms.popup.subscription.topslider.toomuchtimeathome.png": "I tuoi bimbi passano troppo tempo a casa?\nProvi l'App di libri e giochi in Inglese in 3D e RA\nGuarda ora",
  "cms.popup.subscription.topslider.fullusetimeathome.png": "Ottimizza il tuo tempo libero a casa\nApp di lettura in 3D e RA pluripremiata",
  "cms.popup.subscription.topslider.midbooknlp.png": "Sei interessato a cosa succede dopo?\nPer OTTENERE questo magico libro e tanto altro ancora - \nISCRIVITI ADESSO",
  "cms.popup.subscription.topslider.midbooktrb.png": "Sei interessato a cosa succede dopo?\nPer OTTENERE questo magico libro e tanto altro ancora - \nISCRIVITI ADESSO",
  "cms.suggestions.newbook.nar": "Cosa vuoi fare adesso?",
  "cms.suggestions.whatsnext.svg": "Cosa Viene Dopo?"
}